examples/VAD_test/rtos4_trace.vcd
$comment
File created by KisTA library.
 Author: F.Herrera
 Institution: KTH
 Date: 2013
	All rights reserved by the authors, till further definition of the license.
$end

$comment
Tracing options used include to trace Task State signals,  Scheduler signals 
$end

$date
     Jul 27, 2016       17:48:51
$end

$version
 SystemC 2.3.1-Accellera --- Mar 29 2016 16:10:40
$end

$timescale
     1 ps
$end

$scope module SystemC $end
$var wire    8  aaaaa  sched4 [7:0]  $end
$var wire    8  aaaab  T7 [7:0]  $end
$var wire    8  aaaac  T8 [7:0]  $end
$upscope $end
$enddefinitions  $end

$comment
All initial values are dumped below at time 0 sec = 0 timescale units.
$end

$dumpvars
b1001001 aaaaa
b1000011 aaaab
b1010010 aaaac
$end

#9448102883
b1000101 aaaab

#9452122883
b1010010 aaaab
b1000101 aaaac

#9456122883
b1000011 aaaab
b1010010 aaaac

#18119022883
b1000101 aaaab

#18123042883
b1010010 aaaab
b1000101 aaaac

#18127042883
b1000011 aaaab
b1010010 aaaac

#26789942883
b1000101 aaaab

#26793962883
b1010010 aaaab
b1000101 aaaac

#26797962883
b1000011 aaaab
b1010010 aaaac

#35460862883
b1000101 aaaab

#35464882883
b1010010 aaaab
b1000101 aaaac

#35468882883
b1000011 aaaab
b1010010 aaaac

#44131782883
b1000101 aaaab

#44135802883
b1010010 aaaab
b1000101 aaaac

#44139802883
b1000011 aaaab
b1010010 aaaac

#52802702883
b1000101 aaaab

#52806722883
b1010010 aaaab
b1000101 aaaac

#52810722883
b1000011 aaaab
b1010010 aaaac

#61473622883
b1000101 aaaab

#61477642883
b1010010 aaaab
b1000101 aaaac

#61481642883
b1000011 aaaab
b1010010 aaaac

#70144542883
b1000101 aaaab

#70148562883
b1010010 aaaab
b1000101 aaaac

#70152562883
b1000011 aaaab
b1010010 aaaac

#78815462883
b1000101 aaaab

#78819482883
b1010010 aaaab
b1000101 aaaac

#78823482883
b1000011 aaaab
b1010010 aaaac

#87486382883
b1000101 aaaab

#87490402883
b1010010 aaaab
b1000101 aaaac

#87494402883
b1000011 aaaab
b1010010 aaaac

#96157302883
b1000101 aaaab

#96161322883
b1010010 aaaab
b1000101 aaaac

#96165322883
b1000011 aaaab
b1010010 aaaac

#104828222883
b1000101 aaaab

#104832242883
b1010010 aaaab
b1000101 aaaac

#104836242883
b1000011 aaaab
b1010010 aaaac

#113499142883
b1000101 aaaab

#113503162883
b1010010 aaaab
b1000101 aaaac

#113507162883
b1000011 aaaab
b1010010 aaaac

#122170062883
b1000101 aaaab

#122174082883
b1010010 aaaab
b1000101 aaaac

#122178082883
b1000011 aaaab
b1010010 aaaac

#130840982883
b1000101 aaaab

#130845002883
b1010010 aaaab
b1000101 aaaac

#130849002883
b1000011 aaaab
b1010010 aaaac

#139511902883
b1000101 aaaab

#139515922883
b1010010 aaaab
b1000101 aaaac

#139519922883
b1000011 aaaab
b1010010 aaaac

#148182822883
b1000101 aaaab

#148186842883
b1010010 aaaab
b1000101 aaaac

#148190842883
b1000011 aaaab
b1010010 aaaac

#156853742883
b1000101 aaaab

#156857762883
b1010010 aaaab
b1000101 aaaac

#156861762883
b1000011 aaaab
b1010010 aaaac

#165524662883
b1000101 aaaab

#165528682883
b1010010 aaaab
b1000101 aaaac

#165532682883
b1000011 aaaab
b1010010 aaaac

#174195582883
b1000101 aaaab

#174199602883
b1010010 aaaab
b1000101 aaaac

#174203602883
b1000011 aaaab
b1010010 aaaac

#182866502883
b1000101 aaaab

#182870522883
b1010010 aaaab
b1000101 aaaac

#182874522883
b1000011 aaaab
b1010010 aaaac

#191537422883
b1000101 aaaab

#191541442883
b1010010 aaaab
b1000101 aaaac

#191545442883
b1000011 aaaab
b1010010 aaaac

#200208342883
b1000101 aaaab

#200212362883
b1010010 aaaab
b1000101 aaaac

#200216362883
b1000011 aaaab
b1010010 aaaac

#208879262883
b1000101 aaaab

#208883282883
b1010010 aaaab
b1000101 aaaac

#208887282883
b1000011 aaaab
b1010010 aaaac

#217550182883
b1000101 aaaab

#217554202883
b1010010 aaaab
b1000101 aaaac

#217558202883
b1000011 aaaab
b1010010 aaaac

#226221102883
b1000101 aaaab

#226225122883
b1010010 aaaab
b1000101 aaaac

#226229122883
b1000011 aaaab
b1010010 aaaac

#234892022883
b1000101 aaaab

#234896042883
b1010010 aaaab
b1000101 aaaac

#234900042883
b1000011 aaaab
b1010010 aaaac

#243562942883
b1000101 aaaab

#243566962883
b1010010 aaaab
b1000101 aaaac

#243570962883
b1000011 aaaab
b1010010 aaaac

#252233862883
b1000101 aaaab

#252237882883
b1010010 aaaab
b1000101 aaaac

#252241882883
b1000011 aaaab
b1010010 aaaac

#260904782883
b1000101 aaaab

#260908802883
b1010010 aaaab
b1000101 aaaac

#260912802883
b1000011 aaaab
b1010010 aaaac

#269575702883
b1000101 aaaab

#269579722883
b1010010 aaaab
b1000101 aaaac

#269583722883
b1000011 aaaab
b1010010 aaaac

#278246622883
b1000101 aaaab

#278250642883
b1010010 aaaab
b1000101 aaaac

#278254642883
b1000011 aaaab
b1010010 aaaac

#286917542883
b1000101 aaaab

#286921562883
b1010010 aaaab
b1000101 aaaac

#286925562883
b1000011 aaaab
b1010010 aaaac

#295588462883
b1000101 aaaab

#295592482883
b1010010 aaaab
b1000101 aaaac

#295596482883
b1000011 aaaab
b1010010 aaaac

#304259382883
b1000101 aaaab

#304263402883
b1010010 aaaab
b1000101 aaaac

#304267402883
b1000011 aaaab
b1010010 aaaac

#312930302883
b1000101 aaaab

#312934322883
b1010010 aaaab
b1000101 aaaac

#312938322883
b1000011 aaaab
b1010010 aaaac

#321601222883
b1000101 aaaab

#321605242883
b1010010 aaaab
b1000101 aaaac

#321609242883
b1000011 aaaab
b1010010 aaaac

#330272142883
b1000101 aaaab

#330276162883
b1010010 aaaab
b1000101 aaaac

#330280162883
b1000011 aaaab
b1010010 aaaac

#338943062883
b1000101 aaaab

#338947082883
b1010010 aaaab
b1000101 aaaac

#338951082883
b1000011 aaaab
b1010010 aaaac

#347613982883
b1000101 aaaab

#347618002883
b1010010 aaaab
b1000101 aaaac

#347622002883
b1000011 aaaab
b1010010 aaaac

#356284902883
b1000101 aaaab

#356288922883
b1010010 aaaab
b1000101 aaaac

#356292922883
b1000011 aaaab
b1010010 aaaac

#364955822883
b1000101 aaaab

#364959842883
b1010010 aaaab
b1000101 aaaac

#364963842883
b1000011 aaaab
b1010010 aaaac

#373626742883
b1000101 aaaab

#373630762883
b1010010 aaaab
b1000101 aaaac

#373634762883
b1000011 aaaab
b1010010 aaaac

#382297662883
b1000101 aaaab

#382301682883
b1010010 aaaab
b1000101 aaaac

#382305682883
b1000011 aaaab
b1010010 aaaac

#390968582883
b1000101 aaaab

#390972602883
b1010010 aaaab
b1000101 aaaac

#390976602883
b1000011 aaaab
b1010010 aaaac

#399639502883
b1000101 aaaab

#399643522883
b1010010 aaaab
b1000101 aaaac

#399647522883
b1000011 aaaab
b1010010 aaaac

#408310422883
b1000101 aaaab

#408314442883
b1010010 aaaab
b1000101 aaaac

#408318442883
b1000011 aaaab
b1010010 aaaac

#416981342883
b1000101 aaaab

#416985362883
b1010010 aaaab
b1000101 aaaac

#416989362883
b1000011 aaaab
b1010010 aaaac

#425652262883
b1000101 aaaab

#425656282883
b1010010 aaaab
b1000101 aaaac

#425660282883
b1000011 aaaab
b1010010 aaaac

#434323182883
b1000101 aaaab

#434327202883
b1010010 aaaab
b1000101 aaaac

#434331202883
b1000011 aaaab
b1010010 aaaac

#442994102883
b1000101 aaaab

#442998122883
b1010010 aaaab
b1000101 aaaac

#443002122883
b1000011 aaaab
b1010010 aaaac

#451665022883
b1000101 aaaab

#451669042883
b1010010 aaaab
b1000101 aaaac

#451673042883
b1000011 aaaab
b1010010 aaaac

#460335942883
b1000101 aaaab

#460339962883
b1010010 aaaab
b1000101 aaaac

#460343962883
b1000011 aaaab
b1010010 aaaac

#469006862883
b1000101 aaaab

#469010882883
b1010010 aaaab
b1000101 aaaac

#469014882883
b1000011 aaaab
b1010010 aaaac

#477677782883
b1000101 aaaab

#477681802883
b1010010 aaaab
b1000101 aaaac

#477685802883
b1000011 aaaab
b1010010 aaaac

#486348702883
b1000101 aaaab

#486352722883
b1010010 aaaab
b1000101 aaaac

#486356722883
b1000011 aaaab
b1010010 aaaac

#495019622883
b1000101 aaaab

#495023642883
b1010010 aaaab
b1000101 aaaac

#495027642883
b1000011 aaaab
b1010010 aaaac

#503690542883
b1000101 aaaab

#503694562883
b1010010 aaaab
b1000101 aaaac

#503698562883
b1000011 aaaab
b1010010 aaaac

#512361462883
b1000101 aaaab

#512365482883
b1010010 aaaab
b1000101 aaaac

#512369482883
b1000011 aaaab
b1010010 aaaac

#521032382883
b1000101 aaaab

#521036402883
b1010010 aaaab
b1000101 aaaac

#521040402883
b1000011 aaaab
b1010010 aaaac

#529703302883
b1000101 aaaab

#529707322883
b1010010 aaaab
b1000101 aaaac

#529711322883
b1000011 aaaab
b1010010 aaaac

#538374222883
b1000101 aaaab

#538378242883
b1010010 aaaab
b1000101 aaaac

#538382242883
b1000011 aaaab
b1010010 aaaac

#547045142883
b1000101 aaaab

#547049162883
b1010010 aaaab
b1000101 aaaac

#547053162883
b1000011 aaaab
b1010010 aaaac

#555716062883
b1000101 aaaab

#555720082883
b1010010 aaaab
b1000101 aaaac

#555724082883
b1000011 aaaab
b1010010 aaaac

#564386982883
b1000101 aaaab

#564391002883
b1010010 aaaab
b1000101 aaaac

#564395002883
b1000011 aaaab
b1010010 aaaac

#573057902883
b1000101 aaaab

#573061922883
b1010010 aaaab
b1000101 aaaac

#573065922883
b1000011 aaaab
b1010010 aaaac

#581728822883
b1000101 aaaab

#581732842883
b1010010 aaaab
b1000101 aaaac

#581736842883
b1000011 aaaab
b1010010 aaaac

#590399742883
b1000101 aaaab

#590403762883
b1010010 aaaab
b1000101 aaaac

#590407762883
b1000011 aaaab
b1010010 aaaac

#599070662883
b1000101 aaaab

#599074682883
b1010010 aaaab
b1000101 aaaac

#599078682883
b1000011 aaaab
b1010010 aaaac

#607741582883
b1000101 aaaab

#607745602883
b1010010 aaaab
b1000101 aaaac

#607749602883
b1000011 aaaab
b1010010 aaaac

#616412502883
b1000101 aaaab

#616416522883
b1010010 aaaab
b1000101 aaaac

#616420522883
b1000011 aaaab
b1010010 aaaac

#625083422883
b1000101 aaaab

#625087442883
b1010010 aaaab
b1000101 aaaac

#625091442883
b1000011 aaaab
b1010010 aaaac

#633754342883
b1000101 aaaab

#633758362883
b1010010 aaaab
b1000101 aaaac

#633762362883
b1000011 aaaab
b1010010 aaaac

#642425262883
b1000101 aaaab

#642429282883
b1010010 aaaab
b1000101 aaaac

#642433282883
b1000011 aaaab
b1010010 aaaac

#651096182883
b1000101 aaaab

#651100202883
b1010010 aaaab
b1000101 aaaac

#651104202883
b1000011 aaaab
b1010010 aaaac

#659767102883
b1000101 aaaab

#659771122883
b1010010 aaaab
b1000101 aaaac

#659775122883
b1000011 aaaab
b1010010 aaaac

#668438022883
b1000101 aaaab

#668442042883
b1010010 aaaab
b1000101 aaaac

#668446042883
b1000011 aaaab
b1010010 aaaac

#677108942883
b1000101 aaaab

#677112962883
b1010010 aaaab
b1000101 aaaac

#677116962883
b1000011 aaaab
b1010010 aaaac

#685779862883
b1000101 aaaab

#685783882883
b1010010 aaaab
b1000101 aaaac

#685787882883
b1000011 aaaab
b1010010 aaaac

#694450782883
b1000101 aaaab

#694454802883
b1010010 aaaab
b1000101 aaaac

#694458802883
b1000011 aaaab
b1010010 aaaac

#703121702883
b1000101 aaaab

#703125722883
b1010010 aaaab
b1000101 aaaac

#703129722883
b1000011 aaaab
b1010010 aaaac

#711792622883
b1000101 aaaab

#711796642883
b1010010 aaaab
b1000101 aaaac

#711800642883
b1000011 aaaab
b1010010 aaaac

#720463542883
b1000101 aaaab

#720467562883
b1010010 aaaab
b1000101 aaaac

#720471562883
b1000011 aaaab
b1010010 aaaac

#729134462883
b1000101 aaaab

#729138482883
b1010010 aaaab
b1000101 aaaac

#729142482883
b1000011 aaaab
b1010010 aaaac

#737805382883
b1000101 aaaab

#737809402883
b1010010 aaaab
b1000101 aaaac

#737813402883
b1000011 aaaab
b1010010 aaaac

#746476302883
b1000101 aaaab

#746480322883
b1010010 aaaab
b1000101 aaaac

#746484322883
b1000011 aaaab
b1010010 aaaac

#755147222883
b1000101 aaaab

#755151242883
b1010010 aaaab
b1000101 aaaac

#755155242883
b1000011 aaaab
b1010010 aaaac

#763818142883
b1000101 aaaab

#763822162883
b1010010 aaaab
b1000101 aaaac

#763826162883
b1000011 aaaab
b1010010 aaaac

#772489062883
b1000101 aaaab

#772493082883
b1010010 aaaab
b1000101 aaaac

#772497082883
b1000011 aaaab
b1010010 aaaac

#781159982883
b1000101 aaaab

#781164002883
b1010010 aaaab
b1000101 aaaac

#781168002883
b1000011 aaaab
b1010010 aaaac

#789830902883
b1000101 aaaab

#789834922883
b1010010 aaaab
b1000101 aaaac

#789838922883
b1000011 aaaab
b1010010 aaaac

#798501822883
b1000101 aaaab

#798505842883
b1010010 aaaab
b1000101 aaaac

#798509842883
b1000011 aaaab
b1010010 aaaac

#807172742883
b1000101 aaaab

#807176762883
b1010010 aaaab
b1000101 aaaac

#807180762883
b1000011 aaaab
b1010010 aaaac

#815843662883
b1000101 aaaab

#815847682883
b1010010 aaaab
b1000101 aaaac

#815851682883
b1000011 aaaab
b1010010 aaaac

#824514582883
b1000101 aaaab

#824518602883
b1010010 aaaab
b1000101 aaaac

#824522602883
b1000011 aaaab
b1010010 aaaac

#833185502883
b1000101 aaaab

#833189522883
b1010010 aaaab
b1000101 aaaac

#833193522883
b1000011 aaaab
b1010010 aaaac

#841856422883
b1000101 aaaab

#841860442883
b1010010 aaaab
b1000101 aaaac

#841864442883
b1000011 aaaab
b1010010 aaaac

#850527342883
b1000101 aaaab

#850531362883
b1010010 aaaab
b1000101 aaaac

#850535362883
b1000011 aaaab
b1010010 aaaac

#859198262883
b1000101 aaaab

#859202282883
b1010010 aaaab
b1000101 aaaac

#859206282883
b1000011 aaaab
b1010010 aaaac

#867869182883
b1000101 aaaab

#867873202883
b1010010 aaaab
b1000101 aaaac

#867877202883
b1000011 aaaab
b1010010 aaaac

#876540102883
b1000101 aaaab

#876544122883
b1010010 aaaab
b1000101 aaaac

#876548122883
b1000011 aaaab
b1010010 aaaac

#885211022883
b1000101 aaaab

#885215042883
b1010010 aaaab
b1000101 aaaac

#885219042883
b1000011 aaaab
b1010010 aaaac

#893881942883
b1000101 aaaab

#893885962883
b1010010 aaaab
b1000101 aaaac

#893889962883
b1000011 aaaab
b1010010 aaaac

#902552862883
b1000101 aaaab

#902556882883
b1010010 aaaab
b1000101 aaaac

#902560882883
b1000011 aaaab
b1010010 aaaac

#911223782883
b1000101 aaaab

#911227802883
b1010010 aaaab
b1000101 aaaac

#911231802883
b1000011 aaaab
b1010010 aaaac

#919894702883
b1000101 aaaab

#919898722883
b1010010 aaaab
b1000101 aaaac

#919902722883
b1000011 aaaab
b1010010 aaaac

#928565622883
b1000101 aaaab

#928569642883
b1010010 aaaab
b1000101 aaaac

#928573642883
b1000011 aaaab
b1010010 aaaac

#937236542883
b1000101 aaaab

#937240562883
b1010010 aaaab
b1000101 aaaac

#937244562883
b1000011 aaaab
b1010010 aaaac

#945907462883
b1000101 aaaab

#945911482883
b1010010 aaaab
b1000101 aaaac

#945915482883
b1000011 aaaab
b1010010 aaaac

#954578382883
b1000101 aaaab

#954582402883
b1010010 aaaab
b1000101 aaaac

#954586402883
b1000011 aaaab
b1010010 aaaac

#963249302883
b1000101 aaaab

#963253322883
b1010010 aaaab
b1000101 aaaac

#963257322883
b1000011 aaaab
b1010010 aaaac

#971920222883
b1000101 aaaab

#971924242883
b1010010 aaaab
b1000101 aaaac

#971928242883
b1000011 aaaab
b1010010 aaaac

#980591142883
b1000101 aaaab

#980595162883
b1010010 aaaab
b1000101 aaaac

#980599162883
b1000011 aaaab
b1010010 aaaac

#989262062883
b1000101 aaaab

#989266082883
b1010010 aaaab
b1000101 aaaac

#989270082883
b1000011 aaaab
b1010010 aaaac

#997932982883
b1000101 aaaab

#997937002883
b1010010 aaaab
b1000101 aaaac

#997941002883
b1000011 aaaab
b1010010 aaaac

