examples/VAD_attempt3/rtos1_trace.vcd
$comment
File created by KisTA library.
 Author: F.Herrera
 Institution: KTH
 Date: 2013
	All rights reserved by the authors, till further definition of the license.
$end

$comment
Tracing options used include to trace Task State signals,  Scheduler signals 
$end

$date
     Jul 13, 2016       13:14:21
$end

$version
 SystemC 2.3.1-Accellera --- Mar 29 2016 16:10:40
$end

$timescale
     1 ps
$end

$scope module SystemC $end
$var wire    8  aaaaa  sched1 [7:0]  $end
$var wire    8  aaaab  T1 [7:0]  $end
$var wire    8  aaaac  T2 [7:0]  $end
$upscope $end
$enddefinitions  $end

$comment
All initial values are dumped below at time 0 sec = 0 timescale units.
$end

$dumpvars
b1001001 aaaaa
b1010010 aaaab
b1000101 aaaac
$end

#43540000
b1000101 aaaab
b1011000 aaaac

#760600000
b1011000 aaaab
b1000011 aaaac

#148743339674
b1000101 aaaab
b1011000 aaaac

#148785519674
b1011000 aaaab
b1000011 aaaac

#148794299348
b1000101 aaaac

#148837839348
b1000101 aaaab
b1011000 aaaac

#148880019348
b1011000 aaaab
b1000011 aaaac

#148892003627
b1000101 aaaac

#148935543627
b1000101 aaaab
b1011000 aaaac

#148977723627
b1011000 aaaab
b1000011 aaaac

#148989707906
b1000101 aaaac

#149033247906
b1000101 aaaab
b1011000 aaaac

#149075427906
b1011000 aaaab
b1000011 aaaac

#149087412185
b1000101 aaaac

#149130952185
b1000101 aaaab
b1011000 aaaac

#149173132185
b1011000 aaaab
b1000011 aaaac

#149185116464
b1000101 aaaac

#149228656464
b1000101 aaaab
b1011000 aaaac

#149270836464
b1011000 aaaab
b1000011 aaaac

#149282820743
b1000101 aaaac

#149326360743
b1000101 aaaab
b1011000 aaaac

#149368540743
b1011000 aaaab
b1000011 aaaac

#149380525022
b1000101 aaaac

#149424065022
b1000101 aaaab
b1011000 aaaac

#149466245022
b1011000 aaaab
b1000011 aaaac

#149478229301
b1000101 aaaac

#149521769301
b1000101 aaaab
b1011000 aaaac

#149563949301
b1011000 aaaab
b1000011 aaaac

#149575933580
b1000101 aaaac

#149619473580
b1000101 aaaab
b1011000 aaaac

#149661653580
b1011000 aaaab
b1000011 aaaac

#149673637859
b1000101 aaaac

#149717177859
b1000101 aaaab
b1011000 aaaac

#149759357859
b1011000 aaaab
b1000011 aaaac

#149771342138
b1000101 aaaac

#149814882138
b1000101 aaaab
b1011000 aaaac

#149857062138
b1011000 aaaab
b1000011 aaaac

#149869046417
b1000101 aaaac

#149912586417
b1000101 aaaab
b1011000 aaaac

#149954766417
b1011000 aaaab
b1000011 aaaac

#149966750696
b1000101 aaaac

#150010290696
b1000101 aaaab
b1011000 aaaac

#150052470696
b1011000 aaaab
b1000011 aaaac

#150064454975
b1000101 aaaac

#150107994975
b1000101 aaaab
b1011000 aaaac

#150150174975
b1011000 aaaab
b1000011 aaaac

#150162159254
b1000101 aaaac

#150205699254
b1000101 aaaab
b1011000 aaaac

#150247879254
b1011000 aaaab
b1000011 aaaac

#150259863533
b1000101 aaaac

#150303403533
b1000101 aaaab
b1011000 aaaac

#150345583533
b1011000 aaaab
b1000011 aaaac

#150357567812
b1000101 aaaac

#150401107812
b1000011 aaaac

#297406559348
b1000101 aaaab
b1011000 aaaac

#297448739348
b1011000 aaaab
b1000011 aaaac

#297457519022
b1000101 aaaac

#297501059022
b1000101 aaaab
b1011000 aaaac

#297543239022
b1011000 aaaab
b1000011 aaaac

#297555223301
b1000101 aaaac

#297598763301
b1000101 aaaab
b1011000 aaaac

#297640943301
b1011000 aaaab
b1000011 aaaac

#297652927580
b1000101 aaaac

#297696467580
b1000101 aaaab
b1011000 aaaac

#297738647580
b1011000 aaaab
b1000011 aaaac

#297750631859
b1000101 aaaac

#297794171859
b1000101 aaaab
b1011000 aaaac

#297836351859
b1011000 aaaab
b1000011 aaaac

#297848336138
b1000101 aaaac

#297891876138
b1000101 aaaab
b1011000 aaaac

#297934056138
b1011000 aaaab
b1000011 aaaac

#297946040417
b1000101 aaaac

#297989580417
b1000101 aaaab
b1011000 aaaac

#298031760417
b1011000 aaaab
b1000011 aaaac

#298043744696
b1000101 aaaac

#298087284696
b1000101 aaaab
b1011000 aaaac

#298129464696
b1011000 aaaab
b1000011 aaaac

#298141448975
b1000101 aaaac

#298184988975
b1000101 aaaab
b1011000 aaaac

#298227168975
b1011000 aaaab
b1000011 aaaac

#298239153254
b1000101 aaaac

#298282693254
b1000101 aaaab
b1011000 aaaac

#298324873254
b1011000 aaaab
b1000011 aaaac

#298336857533
b1000101 aaaac

#298380397533
b1000101 aaaab
b1011000 aaaac

#298422577533
b1011000 aaaab
b1000011 aaaac

#298434561812
b1000101 aaaac

#298478101812
b1000101 aaaab
b1011000 aaaac

#298520281812
b1011000 aaaab
b1000011 aaaac

#298532266091
b1000101 aaaac

#298575806091
b1000101 aaaab
b1011000 aaaac

#298617986091
b1011000 aaaab
b1000011 aaaac

#298629970370
b1000101 aaaac

#298673510370
b1000101 aaaab
b1011000 aaaac

#298715690370
b1011000 aaaab
b1000011 aaaac

#298727674649
b1000101 aaaac

#298771214649
b1000101 aaaab
b1011000 aaaac

#298813394649
b1011000 aaaab
b1000011 aaaac

#298825378928
b1000101 aaaac

#298868918928
b1000101 aaaab
b1011000 aaaac

#298911098928
b1011000 aaaab
b1000011 aaaac

#298923083207
b1000101 aaaac

#298966623207
b1000101 aaaab
b1011000 aaaac

#299008803207
b1011000 aaaab
b1000011 aaaac

#299020787486
b1000101 aaaac

#299064327486
b1000011 aaaac

#446069779022
b1000101 aaaab
b1011000 aaaac

#446111959022
b1011000 aaaab
b1000011 aaaac

#446120738696
b1000101 aaaac

#446164278696
b1000101 aaaab
b1011000 aaaac

#446206458696
b1011000 aaaab
b1000011 aaaac

#446218442975
b1000101 aaaac

#446261982975
b1000101 aaaab
b1011000 aaaac

#446304162975
b1011000 aaaab
b1000011 aaaac

#446316147254
b1000101 aaaac

#446359687254
b1000101 aaaab
b1011000 aaaac

#446401867254
b1011000 aaaab
b1000011 aaaac

#446413851533
b1000101 aaaac

#446457391533
b1000101 aaaab
b1011000 aaaac

#446499571533
b1011000 aaaab
b1000011 aaaac

#446511555812
b1000101 aaaac

#446555095812
b1000101 aaaab
b1011000 aaaac

#446597275812
b1011000 aaaab
b1000011 aaaac

#446609260091
b1000101 aaaac

#446652800091
b1000101 aaaab
b1011000 aaaac

#446694980091
b1011000 aaaab
b1000011 aaaac

#446706964370
b1000101 aaaac

#446750504370
b1000101 aaaab
b1011000 aaaac

#446792684370
b1011000 aaaab
b1000011 aaaac

#446804668649
b1000101 aaaac

#446848208649
b1000101 aaaab
b1011000 aaaac

#446890388649
b1011000 aaaab
b1000011 aaaac

#446902372928
b1000101 aaaac

#446945912928
b1000101 aaaab
b1011000 aaaac

#446988092928
b1011000 aaaab
b1000011 aaaac

#447000077207
b1000101 aaaac

#447043617207
b1000101 aaaab
b1011000 aaaac

#447085797207
b1011000 aaaab
b1000011 aaaac

#447097781486
b1000101 aaaac

#447141321486
b1000101 aaaab
b1011000 aaaac

#447183501486
b1011000 aaaab
b1000011 aaaac

#447195485765
b1000101 aaaac

#447239025765
b1000101 aaaab
b1011000 aaaac

#447281205765
b1011000 aaaab
b1000011 aaaac

#447293190044
b1000101 aaaac

#447336730044
b1000101 aaaab
b1011000 aaaac

#447378910044
b1011000 aaaab
b1000011 aaaac

#447390894323
b1000101 aaaac

#447434434323
b1000101 aaaab
b1011000 aaaac

#447476614323
b1011000 aaaab
b1000011 aaaac

#447488598602
b1000101 aaaac

#447532138602
b1000101 aaaab
b1011000 aaaac

#447574318602
b1011000 aaaab
b1000011 aaaac

#447586302881
b1000101 aaaac

#447629842881
b1000101 aaaab
b1011000 aaaac

#447672022881
b1011000 aaaab
b1000011 aaaac

#447684007160
b1000101 aaaac

#447727547160
b1000011 aaaac

#594732998696
b1000101 aaaab
b1011000 aaaac

#594775178696
b1011000 aaaab
b1000011 aaaac

#594783958370
b1000101 aaaac

#594827498370
b1000101 aaaab
b1011000 aaaac

#594869678370
b1011000 aaaab
b1000011 aaaac

#594881662649
b1000101 aaaac

#594925202649
b1000101 aaaab
b1011000 aaaac

#594967382649
b1011000 aaaab
b1000011 aaaac

#594979366928
b1000101 aaaac

#595022906928
b1000101 aaaab
b1011000 aaaac

#595065086928
b1011000 aaaab
b1000011 aaaac

#595077071207
b1000101 aaaac

#595120611207
b1000101 aaaab
b1011000 aaaac

#595162791207
b1011000 aaaab
b1000011 aaaac

#595174775486
b1000101 aaaac

#595218315486
b1000101 aaaab
b1011000 aaaac

#595260495486
b1011000 aaaab
b1000011 aaaac

#595272479765
b1000101 aaaac

#595316019765
b1000101 aaaab
b1011000 aaaac

#595358199765
b1011000 aaaab
b1000011 aaaac

#595370184044
b1000101 aaaac

#595413724044
b1000101 aaaab
b1011000 aaaac

#595455904044
b1011000 aaaab
b1000011 aaaac

#595467888323
b1000101 aaaac

#595511428323
b1000101 aaaab
b1011000 aaaac

#595553608323
b1011000 aaaab
b1000011 aaaac

#595565592602
b1000101 aaaac

#595609132602
b1000101 aaaab
b1011000 aaaac

#595651312602
b1011000 aaaab
b1000011 aaaac

#595663296881
b1000101 aaaac

#595706836881
b1000101 aaaab
b1011000 aaaac

#595749016881
b1011000 aaaab
b1000011 aaaac

#595761001160
b1000101 aaaac

#595804541160
b1000101 aaaab
b1011000 aaaac

#595846721160
b1011000 aaaab
b1000011 aaaac

#595858705439
b1000101 aaaac

#595902245439
b1000101 aaaab
b1011000 aaaac

#595944425439
b1011000 aaaab
b1000011 aaaac

#595956409718
b1000101 aaaac

#595999949718
b1000101 aaaab
b1011000 aaaac

#596042129718
b1011000 aaaab
b1000011 aaaac

#596054113997
b1000101 aaaac

#596097653997
b1000101 aaaab
b1011000 aaaac

#596139833997
b1011000 aaaab
b1000011 aaaac

#596151818276
b1000101 aaaac

#596195358276
b1000101 aaaab
b1011000 aaaac

#596237538276
b1011000 aaaab
b1000011 aaaac

#596249522555
b1000101 aaaac

#596293062555
b1000101 aaaab
b1011000 aaaac

#596335242555
b1011000 aaaab
b1000011 aaaac

#596347226834
b1000101 aaaac

#596390766834
b1000011 aaaac

#743396218370
b1000101 aaaab
b1011000 aaaac

#743438398370
b1011000 aaaab
b1000011 aaaac

#743447178044
b1000101 aaaac

#743490718044
b1000101 aaaab
b1011000 aaaac

#743532898044
b1011000 aaaab
b1000011 aaaac

#743544882323
b1000101 aaaac

#743588422323
b1000101 aaaab
b1011000 aaaac

#743630602323
b1011000 aaaab
b1000011 aaaac

#743642586602
b1000101 aaaac

#743686126602
b1000101 aaaab
b1011000 aaaac

#743728306602
b1011000 aaaab
b1000011 aaaac

#743740290881
b1000101 aaaac

#743783830881
b1000101 aaaab
b1011000 aaaac

#743826010881
b1011000 aaaab
b1000011 aaaac

#743837995160
b1000101 aaaac

#743881535160
b1000101 aaaab
b1011000 aaaac

#743923715160
b1011000 aaaab
b1000011 aaaac

#743935699439
b1000101 aaaac

#743979239439
b1000101 aaaab
b1011000 aaaac

#744021419439
b1011000 aaaab
b1000011 aaaac

#744033403718
b1000101 aaaac

#744076943718
b1000101 aaaab
b1011000 aaaac

#744119123718
b1011000 aaaab
b1000011 aaaac

#744131107997
b1000101 aaaac

#744174647997
b1000101 aaaab
b1011000 aaaac

#744216827997
b1011000 aaaab
b1000011 aaaac

#744228812276
b1000101 aaaac

#744272352276
b1000101 aaaab
b1011000 aaaac

#744314532276
b1011000 aaaab
b1000011 aaaac

#744326516555
b1000101 aaaac

#744370056555
b1000101 aaaab
b1011000 aaaac

#744412236555
b1011000 aaaab
b1000011 aaaac

#744424220834
b1000101 aaaac

#744467760834
b1000101 aaaab
b1011000 aaaac

#744509940834
b1011000 aaaab
b1000011 aaaac

#744521925113
b1000101 aaaac

#744565465113
b1000101 aaaab
b1011000 aaaac

#744607645113
b1011000 aaaab
b1000011 aaaac

#744619629392
b1000101 aaaac

#744663169392
b1000101 aaaab
b1011000 aaaac

#744705349392
b1011000 aaaab
b1000011 aaaac

#744717333671
b1000101 aaaac

#744760873671
b1000101 aaaab
b1011000 aaaac

#744803053671
b1011000 aaaab
b1000011 aaaac

#744815037950
b1000101 aaaac

#744858577950
b1000101 aaaab
b1011000 aaaac

#744900757950
b1011000 aaaab
b1000011 aaaac

#744912742229
b1000101 aaaac

#744956282229
b1000101 aaaab
b1011000 aaaac

#744998462229
b1011000 aaaab
b1000011 aaaac

#745010446508
b1000101 aaaac

#745053986508
b1000011 aaaac

#892059438044
b1000101 aaaab
b1011000 aaaac

#892101618044
b1011000 aaaab
b1000011 aaaac

#892110397718
b1000101 aaaac

#892153937718
b1000101 aaaab
b1011000 aaaac

#892196117718
b1011000 aaaab
b1000011 aaaac

#892208101997
b1000101 aaaac

#892251641997
b1000101 aaaab
b1011000 aaaac

#892293821997
b1011000 aaaab
b1000011 aaaac

#892305806276
b1000101 aaaac

#892349346276
b1000101 aaaab
b1011000 aaaac

#892391526276
b1011000 aaaab
b1000011 aaaac

#892403510555
b1000101 aaaac

#892447050555
b1000101 aaaab
b1011000 aaaac

#892489230555
b1011000 aaaab
b1000011 aaaac

#892501214834
b1000101 aaaac

#892544754834
b1000101 aaaab
b1011000 aaaac

#892586934834
b1011000 aaaab
b1000011 aaaac

#892598919113
b1000101 aaaac

#892642459113
b1000101 aaaab
b1011000 aaaac

#892684639113
b1011000 aaaab
b1000011 aaaac

#892696623392
b1000101 aaaac

#892740163392
b1000101 aaaab
b1011000 aaaac

#892782343392
b1011000 aaaab
b1000011 aaaac

#892794327671
b1000101 aaaac

#892837867671
b1000101 aaaab
b1011000 aaaac

#892880047671
b1011000 aaaab
b1000011 aaaac

#892892031950
b1000101 aaaac

#892935571950
b1000101 aaaab
b1011000 aaaac

#892977751950
b1011000 aaaab
b1000011 aaaac

#892989736229
b1000101 aaaac

#893033276229
b1000101 aaaab
b1011000 aaaac

#893075456229
b1011000 aaaab
b1000011 aaaac

#893087440508
b1000101 aaaac

#893130980508
b1000101 aaaab
b1011000 aaaac

#893173160508
b1011000 aaaab
b1000011 aaaac

#893185144787
b1000101 aaaac

#893228684787
b1000101 aaaab
b1011000 aaaac

#893270864787
b1011000 aaaab
b1000011 aaaac

#893282849066
b1000101 aaaac

#893326389066
b1000101 aaaab
b1011000 aaaac

#893368569066
b1011000 aaaab
b1000011 aaaac

#893380553345
b1000101 aaaac

#893424093345
b1000101 aaaab
b1011000 aaaac

#893466273345
b1011000 aaaab
b1000011 aaaac

#893478257624
b1000101 aaaac

#893521797624
b1000101 aaaab
b1011000 aaaac

#893563977624
b1011000 aaaab
b1000011 aaaac

#893575961903
b1000101 aaaac

#893619501903
b1000101 aaaab
b1011000 aaaac

#893661681903
b1011000 aaaab
b1000011 aaaac

#893673666182
b1000101 aaaac

#893717206182
b1000011 aaaac

