examples/VAD_attempt3/rtos3_trace.vcd
$comment
File created by KisTA library.
 Author: F.Herrera
 Institution: KTH
 Date: 2013
	All rights reserved by the authors, till further definition of the license.
$end

$comment
Tracing options used include to trace Task State signals,  Scheduler signals 
$end

$date
     Jul 13, 2016       13:14:21
$end

$version
 SystemC 2.3.1-Accellera --- Mar 29 2016 16:10:40
$end

$timescale
     1 ps
$end

$scope module SystemC $end
$var wire    8  aaaaa  sched3 [7:0]  $end
$var wire    8  aaaab  T5 [7:0]  $end
$var wire    8  aaaac  T6 [7:0]  $end
$upscope $end
$enddefinitions  $end

$comment
All initial values are dumped below at time 0 sec = 0 timescale units.
$end

$dumpvars
b1001001 aaaaa
b1000011 aaaab
b1011000 aaaac
$end

#2133979674
b1000101 aaaab

#10758059674
b1010010 aaaac

#148743339674
b1011000 aaaab
b1000101 aaaac

#148790179674
b1000011 aaaab
b1011000 aaaac

#148841043953
b1011000 aaaab
b1000101 aaaac

#148887883953
b1000011 aaaab
b1011000 aaaac

#148938748232
b1011000 aaaab
b1000101 aaaac

#148985588232
b1000011 aaaab
b1011000 aaaac

#149036452511
b1011000 aaaab
b1000101 aaaac

#149083292511
b1000011 aaaab
b1011000 aaaac

#149134156790
b1011000 aaaab
b1000101 aaaac

#149180996790
b1000011 aaaab
b1011000 aaaac

#149231861069
b1011000 aaaab
b1000101 aaaac

#149278701069
b1000011 aaaab
b1011000 aaaac

#149329565348
b1011000 aaaab
b1000101 aaaac

#149376405348
b1000011 aaaab
b1011000 aaaac

#149427269627
b1011000 aaaab
b1000101 aaaac

#149474109627
b1000011 aaaab
b1011000 aaaac

#149524973906
b1011000 aaaab
b1000101 aaaac

#149571813906
b1000011 aaaab
b1011000 aaaac

#149622678185
b1011000 aaaab
b1000101 aaaac

#149669518185
b1000011 aaaab
b1011000 aaaac

#149720382464
b1011000 aaaab
b1000101 aaaac

#149767222464
b1000011 aaaab
b1011000 aaaac

#149818086743
b1011000 aaaab
b1000101 aaaac

#149864926743
b1000011 aaaab
b1011000 aaaac

#149915791022
b1011000 aaaab
b1000101 aaaac

#149962631022
b1000011 aaaab
b1011000 aaaac

#150013495301
b1011000 aaaab
b1000101 aaaac

#150060335301
b1000011 aaaab
b1011000 aaaac

#150111199580
b1011000 aaaab
b1000101 aaaac

#150158039580
b1000011 aaaab
b1011000 aaaac

#150208903859
b1011000 aaaab
b1000101 aaaac

#150255743859
b1000011 aaaab
b1011000 aaaac

#150306608138
b1011000 aaaab
b1000101 aaaac

#150353448138
b1000011 aaaab
b1011000 aaaac

#150797199348
b1000101 aaaab

#159421279348
b1010010 aaaac

#297406559348
b1011000 aaaab
b1000101 aaaac

#297453399348
b1000011 aaaab
b1011000 aaaac

#297504263627
b1011000 aaaab
b1000101 aaaac

#297551103627
b1000011 aaaab
b1011000 aaaac

#297601967906
b1011000 aaaab
b1000101 aaaac

#297648807906
b1000011 aaaab
b1011000 aaaac

#297699672185
b1011000 aaaab
b1000101 aaaac

#297746512185
b1000011 aaaab
b1011000 aaaac

#297797376464
b1011000 aaaab
b1000101 aaaac

#297844216464
b1000011 aaaab
b1011000 aaaac

#297895080743
b1011000 aaaab
b1000101 aaaac

#297941920743
b1000011 aaaab
b1011000 aaaac

#297992785022
b1011000 aaaab
b1000101 aaaac

#298039625022
b1000011 aaaab
b1011000 aaaac

#298090489301
b1011000 aaaab
b1000101 aaaac

#298137329301
b1000011 aaaab
b1011000 aaaac

#298188193580
b1011000 aaaab
b1000101 aaaac

#298235033580
b1000011 aaaab
b1011000 aaaac

#298285897859
b1011000 aaaab
b1000101 aaaac

#298332737859
b1000011 aaaab
b1011000 aaaac

#298383602138
b1011000 aaaab
b1000101 aaaac

#298430442138
b1000011 aaaab
b1011000 aaaac

#298481306417
b1011000 aaaab
b1000101 aaaac

#298528146417
b1000011 aaaab
b1011000 aaaac

#298579010696
b1011000 aaaab
b1000101 aaaac

#298625850696
b1000011 aaaab
b1011000 aaaac

#298676714975
b1011000 aaaab
b1000101 aaaac

#298723554975
b1000011 aaaab
b1011000 aaaac

#298774419254
b1011000 aaaab
b1000101 aaaac

#298821259254
b1000011 aaaab
b1011000 aaaac

#298872123533
b1011000 aaaab
b1000101 aaaac

#298918963533
b1000011 aaaab
b1011000 aaaac

#298969827812
b1011000 aaaab
b1000101 aaaac

#299016667812
b1000011 aaaab
b1011000 aaaac

#299460419022
b1000101 aaaab

#308084499022
b1010010 aaaac

#446069779022
b1011000 aaaab
b1000101 aaaac

#446116619022
b1000011 aaaab
b1011000 aaaac

#446167483301
b1011000 aaaab
b1000101 aaaac

#446214323301
b1000011 aaaab
b1011000 aaaac

#446265187580
b1011000 aaaab
b1000101 aaaac

#446312027580
b1000011 aaaab
b1011000 aaaac

#446362891859
b1011000 aaaab
b1000101 aaaac

#446409731859
b1000011 aaaab
b1011000 aaaac

#446460596138
b1011000 aaaab
b1000101 aaaac

#446507436138
b1000011 aaaab
b1011000 aaaac

#446558300417
b1011000 aaaab
b1000101 aaaac

#446605140417
b1000011 aaaab
b1011000 aaaac

#446656004696
b1011000 aaaab
b1000101 aaaac

#446702844696
b1000011 aaaab
b1011000 aaaac

#446753708975
b1011000 aaaab
b1000101 aaaac

#446800548975
b1000011 aaaab
b1011000 aaaac

#446851413254
b1011000 aaaab
b1000101 aaaac

#446898253254
b1000011 aaaab
b1011000 aaaac

#446949117533
b1011000 aaaab
b1000101 aaaac

#446995957533
b1000011 aaaab
b1011000 aaaac

#447046821812
b1011000 aaaab
b1000101 aaaac

#447093661812
b1000011 aaaab
b1011000 aaaac

#447144526091
b1011000 aaaab
b1000101 aaaac

#447191366091
b1000011 aaaab
b1011000 aaaac

#447242230370
b1011000 aaaab
b1000101 aaaac

#447289070370
b1000011 aaaab
b1011000 aaaac

#447339934649
b1011000 aaaab
b1000101 aaaac

#447386774649
b1000011 aaaab
b1011000 aaaac

#447437638928
b1011000 aaaab
b1000101 aaaac

#447484478928
b1000011 aaaab
b1011000 aaaac

#447535343207
b1011000 aaaab
b1000101 aaaac

#447582183207
b1000011 aaaab
b1011000 aaaac

#447633047486
b1011000 aaaab
b1000101 aaaac

#447679887486
b1000011 aaaab
b1011000 aaaac

#448123638696
b1000101 aaaab

#456747718696
b1010010 aaaac

#594732998696
b1011000 aaaab
b1000101 aaaac

#594779838696
b1000011 aaaab
b1011000 aaaac

#594830702975
b1011000 aaaab
b1000101 aaaac

#594877542975
b1000011 aaaab
b1011000 aaaac

#594928407254
b1011000 aaaab
b1000101 aaaac

#594975247254
b1000011 aaaab
b1011000 aaaac

#595026111533
b1011000 aaaab
b1000101 aaaac

#595072951533
b1000011 aaaab
b1011000 aaaac

#595123815812
b1011000 aaaab
b1000101 aaaac

#595170655812
b1000011 aaaab
b1011000 aaaac

#595221520091
b1011000 aaaab
b1000101 aaaac

#595268360091
b1000011 aaaab
b1011000 aaaac

#595319224370
b1011000 aaaab
b1000101 aaaac

#595366064370
b1000011 aaaab
b1011000 aaaac

#595416928649
b1011000 aaaab
b1000101 aaaac

#595463768649
b1000011 aaaab
b1011000 aaaac

#595514632928
b1011000 aaaab
b1000101 aaaac

#595561472928
b1000011 aaaab
b1011000 aaaac

#595612337207
b1011000 aaaab
b1000101 aaaac

#595659177207
b1000011 aaaab
b1011000 aaaac

#595710041486
b1011000 aaaab
b1000101 aaaac

#595756881486
b1000011 aaaab
b1011000 aaaac

#595807745765
b1011000 aaaab
b1000101 aaaac

#595854585765
b1000011 aaaab
b1011000 aaaac

#595905450044
b1011000 aaaab
b1000101 aaaac

#595952290044
b1000011 aaaab
b1011000 aaaac

#596003154323
b1011000 aaaab
b1000101 aaaac

#596049994323
b1000011 aaaab
b1011000 aaaac

#596100858602
b1011000 aaaab
b1000101 aaaac

#596147698602
b1000011 aaaab
b1011000 aaaac

#596198562881
b1011000 aaaab
b1000101 aaaac

#596245402881
b1000011 aaaab
b1011000 aaaac

#596296267160
b1011000 aaaab
b1000101 aaaac

#596343107160
b1000011 aaaab
b1011000 aaaac

#596786858370
b1000101 aaaab

#605410938370
b1010010 aaaac

#743396218370
b1011000 aaaab
b1000101 aaaac

#743443058370
b1000011 aaaab
b1011000 aaaac

#743493922649
b1011000 aaaab
b1000101 aaaac

#743540762649
b1000011 aaaab
b1011000 aaaac

#743591626928
b1011000 aaaab
b1000101 aaaac

#743638466928
b1000011 aaaab
b1011000 aaaac

#743689331207
b1011000 aaaab
b1000101 aaaac

#743736171207
b1000011 aaaab
b1011000 aaaac

#743787035486
b1011000 aaaab
b1000101 aaaac

#743833875486
b1000011 aaaab
b1011000 aaaac

#743884739765
b1011000 aaaab
b1000101 aaaac

#743931579765
b1000011 aaaab
b1011000 aaaac

#743982444044
b1011000 aaaab
b1000101 aaaac

#744029284044
b1000011 aaaab
b1011000 aaaac

#744080148323
b1011000 aaaab
b1000101 aaaac

#744126988323
b1000011 aaaab
b1011000 aaaac

#744177852602
b1011000 aaaab
b1000101 aaaac

#744224692602
b1000011 aaaab
b1011000 aaaac

#744275556881
b1011000 aaaab
b1000101 aaaac

#744322396881
b1000011 aaaab
b1011000 aaaac

#744373261160
b1011000 aaaab
b1000101 aaaac

#744420101160
b1000011 aaaab
b1011000 aaaac

#744470965439
b1011000 aaaab
b1000101 aaaac

#744517805439
b1000011 aaaab
b1011000 aaaac

#744568669718
b1011000 aaaab
b1000101 aaaac

#744615509718
b1000011 aaaab
b1011000 aaaac

#744666373997
b1011000 aaaab
b1000101 aaaac

#744713213997
b1000011 aaaab
b1011000 aaaac

#744764078276
b1011000 aaaab
b1000101 aaaac

#744810918276
b1000011 aaaab
b1011000 aaaac

#744861782555
b1011000 aaaab
b1000101 aaaac

#744908622555
b1000011 aaaab
b1011000 aaaac

#744959486834
b1011000 aaaab
b1000101 aaaac

#745006326834
b1000011 aaaab
b1011000 aaaac

#745450078044
b1000101 aaaab

#754074158044
b1010010 aaaac

#892059438044
b1011000 aaaab
b1000101 aaaac

#892106278044
b1000011 aaaab
b1011000 aaaac

#892157142323
b1011000 aaaab
b1000101 aaaac

#892203982323
b1000011 aaaab
b1011000 aaaac

#892254846602
b1011000 aaaab
b1000101 aaaac

#892301686602
b1000011 aaaab
b1011000 aaaac

#892352550881
b1011000 aaaab
b1000101 aaaac

#892399390881
b1000011 aaaab
b1011000 aaaac

#892450255160
b1011000 aaaab
b1000101 aaaac

#892497095160
b1000011 aaaab
b1011000 aaaac

#892547959439
b1011000 aaaab
b1000101 aaaac

#892594799439
b1000011 aaaab
b1011000 aaaac

#892645663718
b1011000 aaaab
b1000101 aaaac

#892692503718
b1000011 aaaab
b1011000 aaaac

#892743367997
b1011000 aaaab
b1000101 aaaac

#892790207997
b1000011 aaaab
b1011000 aaaac

#892841072276
b1011000 aaaab
b1000101 aaaac

#892887912276
b1000011 aaaab
b1011000 aaaac

#892938776555
b1011000 aaaab
b1000101 aaaac

#892985616555
b1000011 aaaab
b1011000 aaaac

#893036480834
b1011000 aaaab
b1000101 aaaac

#893083320834
b1000011 aaaab
b1011000 aaaac

#893134185113
b1011000 aaaab
b1000101 aaaac

#893181025113
b1000011 aaaab
b1011000 aaaac

#893231889392
b1011000 aaaab
b1000101 aaaac

#893278729392
b1000011 aaaab
b1011000 aaaac

#893329593671
b1011000 aaaab
b1000101 aaaac

#893376433671
b1000011 aaaab
b1011000 aaaac

#893427297950
b1011000 aaaab
b1000101 aaaac

#893474137950
b1000011 aaaab
b1011000 aaaac

#893525002229
b1011000 aaaab
b1000101 aaaac

#893571842229
b1000011 aaaab
b1011000 aaaac

#893622706508
b1011000 aaaab
b1000101 aaaac

#893669546508
b1000011 aaaab
b1011000 aaaac

#894113297718
b1000101 aaaab

#902737377718
b1010010 aaaac

