examples/VAD_attempt3/rtos4_trace.vcd
$comment
File created by KisTA library.
 Author: F.Herrera
 Institution: KTH
 Date: 2013
	All rights reserved by the authors, till further definition of the license.
$end

$comment
Tracing options used include to trace Task State signals,  Scheduler signals 
$end

$date
     Jul 13, 2016       13:14:21
$end

$version
 SystemC 2.3.1-Accellera --- Mar 29 2016 16:10:40
$end

$timescale
     1 ps
$end

$scope module SystemC $end
$var wire    8  aaaaa  sched4 [7:0]  $end
$var wire    8  aaaab  T7 [7:0]  $end
$var wire    8  aaaac  T8 [7:0]  $end
$upscope $end
$enddefinitions  $end

$comment
All initial values are dumped below at time 0 sec = 0 timescale units.
$end

$dumpvars
b1001001 aaaaa
b1000011 aaaab
b1011000 aaaac
$end

#148795422883
b1000101 aaaab

#148799442883
b1011000 aaaab
b1000101 aaaac

#148803442883
b1000011 aaaab
b1011000 aaaac

#148893127162
b1000101 aaaab

#148897147162
b1011000 aaaab
b1000101 aaaac

#148901147162
b1000011 aaaab
b1011000 aaaac

#148990831441
b1000101 aaaab

#148994851441
b1011000 aaaab
b1000101 aaaac

#148998851441
b1000011 aaaab
b1011000 aaaac

#149088535720
b1000101 aaaab

#149092555720
b1011000 aaaab
b1000101 aaaac

#149096555720
b1000011 aaaab
b1011000 aaaac

#149186239999
b1000101 aaaab

#149190259999
b1011000 aaaab
b1000101 aaaac

#149194259999
b1000011 aaaab
b1011000 aaaac

#149283944278
b1000101 aaaab

#149287964278
b1011000 aaaab
b1000101 aaaac

#149291964278
b1000011 aaaab
b1011000 aaaac

#149381648557
b1000101 aaaab

#149385668557
b1011000 aaaab
b1000101 aaaac

#149389668557
b1000011 aaaab
b1011000 aaaac

#149479352836
b1000101 aaaab

#149483372836
b1011000 aaaab
b1000101 aaaac

#149487372836
b1000011 aaaab
b1011000 aaaac

#149577057115
b1000101 aaaab

#149581077115
b1011000 aaaab
b1000101 aaaac

#149585077115
b1000011 aaaab
b1011000 aaaac

#149674761394
b1000101 aaaab

#149678781394
b1011000 aaaab
b1000101 aaaac

#149682781394
b1000011 aaaab
b1011000 aaaac

#149772465673
b1000101 aaaab

#149776485673
b1011000 aaaab
b1000101 aaaac

#149780485673
b1000011 aaaab
b1011000 aaaac

#149870169952
b1000101 aaaab

#149874189952
b1011000 aaaab
b1000101 aaaac

#149878189952
b1000011 aaaab
b1011000 aaaac

#149967874231
b1000101 aaaab

#149971894231
b1011000 aaaab
b1000101 aaaac

#149975894231
b1000011 aaaab
b1011000 aaaac

#150065578510
b1000101 aaaab

#150069598510
b1011000 aaaab
b1000101 aaaac

#150073598510
b1000011 aaaab
b1011000 aaaac

#150163282789
b1000101 aaaab

#150167302789
b1011000 aaaab
b1000101 aaaac

#150171302789
b1000011 aaaab
b1011000 aaaac

#150260987068
b1000101 aaaab

#150265007068
b1011000 aaaab
b1000101 aaaac

#150269007068
b1000011 aaaab
b1011000 aaaac

#150358691347
b1000101 aaaab

#150362711347
b1011000 aaaab
b1000101 aaaac

#150366711347
b1000011 aaaab
b1011000 aaaac

#297458642557
b1000101 aaaab

#297462662557
b1011000 aaaab
b1000101 aaaac

#297466662557
b1000011 aaaab
b1011000 aaaac

#297556346836
b1000101 aaaab

#297560366836
b1011000 aaaab
b1000101 aaaac

#297564366836
b1000011 aaaab
b1011000 aaaac

#297654051115
b1000101 aaaab

#297658071115
b1011000 aaaab
b1000101 aaaac

#297662071115
b1000011 aaaab
b1011000 aaaac

#297751755394
b1000101 aaaab

#297755775394
b1011000 aaaab
b1000101 aaaac

#297759775394
b1000011 aaaab
b1011000 aaaac

#297849459673
b1000101 aaaab

#297853479673
b1011000 aaaab
b1000101 aaaac

#297857479673
b1000011 aaaab
b1011000 aaaac

#297947163952
b1000101 aaaab

#297951183952
b1011000 aaaab
b1000101 aaaac

#297955183952
b1000011 aaaab
b1011000 aaaac

#298044868231
b1000101 aaaab

#298048888231
b1011000 aaaab
b1000101 aaaac

#298052888231
b1000011 aaaab
b1011000 aaaac

#298142572510
b1000101 aaaab

#298146592510
b1011000 aaaab
b1000101 aaaac

#298150592510
b1000011 aaaab
b1011000 aaaac

#298240276789
b1000101 aaaab

#298244296789
b1011000 aaaab
b1000101 aaaac

#298248296789
b1000011 aaaab
b1011000 aaaac

#298337981068
b1000101 aaaab

#298342001068
b1011000 aaaab
b1000101 aaaac

#298346001068
b1000011 aaaab
b1011000 aaaac

#298435685347
b1000101 aaaab

#298439705347
b1011000 aaaab
b1000101 aaaac

#298443705347
b1000011 aaaab
b1011000 aaaac

#298533389626
b1000101 aaaab

#298537409626
b1011000 aaaab
b1000101 aaaac

#298541409626
b1000011 aaaab
b1011000 aaaac

#298631093905
b1000101 aaaab

#298635113905
b1011000 aaaab
b1000101 aaaac

#298639113905
b1000011 aaaab
b1011000 aaaac

#298728798184
b1000101 aaaab

#298732818184
b1011000 aaaab
b1000101 aaaac

#298736818184
b1000011 aaaab
b1011000 aaaac

#298826502463
b1000101 aaaab

#298830522463
b1011000 aaaab
b1000101 aaaac

#298834522463
b1000011 aaaab
b1011000 aaaac

#298924206742
b1000101 aaaab

#298928226742
b1011000 aaaab
b1000101 aaaac

#298932226742
b1000011 aaaab
b1011000 aaaac

#299021911021
b1000101 aaaab

#299025931021
b1011000 aaaab
b1000101 aaaac

#299029931021
b1000011 aaaab
b1011000 aaaac

#446121862231
b1000101 aaaab

#446125882231
b1011000 aaaab
b1000101 aaaac

#446129882231
b1000011 aaaab
b1011000 aaaac

#446219566510
b1000101 aaaab

#446223586510
b1011000 aaaab
b1000101 aaaac

#446227586510
b1000011 aaaab
b1011000 aaaac

#446317270789
b1000101 aaaab

#446321290789
b1011000 aaaab
b1000101 aaaac

#446325290789
b1000011 aaaab
b1011000 aaaac

#446414975068
b1000101 aaaab

#446418995068
b1011000 aaaab
b1000101 aaaac

#446422995068
b1000011 aaaab
b1011000 aaaac

#446512679347
b1000101 aaaab

#446516699347
b1011000 aaaab
b1000101 aaaac

#446520699347
b1000011 aaaab
b1011000 aaaac

#446610383626
b1000101 aaaab

#446614403626
b1011000 aaaab
b1000101 aaaac

#446618403626
b1000011 aaaab
b1011000 aaaac

#446708087905
b1000101 aaaab

#446712107905
b1011000 aaaab
b1000101 aaaac

#446716107905
b1000011 aaaab
b1011000 aaaac

#446805792184
b1000101 aaaab

#446809812184
b1011000 aaaab
b1000101 aaaac

#446813812184
b1000011 aaaab
b1011000 aaaac

#446903496463
b1000101 aaaab

#446907516463
b1011000 aaaab
b1000101 aaaac

#446911516463
b1000011 aaaab
b1011000 aaaac

#447001200742
b1000101 aaaab

#447005220742
b1011000 aaaab
b1000101 aaaac

#447009220742
b1000011 aaaab
b1011000 aaaac

#447098905021
b1000101 aaaab

#447102925021
b1011000 aaaab
b1000101 aaaac

#447106925021
b1000011 aaaab
b1011000 aaaac

#447196609300
b1000101 aaaab

#447200629300
b1011000 aaaab
b1000101 aaaac

#447204629300
b1000011 aaaab
b1011000 aaaac

#447294313579
b1000101 aaaab

#447298333579
b1011000 aaaab
b1000101 aaaac

#447302333579
b1000011 aaaab
b1011000 aaaac

#447392017858
b1000101 aaaab

#447396037858
b1011000 aaaab
b1000101 aaaac

#447400037858
b1000011 aaaab
b1011000 aaaac

#447489722137
b1000101 aaaab

#447493742137
b1011000 aaaab
b1000101 aaaac

#447497742137
b1000011 aaaab
b1011000 aaaac

#447587426416
b1000101 aaaab

#447591446416
b1011000 aaaab
b1000101 aaaac

#447595446416
b1000011 aaaab
b1011000 aaaac

#447685130695
b1000101 aaaab

#447689150695
b1011000 aaaab
b1000101 aaaac

#447693150695
b1000011 aaaab
b1011000 aaaac

#594785081905
b1000101 aaaab

#594789101905
b1011000 aaaab
b1000101 aaaac

#594793101905
b1000011 aaaab
b1011000 aaaac

#594882786184
b1000101 aaaab

#594886806184
b1011000 aaaab
b1000101 aaaac

#594890806184
b1000011 aaaab
b1011000 aaaac

#594980490463
b1000101 aaaab

#594984510463
b1011000 aaaab
b1000101 aaaac

#594988510463
b1000011 aaaab
b1011000 aaaac

#595078194742
b1000101 aaaab

#595082214742
b1011000 aaaab
b1000101 aaaac

#595086214742
b1000011 aaaab
b1011000 aaaac

#595175899021
b1000101 aaaab

#595179919021
b1011000 aaaab
b1000101 aaaac

#595183919021
b1000011 aaaab
b1011000 aaaac

#595273603300
b1000101 aaaab

#595277623300
b1011000 aaaab
b1000101 aaaac

#595281623300
b1000011 aaaab
b1011000 aaaac

#595371307579
b1000101 aaaab

#595375327579
b1011000 aaaab
b1000101 aaaac

#595379327579
b1000011 aaaab
b1011000 aaaac

#595469011858
b1000101 aaaab

#595473031858
b1011000 aaaab
b1000101 aaaac

#595477031858
b1000011 aaaab
b1011000 aaaac

#595566716137
b1000101 aaaab

#595570736137
b1011000 aaaab
b1000101 aaaac

#595574736137
b1000011 aaaab
b1011000 aaaac

#595664420416
b1000101 aaaab

#595668440416
b1011000 aaaab
b1000101 aaaac

#595672440416
b1000011 aaaab
b1011000 aaaac

#595762124695
b1000101 aaaab

#595766144695
b1011000 aaaab
b1000101 aaaac

#595770144695
b1000011 aaaab
b1011000 aaaac

#595859828974
b1000101 aaaab

#595863848974
b1011000 aaaab
b1000101 aaaac

#595867848974
b1000011 aaaab
b1011000 aaaac

#595957533253
b1000101 aaaab

#595961553253
b1011000 aaaab
b1000101 aaaac

#595965553253
b1000011 aaaab
b1011000 aaaac

#596055237532
b1000101 aaaab

#596059257532
b1011000 aaaab
b1000101 aaaac

#596063257532
b1000011 aaaab
b1011000 aaaac

#596152941811
b1000101 aaaab

#596156961811
b1011000 aaaab
b1000101 aaaac

#596160961811
b1000011 aaaab
b1011000 aaaac

#596250646090
b1000101 aaaab

#596254666090
b1011000 aaaab
b1000101 aaaac

#596258666090
b1000011 aaaab
b1011000 aaaac

#596348350369
b1000101 aaaab

#596352370369
b1011000 aaaab
b1000101 aaaac

#596356370369
b1000011 aaaab
b1011000 aaaac

#743448301579
b1000101 aaaab

#743452321579
b1011000 aaaab
b1000101 aaaac

#743456321579
b1000011 aaaab
b1011000 aaaac

#743546005858
b1000101 aaaab

#743550025858
b1011000 aaaab
b1000101 aaaac

#743554025858
b1000011 aaaab
b1011000 aaaac

#743643710137
b1000101 aaaab

#743647730137
b1011000 aaaab
b1000101 aaaac

#743651730137
b1000011 aaaab
b1011000 aaaac

#743741414416
b1000101 aaaab

#743745434416
b1011000 aaaab
b1000101 aaaac

#743749434416
b1000011 aaaab
b1011000 aaaac

#743839118695
b1000101 aaaab

#743843138695
b1011000 aaaab
b1000101 aaaac

#743847138695
b1000011 aaaab
b1011000 aaaac

#743936822974
b1000101 aaaab

#743940842974
b1011000 aaaab
b1000101 aaaac

#743944842974
b1000011 aaaab
b1011000 aaaac

#744034527253
b1000101 aaaab

#744038547253
b1011000 aaaab
b1000101 aaaac

#744042547253
b1000011 aaaab
b1011000 aaaac

#744132231532
b1000101 aaaab

#744136251532
b1011000 aaaab
b1000101 aaaac

#744140251532
b1000011 aaaab
b1011000 aaaac

#744229935811
b1000101 aaaab

#744233955811
b1011000 aaaab
b1000101 aaaac

#744237955811
b1000011 aaaab
b1011000 aaaac

#744327640090
b1000101 aaaab

#744331660090
b1011000 aaaab
b1000101 aaaac

#744335660090
b1000011 aaaab
b1011000 aaaac

#744425344369
b1000101 aaaab

#744429364369
b1011000 aaaab
b1000101 aaaac

#744433364369
b1000011 aaaab
b1011000 aaaac

#744523048648
b1000101 aaaab

#744527068648
b1011000 aaaab
b1000101 aaaac

#744531068648
b1000011 aaaab
b1011000 aaaac

#744620752927
b1000101 aaaab

#744624772927
b1011000 aaaab
b1000101 aaaac

#744628772927
b1000011 aaaab
b1011000 aaaac

#744718457206
b1000101 aaaab

#744722477206
b1011000 aaaab
b1000101 aaaac

#744726477206
b1000011 aaaab
b1011000 aaaac

#744816161485
b1000101 aaaab

#744820181485
b1011000 aaaab
b1000101 aaaac

#744824181485
b1000011 aaaab
b1011000 aaaac

#744913865764
b1000101 aaaab

#744917885764
b1011000 aaaab
b1000101 aaaac

#744921885764
b1000011 aaaab
b1011000 aaaac

#745011570043
b1000101 aaaab

#745015590043
b1011000 aaaab
b1000101 aaaac

#745019590043
b1000011 aaaab
b1011000 aaaac

#892111521253
b1000101 aaaab

#892115541253
b1011000 aaaab
b1000101 aaaac

#892119541253
b1000011 aaaab
b1011000 aaaac

#892209225532
b1000101 aaaab

#892213245532
b1011000 aaaab
b1000101 aaaac

#892217245532
b1000011 aaaab
b1011000 aaaac

#892306929811
b1000101 aaaab

#892310949811
b1011000 aaaab
b1000101 aaaac

#892314949811
b1000011 aaaab
b1011000 aaaac

#892404634090
b1000101 aaaab

#892408654090
b1011000 aaaab
b1000101 aaaac

#892412654090
b1000011 aaaab
b1011000 aaaac

#892502338369
b1000101 aaaab

#892506358369
b1011000 aaaab
b1000101 aaaac

#892510358369
b1000011 aaaab
b1011000 aaaac

#892600042648
b1000101 aaaab

#892604062648
b1011000 aaaab
b1000101 aaaac

#892608062648
b1000011 aaaab
b1011000 aaaac

#892697746927
b1000101 aaaab

#892701766927
b1011000 aaaab
b1000101 aaaac

#892705766927
b1000011 aaaab
b1011000 aaaac

#892795451206
b1000101 aaaab

#892799471206
b1011000 aaaab
b1000101 aaaac

#892803471206
b1000011 aaaab
b1011000 aaaac

#892893155485
b1000101 aaaab

#892897175485
b1011000 aaaab
b1000101 aaaac

#892901175485
b1000011 aaaab
b1011000 aaaac

#892990859764
b1000101 aaaab

#892994879764
b1011000 aaaab
b1000101 aaaac

#892998879764
b1000011 aaaab
b1011000 aaaac

#893088564043
b1000101 aaaab

#893092584043
b1011000 aaaab
b1000101 aaaac

#893096584043
b1000011 aaaab
b1011000 aaaac

#893186268322
b1000101 aaaab

#893190288322
b1011000 aaaab
b1000101 aaaac

#893194288322
b1000011 aaaab
b1011000 aaaac

#893283972601
b1000101 aaaab

#893287992601
b1011000 aaaab
b1000101 aaaac

#893291992601
b1000011 aaaab
b1011000 aaaac

#893381676880
b1000101 aaaab

#893385696880
b1011000 aaaab
b1000101 aaaac

#893389696880
b1000011 aaaab
b1011000 aaaac

#893479381159
b1000101 aaaab

#893483401159
b1011000 aaaab
b1000101 aaaac

#893487401159
b1000011 aaaab
b1011000 aaaac

#893577085438
b1000101 aaaab

#893581105438
b1011000 aaaab
b1000101 aaaac

#893585105438
b1000011 aaaab
b1011000 aaaac

#893674789717
b1000101 aaaab

#893678809717
b1011000 aaaab
b1000101 aaaac

#893682809717
b1000011 aaaab
b1011000 aaaac

