examples/VAD_attempt2/rtos4_trace.vcd
$comment
File created by KisTA library.
 Author: F.Herrera
 Institution: KTH
 Date: 2013
	All rights reserved by the authors, till further definition of the license.
$end

$comment
Tracing options used include to trace Task State signals,  Scheduler signals 
$end

$date
     Jul 27, 2016       16:56:29
$end

$version
 SystemC 2.3.1-Accellera --- Mar 29 2016 16:10:40
$end

$timescale
     1 ps
$end

$scope module SystemC $end
$var wire    8  aaaaa  sched4 [7:0]  $end
$var wire    8  aaaab  T7 [7:0]  $end
$var wire    8  aaaac  T8 [7:0]  $end
$upscope $end
$enddefinitions  $end

$comment
All initial values are dumped below at time 0 sec = 0 timescale units.
$end

$dumpvars
b1001001 aaaaa
b1000011 aaaab
b1011000 aaaac
$end

#10810142883
b1000101 aaaab

#10814162883
b1011000 aaaab
b1000101 aaaac

#10818162883
b1000011 aaaab
b1011000 aaaac

#19481062883
b1000101 aaaab

#19485082883
b1011000 aaaab
b1000101 aaaac

#19489082883
b1000011 aaaab
b1011000 aaaac

#28151982883
b1000101 aaaab

#28156002883
b1011000 aaaab
b1000101 aaaac

#28160002883
b1000011 aaaab
b1011000 aaaac

#36822902883
b1000101 aaaab

#36826922883
b1011000 aaaab
b1000101 aaaac

#36830922883
b1000011 aaaab
b1011000 aaaac

#45493822883
b1000101 aaaab

#45497842883
b1011000 aaaab
b1000101 aaaac

#45501842883
b1000011 aaaab
b1011000 aaaac

#54164742883
b1000101 aaaab

#54168762883
b1011000 aaaab
b1000101 aaaac

#54172762883
b1000011 aaaab
b1011000 aaaac

#62835662883
b1000101 aaaab

#62839682883
b1011000 aaaab
b1000101 aaaac

#62843682883
b1000011 aaaab
b1011000 aaaac

#71506582883
b1000101 aaaab

#71510602883
b1011000 aaaab
b1000101 aaaac

#71514602883
b1000011 aaaab
b1011000 aaaac

#80177502883
b1000101 aaaab

#80181522883
b1011000 aaaab
b1000101 aaaac

#80185522883
b1000011 aaaab
b1011000 aaaac

#88848422883
b1000101 aaaab

#88852442883
b1011000 aaaab
b1000101 aaaac

#88856442883
b1000011 aaaab
b1011000 aaaac

#97519342883
b1000101 aaaab

#97523362883
b1011000 aaaab
b1000101 aaaac

#97527362883
b1000011 aaaab
b1011000 aaaac

#106190262883
b1000101 aaaab

#106194282883
b1011000 aaaab
b1000101 aaaac

#106198282883
b1000011 aaaab
b1011000 aaaac

#114861182883
b1000101 aaaab

#114865202883
b1011000 aaaab
b1000101 aaaac

#114869202883
b1000011 aaaab
b1011000 aaaac

#123532102883
b1000101 aaaab

#123536122883
b1011000 aaaab
b1000101 aaaac

#123540122883
b1000011 aaaab
b1011000 aaaac

#132203022883
b1000101 aaaab

#132207042883
b1011000 aaaab
b1000101 aaaac

#132211042883
b1000011 aaaab
b1011000 aaaac

#140873942883
b1000101 aaaab

#140877962883
b1011000 aaaab
b1000101 aaaac

#140881962883
b1000011 aaaab
b1011000 aaaac

#149544862883
b1000101 aaaab

#149548882883
b1011000 aaaab
b1000101 aaaac

#149552882883
b1000011 aaaab
b1011000 aaaac

#158215782883
b1000101 aaaab

#158219802883
b1011000 aaaab
b1000101 aaaac

#158223802883
b1000011 aaaab
b1011000 aaaac

#166886702883
b1000101 aaaab

#166890722883
b1011000 aaaab
b1000101 aaaac

#166894722883
b1000011 aaaab
b1011000 aaaac

#175557622883
b1000101 aaaab

#175561642883
b1011000 aaaab
b1000101 aaaac

#175565642883
b1000011 aaaab
b1011000 aaaac

#184228542883
b1000101 aaaab

#184232562883
b1011000 aaaab
b1000101 aaaac

#184236562883
b1000011 aaaab
b1011000 aaaac

#192899462883
b1000101 aaaab

#192903482883
b1011000 aaaab
b1000101 aaaac

#192907482883
b1000011 aaaab
b1011000 aaaac

#201570382883
b1000101 aaaab

#201574402883
b1011000 aaaab
b1000101 aaaac

#201578402883
b1000011 aaaab
b1011000 aaaac

#210241302883
b1000101 aaaab

#210245322883
b1011000 aaaab
b1000101 aaaac

#210249322883
b1000011 aaaab
b1011000 aaaac

#218912222883
b1000101 aaaab

#218916242883
b1011000 aaaab
b1000101 aaaac

#218920242883
b1000011 aaaab
b1011000 aaaac

#227583142883
b1000101 aaaab

#227587162883
b1011000 aaaab
b1000101 aaaac

#227591162883
b1000011 aaaab
b1011000 aaaac

#236254062883
b1000101 aaaab

#236258082883
b1011000 aaaab
b1000101 aaaac

#236262082883
b1000011 aaaab
b1011000 aaaac

#244924982883
b1000101 aaaab

#244929002883
b1011000 aaaab
b1000101 aaaac

#244933002883
b1000011 aaaab
b1011000 aaaac

#253595902883
b1000101 aaaab

#253599922883
b1011000 aaaab
b1000101 aaaac

#253603922883
b1000011 aaaab
b1011000 aaaac

#262266822883
b1000101 aaaab

#262270842883
b1011000 aaaab
b1000101 aaaac

#262274842883
b1000011 aaaab
b1011000 aaaac

#270937742883
b1000101 aaaab

#270941762883
b1011000 aaaab
b1000101 aaaac

#270945762883
b1000011 aaaab
b1011000 aaaac

#279608662883
b1000101 aaaab

#279612682883
b1011000 aaaab
b1000101 aaaac

#279616682883
b1000011 aaaab
b1011000 aaaac

#288279582883
b1000101 aaaab

#288283602883
b1011000 aaaab
b1000101 aaaac

#288287602883
b1000011 aaaab
b1011000 aaaac

#296950502883
b1000101 aaaab

#296954522883
b1011000 aaaab
b1000101 aaaac

#296958522883
b1000011 aaaab
b1011000 aaaac

#305621422883
b1000101 aaaab

#305625442883
b1011000 aaaab
b1000101 aaaac

#305629442883
b1000011 aaaab
b1011000 aaaac

#314292342883
b1000101 aaaab

#314296362883
b1011000 aaaab
b1000101 aaaac

#314300362883
b1000011 aaaab
b1011000 aaaac

#322963262883
b1000101 aaaab

#322967282883
b1011000 aaaab
b1000101 aaaac

#322971282883
b1000011 aaaab
b1011000 aaaac

#331634182883
b1000101 aaaab

#331638202883
b1011000 aaaab
b1000101 aaaac

#331642202883
b1000011 aaaab
b1011000 aaaac

#340305102883
b1000101 aaaab

#340309122883
b1011000 aaaab
b1000101 aaaac

#340313122883
b1000011 aaaab
b1011000 aaaac

#348976022883
b1000101 aaaab

#348980042883
b1011000 aaaab
b1000101 aaaac

#348984042883
b1000011 aaaab
b1011000 aaaac

#357646942883
b1000101 aaaab

#357650962883
b1011000 aaaab
b1000101 aaaac

#357654962883
b1000011 aaaab
b1011000 aaaac

#366317862883
b1000101 aaaab

#366321882883
b1011000 aaaab
b1000101 aaaac

#366325882883
b1000011 aaaab
b1011000 aaaac

#374988782883
b1000101 aaaab

#374992802883
b1011000 aaaab
b1000101 aaaac

#374996802883
b1000011 aaaab
b1011000 aaaac

#383659702883
b1000101 aaaab

#383663722883
b1011000 aaaab
b1000101 aaaac

#383667722883
b1000011 aaaab
b1011000 aaaac

#392330622883
b1000101 aaaab

#392334642883
b1011000 aaaab
b1000101 aaaac

#392338642883
b1000011 aaaab
b1011000 aaaac

#401001542883
b1000101 aaaab

#401005562883
b1011000 aaaab
b1000101 aaaac

#401009562883
b1000011 aaaab
b1011000 aaaac

#409672462883
b1000101 aaaab

#409676482883
b1011000 aaaab
b1000101 aaaac

#409680482883
b1000011 aaaab
b1011000 aaaac

#418343382883
b1000101 aaaab

#418347402883
b1011000 aaaab
b1000101 aaaac

#418351402883
b1000011 aaaab
b1011000 aaaac

#427014302883
b1000101 aaaab

#427018322883
b1011000 aaaab
b1000101 aaaac

#427022322883
b1000011 aaaab
b1011000 aaaac

#435685222883
b1000101 aaaab

#435689242883
b1011000 aaaab
b1000101 aaaac

#435693242883
b1000011 aaaab
b1011000 aaaac

#444356142883
b1000101 aaaab

#444360162883
b1011000 aaaab
b1000101 aaaac

#444364162883
b1000011 aaaab
b1011000 aaaac

#453027062883
b1000101 aaaab

#453031082883
b1011000 aaaab
b1000101 aaaac

#453035082883
b1000011 aaaab
b1011000 aaaac

#461697982883
b1000101 aaaab

#461702002883
b1011000 aaaab
b1000101 aaaac

#461706002883
b1000011 aaaab
b1011000 aaaac

#470368902883
b1000101 aaaab

#470372922883
b1011000 aaaab
b1000101 aaaac

#470376922883
b1000011 aaaab
b1011000 aaaac

#479039822883
b1000101 aaaab

#479043842883
b1011000 aaaab
b1000101 aaaac

#479047842883
b1000011 aaaab
b1011000 aaaac

#487710742883
b1000101 aaaab

#487714762883
b1011000 aaaab
b1000101 aaaac

#487718762883
b1000011 aaaab
b1011000 aaaac

#496381662883
b1000101 aaaab

#496385682883
b1011000 aaaab
b1000101 aaaac

#496389682883
b1000011 aaaab
b1011000 aaaac

#505052582883
b1000101 aaaab

#505056602883
b1011000 aaaab
b1000101 aaaac

#505060602883
b1000011 aaaab
b1011000 aaaac

#513723502883
b1000101 aaaab

#513727522883
b1011000 aaaab
b1000101 aaaac

#513731522883
b1000011 aaaab
b1011000 aaaac

#522394422883
b1000101 aaaab

#522398442883
b1011000 aaaab
b1000101 aaaac

#522402442883
b1000011 aaaab
b1011000 aaaac

#531065342883
b1000101 aaaab

#531069362883
b1011000 aaaab
b1000101 aaaac

#531073362883
b1000011 aaaab
b1011000 aaaac

#539736262883
b1000101 aaaab

#539740282883
b1011000 aaaab
b1000101 aaaac

#539744282883
b1000011 aaaab
b1011000 aaaac

#548407182883
b1000101 aaaab

#548411202883
b1011000 aaaab
b1000101 aaaac

#548415202883
b1000011 aaaab
b1011000 aaaac

#557078102883
b1000101 aaaab

#557082122883
b1011000 aaaab
b1000101 aaaac

#557086122883
b1000011 aaaab
b1011000 aaaac

#565749022883
b1000101 aaaab

#565753042883
b1011000 aaaab
b1000101 aaaac

#565757042883
b1000011 aaaab
b1011000 aaaac

#574419942883
b1000101 aaaab

#574423962883
b1011000 aaaab
b1000101 aaaac

#574427962883
b1000011 aaaab
b1011000 aaaac

#583090862883
b1000101 aaaab

#583094882883
b1011000 aaaab
b1000101 aaaac

#583098882883
b1000011 aaaab
b1011000 aaaac

#591761782883
b1000101 aaaab

#591765802883
b1011000 aaaab
b1000101 aaaac

#591769802883
b1000011 aaaab
b1011000 aaaac

#600432702883
b1000101 aaaab

#600436722883
b1011000 aaaab
b1000101 aaaac

#600440722883
b1000011 aaaab
b1011000 aaaac

#609103622883
b1000101 aaaab

#609107642883
b1011000 aaaab
b1000101 aaaac

#609111642883
b1000011 aaaab
b1011000 aaaac

#617774542883
b1000101 aaaab

#617778562883
b1011000 aaaab
b1000101 aaaac

#617782562883
b1000011 aaaab
b1011000 aaaac

#626445462883
b1000101 aaaab

#626449482883
b1011000 aaaab
b1000101 aaaac

#626453482883
b1000011 aaaab
b1011000 aaaac

#635116382883
b1000101 aaaab

#635120402883
b1011000 aaaab
b1000101 aaaac

#635124402883
b1000011 aaaab
b1011000 aaaac

#643787302883
b1000101 aaaab

#643791322883
b1011000 aaaab
b1000101 aaaac

#643795322883
b1000011 aaaab
b1011000 aaaac

#652458222883
b1000101 aaaab

#652462242883
b1011000 aaaab
b1000101 aaaac

#652466242883
b1000011 aaaab
b1011000 aaaac

#661129142883
b1000101 aaaab

#661133162883
b1011000 aaaab
b1000101 aaaac

#661137162883
b1000011 aaaab
b1011000 aaaac

#669800062883
b1000101 aaaab

#669804082883
b1011000 aaaab
b1000101 aaaac

#669808082883
b1000011 aaaab
b1011000 aaaac

#678470982883
b1000101 aaaab

#678475002883
b1011000 aaaab
b1000101 aaaac

#678479002883
b1000011 aaaab
b1011000 aaaac

#687141902883
b1000101 aaaab

#687145922883
b1011000 aaaab
b1000101 aaaac

#687149922883
b1000011 aaaab
b1011000 aaaac

#695812822883
b1000101 aaaab

#695816842883
b1011000 aaaab
b1000101 aaaac

#695820842883
b1000011 aaaab
b1011000 aaaac

#704483742883
b1000101 aaaab

#704487762883
b1011000 aaaab
b1000101 aaaac

#704491762883
b1000011 aaaab
b1011000 aaaac

#713154662883
b1000101 aaaab

#713158682883
b1011000 aaaab
b1000101 aaaac

#713162682883
b1000011 aaaab
b1011000 aaaac

#721825582883
b1000101 aaaab

#721829602883
b1011000 aaaab
b1000101 aaaac

#721833602883
b1000011 aaaab
b1011000 aaaac

#730496502883
b1000101 aaaab

#730500522883
b1011000 aaaab
b1000101 aaaac

#730504522883
b1000011 aaaab
b1011000 aaaac

#739167422883
b1000101 aaaab

#739171442883
b1011000 aaaab
b1000101 aaaac

#739175442883
b1000011 aaaab
b1011000 aaaac

#747838342883
b1000101 aaaab

#747842362883
b1011000 aaaab
b1000101 aaaac

#747846362883
b1000011 aaaab
b1011000 aaaac

#756509262883
b1000101 aaaab

#756513282883
b1011000 aaaab
b1000101 aaaac

#756517282883
b1000011 aaaab
b1011000 aaaac

#765180182883
b1000101 aaaab

#765184202883
b1011000 aaaab
b1000101 aaaac

#765188202883
b1000011 aaaab
b1011000 aaaac

#773851102883
b1000101 aaaab

#773855122883
b1011000 aaaab
b1000101 aaaac

#773859122883
b1000011 aaaab
b1011000 aaaac

#782522022883
b1000101 aaaab

#782526042883
b1011000 aaaab
b1000101 aaaac

#782530042883
b1000011 aaaab
b1011000 aaaac

#791192942883
b1000101 aaaab

#791196962883
b1011000 aaaab
b1000101 aaaac

#791200962883
b1000011 aaaab
b1011000 aaaac

#799863862883
b1000101 aaaab

#799867882883
b1011000 aaaab
b1000101 aaaac

#799871882883
b1000011 aaaab
b1011000 aaaac

#808534782883
b1000101 aaaab

#808538802883
b1011000 aaaab
b1000101 aaaac

#808542802883
b1000011 aaaab
b1011000 aaaac

#817205702883
b1000101 aaaab

#817209722883
b1011000 aaaab
b1000101 aaaac

#817213722883
b1000011 aaaab
b1011000 aaaac

#825876622883
b1000101 aaaab

#825880642883
b1011000 aaaab
b1000101 aaaac

#825884642883
b1000011 aaaab
b1011000 aaaac

#834547542883
b1000101 aaaab

#834551562883
b1011000 aaaab
b1000101 aaaac

#834555562883
b1000011 aaaab
b1011000 aaaac

#843218462883
b1000101 aaaab

#843222482883
b1011000 aaaab
b1000101 aaaac

#843226482883
b1000011 aaaab
b1011000 aaaac

#851889382883
b1000101 aaaab

#851893402883
b1011000 aaaab
b1000101 aaaac

#851897402883
b1000011 aaaab
b1011000 aaaac

#860560302883
b1000101 aaaab

#860564322883
b1011000 aaaab
b1000101 aaaac

#860568322883
b1000011 aaaab
b1011000 aaaac

#869231222883
b1000101 aaaab

#869235242883
b1011000 aaaab
b1000101 aaaac

#869239242883
b1000011 aaaab
b1011000 aaaac

#877902142883
b1000101 aaaab

#877906162883
b1011000 aaaab
b1000101 aaaac

#877910162883
b1000011 aaaab
b1011000 aaaac

#886573062883
b1000101 aaaab

#886577082883
b1011000 aaaab
b1000101 aaaac

#886581082883
b1000011 aaaab
b1011000 aaaac

#895243982883
b1000101 aaaab

#895248002883
b1011000 aaaab
b1000101 aaaac

#895252002883
b1000011 aaaab
b1011000 aaaac

#903914902883
b1000101 aaaab

#903918922883
b1011000 aaaab
b1000101 aaaac

#903922922883
b1000011 aaaab
b1011000 aaaac

#912585822883
b1000101 aaaab

#912589842883
b1011000 aaaab
b1000101 aaaac

#912593842883
b1000011 aaaab
b1011000 aaaac

#921256742883
b1000101 aaaab

#921260762883
b1011000 aaaab
b1000101 aaaac

#921264762883
b1000011 aaaab
b1011000 aaaac

#929927662883
b1000101 aaaab

#929931682883
b1011000 aaaab
b1000101 aaaac

#929935682883
b1000011 aaaab
b1011000 aaaac

#938598582883
b1000101 aaaab

#938602602883
b1011000 aaaab
b1000101 aaaac

#938606602883
b1000011 aaaab
b1011000 aaaac

#947269502883
b1000101 aaaab

#947273522883
b1011000 aaaab
b1000101 aaaac

#947277522883
b1000011 aaaab
b1011000 aaaac

#955940422883
b1000101 aaaab

#955944442883
b1011000 aaaab
b1000101 aaaac

#955948442883
b1000011 aaaab
b1011000 aaaac

#964611342883
b1000101 aaaab

#964615362883
b1011000 aaaab
b1000101 aaaac

#964619362883
b1000011 aaaab
b1011000 aaaac

#973282262883
b1000101 aaaab

#973286282883
b1011000 aaaab
b1000101 aaaac

#973290282883
b1000011 aaaab
b1011000 aaaac

#981953182883
b1000101 aaaab

#981957202883
b1011000 aaaab
b1000101 aaaac

#981961202883
b1000011 aaaab
b1011000 aaaac

#990624102883
b1000101 aaaab

#990628122883
b1011000 aaaab
b1000101 aaaac

#990632122883
b1000011 aaaab
b1011000 aaaac

#999295022883
b1000101 aaaab

#999299042883
b1011000 aaaab
b1000101 aaaac

#999303042883
b1000011 aaaab
b1011000 aaaac

