examples/VAD_attempt2/rtos1_trace.vcd
$comment
File created by KisTA library.
 Author: F.Herrera
 Institution: KTH
 Date: 2013
	All rights reserved by the authors, till further definition of the license.
$end

$comment
Tracing options used include to trace Task State signals,  Scheduler signals 
$end

$date
     Jul 27, 2016       16:56:29
$end

$version
 SystemC 2.3.1-Accellera --- Mar 29 2016 16:10:40
$end

$timescale
     1 ps
$end

$scope module SystemC $end
$var wire    8  aaaaa  sched1 [7:0]  $end
$var wire    8  aaaab  T1 [7:0]  $end
$var wire    8  aaaac  T2 [7:0]  $end
$upscope $end
$enddefinitions  $end

$comment
All initial values are dumped below at time 0 sec = 0 timescale units.
$end

$dumpvars
b1001001 aaaaa
b1010010 aaaab
b1000101 aaaac
$end

#43540000
b1000101 aaaab
b1011000 aaaac

#760600000
b1011000 aaaab
b1000011 aaaac

#10758059674
b1000101 aaaab
b1011000 aaaac

#10800239674
b1011000 aaaab
b1000011 aaaac

#10809019348
b1000101 aaaac

#10852559348
b1000011 aaaac

#19428979674
b1000101 aaaab
b1011000 aaaac

#19471159674
b1011000 aaaab
b1000011 aaaac

#19479939348
b1000101 aaaac

#19523479348
b1000011 aaaac

#28099899674
b1000101 aaaab
b1011000 aaaac

#28142079674
b1011000 aaaab
b1000011 aaaac

#28150859348
b1000101 aaaac

#28194399348
b1000011 aaaac

#36770819674
b1000101 aaaab
b1011000 aaaac

#36812999674
b1011000 aaaab
b1000011 aaaac

#36821779348
b1000101 aaaac

#36865319348
b1000011 aaaac

#45441739674
b1000101 aaaab
b1011000 aaaac

#45483919674
b1011000 aaaab
b1000011 aaaac

#45492699348
b1000101 aaaac

#45536239348
b1000011 aaaac

#54112659674
b1000101 aaaab
b1011000 aaaac

#54154839674
b1011000 aaaab
b1000011 aaaac

#54163619348
b1000101 aaaac

#54207159348
b1000011 aaaac

#62783579674
b1000101 aaaab
b1011000 aaaac

#62825759674
b1011000 aaaab
b1000011 aaaac

#62834539348
b1000101 aaaac

#62878079348
b1000011 aaaac

#71454499674
b1000101 aaaab
b1011000 aaaac

#71496679674
b1011000 aaaab
b1000011 aaaac

#71505459348
b1000101 aaaac

#71548999348
b1000011 aaaac

#80125419674
b1000101 aaaab
b1011000 aaaac

#80167599674
b1011000 aaaab
b1000011 aaaac

#80176379348
b1000101 aaaac

#80219919348
b1000011 aaaac

#88796339674
b1000101 aaaab
b1011000 aaaac

#88838519674
b1011000 aaaab
b1000011 aaaac

#88847299348
b1000101 aaaac

#88890839348
b1000011 aaaac

#97467259674
b1000101 aaaab
b1011000 aaaac

#97509439674
b1011000 aaaab
b1000011 aaaac

#97518219348
b1000101 aaaac

#97561759348
b1000011 aaaac

#106138179674
b1000101 aaaab
b1011000 aaaac

#106180359674
b1011000 aaaab
b1000011 aaaac

#106189139348
b1000101 aaaac

#106232679348
b1000011 aaaac

#114809099674
b1000101 aaaab
b1011000 aaaac

#114851279674
b1011000 aaaab
b1000011 aaaac

#114860059348
b1000101 aaaac

#114903599348
b1000011 aaaac

#123480019674
b1000101 aaaab
b1011000 aaaac

#123522199674
b1011000 aaaab
b1000011 aaaac

#123530979348
b1000101 aaaac

#123574519348
b1000011 aaaac

#132150939674
b1000101 aaaab
b1011000 aaaac

#132193119674
b1011000 aaaab
b1000011 aaaac

#132201899348
b1000101 aaaac

#132245439348
b1000011 aaaac

#140821859674
b1000101 aaaab
b1011000 aaaac

#140864039674
b1011000 aaaab
b1000011 aaaac

#140872819348
b1000101 aaaac

#140916359348
b1000011 aaaac

#149492779674
b1000101 aaaab
b1011000 aaaac

#149534959674
b1011000 aaaab
b1000011 aaaac

#149543739348
b1000101 aaaac

#149587279348
b1000011 aaaac

#158163699674
b1000101 aaaab
b1011000 aaaac

#158205879674
b1011000 aaaab
b1000011 aaaac

#158214659348
b1000101 aaaac

#158258199348
b1000011 aaaac

#166834619674
b1000101 aaaab
b1011000 aaaac

#166876799674
b1011000 aaaab
b1000011 aaaac

#166885579348
b1000101 aaaac

#166929119348
b1000011 aaaac

#175505539674
b1000101 aaaab
b1011000 aaaac

#175547719674
b1011000 aaaab
b1000011 aaaac

#175556499348
b1000101 aaaac

#175600039348
b1000011 aaaac

#184176459674
b1000101 aaaab
b1011000 aaaac

#184218639674
b1011000 aaaab
b1000011 aaaac

#184227419348
b1000101 aaaac

#184270959348
b1000011 aaaac

#192847379674
b1000101 aaaab
b1011000 aaaac

#192889559674
b1011000 aaaab
b1000011 aaaac

#192898339348
b1000101 aaaac

#192941879348
b1000011 aaaac

#201518299674
b1000101 aaaab
b1011000 aaaac

#201560479674
b1011000 aaaab
b1000011 aaaac

#201569259348
b1000101 aaaac

#201612799348
b1000011 aaaac

#210189219674
b1000101 aaaab
b1011000 aaaac

#210231399674
b1011000 aaaab
b1000011 aaaac

#210240179348
b1000101 aaaac

#210283719348
b1000011 aaaac

#218860139674
b1000101 aaaab
b1011000 aaaac

#218902319674
b1011000 aaaab
b1000011 aaaac

#218911099348
b1000101 aaaac

#218954639348
b1000011 aaaac

#227531059674
b1000101 aaaab
b1011000 aaaac

#227573239674
b1011000 aaaab
b1000011 aaaac

#227582019348
b1000101 aaaac

#227625559348
b1000011 aaaac

#236201979674
b1000101 aaaab
b1011000 aaaac

#236244159674
b1011000 aaaab
b1000011 aaaac

#236252939348
b1000101 aaaac

#236296479348
b1000011 aaaac

#244872899674
b1000101 aaaab
b1011000 aaaac

#244915079674
b1011000 aaaab
b1000011 aaaac

#244923859348
b1000101 aaaac

#244967399348
b1000011 aaaac

#253543819674
b1000101 aaaab
b1011000 aaaac

#253585999674
b1011000 aaaab
b1000011 aaaac

#253594779348
b1000101 aaaac

#253638319348
b1000011 aaaac

#262214739674
b1000101 aaaab
b1011000 aaaac

#262256919674
b1011000 aaaab
b1000011 aaaac

#262265699348
b1000101 aaaac

#262309239348
b1000011 aaaac

#270885659674
b1000101 aaaab
b1011000 aaaac

#270927839674
b1011000 aaaab
b1000011 aaaac

#270936619348
b1000101 aaaac

#270980159348
b1000011 aaaac

#279556579674
b1000101 aaaab
b1011000 aaaac

#279598759674
b1011000 aaaab
b1000011 aaaac

#279607539348
b1000101 aaaac

#279651079348
b1000011 aaaac

#288227499674
b1000101 aaaab
b1011000 aaaac

#288269679674
b1011000 aaaab
b1000011 aaaac

#288278459348
b1000101 aaaac

#288321999348
b1000011 aaaac

#296898419674
b1000101 aaaab
b1011000 aaaac

#296940599674
b1011000 aaaab
b1000011 aaaac

#296949379348
b1000101 aaaac

#296992919348
b1000011 aaaac

#305569339674
b1000101 aaaab
b1011000 aaaac

#305611519674
b1011000 aaaab
b1000011 aaaac

#305620299348
b1000101 aaaac

#305663839348
b1000011 aaaac

#314240259674
b1000101 aaaab
b1011000 aaaac

#314282439674
b1011000 aaaab
b1000011 aaaac

#314291219348
b1000101 aaaac

#314334759348
b1000011 aaaac

#322911179674
b1000101 aaaab
b1011000 aaaac

#322953359674
b1011000 aaaab
b1000011 aaaac

#322962139348
b1000101 aaaac

#323005679348
b1000011 aaaac

#331582099674
b1000101 aaaab
b1011000 aaaac

#331624279674
b1011000 aaaab
b1000011 aaaac

#331633059348
b1000101 aaaac

#331676599348
b1000011 aaaac

#340253019674
b1000101 aaaab
b1011000 aaaac

#340295199674
b1011000 aaaab
b1000011 aaaac

#340303979348
b1000101 aaaac

#340347519348
b1000011 aaaac

#348923939674
b1000101 aaaab
b1011000 aaaac

#348966119674
b1011000 aaaab
b1000011 aaaac

#348974899348
b1000101 aaaac

#349018439348
b1000011 aaaac

#357594859674
b1000101 aaaab
b1011000 aaaac

#357637039674
b1011000 aaaab
b1000011 aaaac

#357645819348
b1000101 aaaac

#357689359348
b1000011 aaaac

#366265779674
b1000101 aaaab
b1011000 aaaac

#366307959674
b1011000 aaaab
b1000011 aaaac

#366316739348
b1000101 aaaac

#366360279348
b1000011 aaaac

#374936699674
b1000101 aaaab
b1011000 aaaac

#374978879674
b1011000 aaaab
b1000011 aaaac

#374987659348
b1000101 aaaac

#375031199348
b1000011 aaaac

#383607619674
b1000101 aaaab
b1011000 aaaac

#383649799674
b1011000 aaaab
b1000011 aaaac

#383658579348
b1000101 aaaac

#383702119348
b1000011 aaaac

#392278539674
b1000101 aaaab
b1011000 aaaac

#392320719674
b1011000 aaaab
b1000011 aaaac

#392329499348
b1000101 aaaac

#392373039348
b1000011 aaaac

#400949459674
b1000101 aaaab
b1011000 aaaac

#400991639674
b1011000 aaaab
b1000011 aaaac

#401000419348
b1000101 aaaac

#401043959348
b1000011 aaaac

#409620379674
b1000101 aaaab
b1011000 aaaac

#409662559674
b1011000 aaaab
b1000011 aaaac

#409671339348
b1000101 aaaac

#409714879348
b1000011 aaaac

#418291299674
b1000101 aaaab
b1011000 aaaac

#418333479674
b1011000 aaaab
b1000011 aaaac

#418342259348
b1000101 aaaac

#418385799348
b1000011 aaaac

#426962219674
b1000101 aaaab
b1011000 aaaac

#427004399674
b1011000 aaaab
b1000011 aaaac

#427013179348
b1000101 aaaac

#427056719348
b1000011 aaaac

#435633139674
b1000101 aaaab
b1011000 aaaac

#435675319674
b1011000 aaaab
b1000011 aaaac

#435684099348
b1000101 aaaac

#435727639348
b1000011 aaaac

#444304059674
b1000101 aaaab
b1011000 aaaac

#444346239674
b1011000 aaaab
b1000011 aaaac

#444355019348
b1000101 aaaac

#444398559348
b1000011 aaaac

#452974979674
b1000101 aaaab
b1011000 aaaac

#453017159674
b1011000 aaaab
b1000011 aaaac

#453025939348
b1000101 aaaac

#453069479348
b1000011 aaaac

#461645899674
b1000101 aaaab
b1011000 aaaac

#461688079674
b1011000 aaaab
b1000011 aaaac

#461696859348
b1000101 aaaac

#461740399348
b1000011 aaaac

#470316819674
b1000101 aaaab
b1011000 aaaac

#470358999674
b1011000 aaaab
b1000011 aaaac

#470367779348
b1000101 aaaac

#470411319348
b1000011 aaaac

#478987739674
b1000101 aaaab
b1011000 aaaac

#479029919674
b1011000 aaaab
b1000011 aaaac

#479038699348
b1000101 aaaac

#479082239348
b1000011 aaaac

#487658659674
b1000101 aaaab
b1011000 aaaac

#487700839674
b1011000 aaaab
b1000011 aaaac

#487709619348
b1000101 aaaac

#487753159348
b1000011 aaaac

#496329579674
b1000101 aaaab
b1011000 aaaac

#496371759674
b1011000 aaaab
b1000011 aaaac

#496380539348
b1000101 aaaac

#496424079348
b1000011 aaaac

#505000499674
b1000101 aaaab
b1011000 aaaac

#505042679674
b1011000 aaaab
b1000011 aaaac

#505051459348
b1000101 aaaac

#505094999348
b1000011 aaaac

#513671419674
b1000101 aaaab
b1011000 aaaac

#513713599674
b1011000 aaaab
b1000011 aaaac

#513722379348
b1000101 aaaac

#513765919348
b1000011 aaaac

#522342339674
b1000101 aaaab
b1011000 aaaac

#522384519674
b1011000 aaaab
b1000011 aaaac

#522393299348
b1000101 aaaac

#522436839348
b1000011 aaaac

#531013259674
b1000101 aaaab
b1011000 aaaac

#531055439674
b1011000 aaaab
b1000011 aaaac

#531064219348
b1000101 aaaac

#531107759348
b1000011 aaaac

#539684179674
b1000101 aaaab
b1011000 aaaac

#539726359674
b1011000 aaaab
b1000011 aaaac

#539735139348
b1000101 aaaac

#539778679348
b1000011 aaaac

#548355099674
b1000101 aaaab
b1011000 aaaac

#548397279674
b1011000 aaaab
b1000011 aaaac

#548406059348
b1000101 aaaac

#548449599348
b1000011 aaaac

#557026019674
b1000101 aaaab
b1011000 aaaac

#557068199674
b1011000 aaaab
b1000011 aaaac

#557076979348
b1000101 aaaac

#557120519348
b1000011 aaaac

#565696939674
b1000101 aaaab
b1011000 aaaac

#565739119674
b1011000 aaaab
b1000011 aaaac

#565747899348
b1000101 aaaac

#565791439348
b1000011 aaaac

#574367859674
b1000101 aaaab
b1011000 aaaac

#574410039674
b1011000 aaaab
b1000011 aaaac

#574418819348
b1000101 aaaac

#574462359348
b1000011 aaaac

#583038779674
b1000101 aaaab
b1011000 aaaac

#583080959674
b1011000 aaaab
b1000011 aaaac

#583089739348
b1000101 aaaac

#583133279348
b1000011 aaaac

#591709699674
b1000101 aaaab
b1011000 aaaac

#591751879674
b1011000 aaaab
b1000011 aaaac

#591760659348
b1000101 aaaac

#591804199348
b1000011 aaaac

#600380619674
b1000101 aaaab
b1011000 aaaac

#600422799674
b1011000 aaaab
b1000011 aaaac

#600431579348
b1000101 aaaac

#600475119348
b1000011 aaaac

#609051539674
b1000101 aaaab
b1011000 aaaac

#609093719674
b1011000 aaaab
b1000011 aaaac

#609102499348
b1000101 aaaac

#609146039348
b1000011 aaaac

#617722459674
b1000101 aaaab
b1011000 aaaac

#617764639674
b1011000 aaaab
b1000011 aaaac

#617773419348
b1000101 aaaac

#617816959348
b1000011 aaaac

#626393379674
b1000101 aaaab
b1011000 aaaac

#626435559674
b1011000 aaaab
b1000011 aaaac

#626444339348
b1000101 aaaac

#626487879348
b1000011 aaaac

#635064299674
b1000101 aaaab
b1011000 aaaac

#635106479674
b1011000 aaaab
b1000011 aaaac

#635115259348
b1000101 aaaac

#635158799348
b1000011 aaaac

#643735219674
b1000101 aaaab
b1011000 aaaac

#643777399674
b1011000 aaaab
b1000011 aaaac

#643786179348
b1000101 aaaac

#643829719348
b1000011 aaaac

#652406139674
b1000101 aaaab
b1011000 aaaac

#652448319674
b1011000 aaaab
b1000011 aaaac

#652457099348
b1000101 aaaac

#652500639348
b1000011 aaaac

#661077059674
b1000101 aaaab
b1011000 aaaac

#661119239674
b1011000 aaaab
b1000011 aaaac

#661128019348
b1000101 aaaac

#661171559348
b1000011 aaaac

#669747979674
b1000101 aaaab
b1011000 aaaac

#669790159674
b1011000 aaaab
b1000011 aaaac

#669798939348
b1000101 aaaac

#669842479348
b1000011 aaaac

#678418899674
b1000101 aaaab
b1011000 aaaac

#678461079674
b1011000 aaaab
b1000011 aaaac

#678469859348
b1000101 aaaac

#678513399348
b1000011 aaaac

#687089819674
b1000101 aaaab
b1011000 aaaac

#687131999674
b1011000 aaaab
b1000011 aaaac

#687140779348
b1000101 aaaac

#687184319348
b1000011 aaaac

#695760739674
b1000101 aaaab
b1011000 aaaac

#695802919674
b1011000 aaaab
b1000011 aaaac

#695811699348
b1000101 aaaac

#695855239348
b1000011 aaaac

#704431659674
b1000101 aaaab
b1011000 aaaac

#704473839674
b1011000 aaaab
b1000011 aaaac

#704482619348
b1000101 aaaac

#704526159348
b1000011 aaaac

#713102579674
b1000101 aaaab
b1011000 aaaac

#713144759674
b1011000 aaaab
b1000011 aaaac

#713153539348
b1000101 aaaac

#713197079348
b1000011 aaaac

#721773499674
b1000101 aaaab
b1011000 aaaac

#721815679674
b1011000 aaaab
b1000011 aaaac

#721824459348
b1000101 aaaac

#721867999348
b1000011 aaaac

#730444419674
b1000101 aaaab
b1011000 aaaac

#730486599674
b1011000 aaaab
b1000011 aaaac

#730495379348
b1000101 aaaac

#730538919348
b1000011 aaaac

#739115339674
b1000101 aaaab
b1011000 aaaac

#739157519674
b1011000 aaaab
b1000011 aaaac

#739166299348
b1000101 aaaac

#739209839348
b1000011 aaaac

#747786259674
b1000101 aaaab
b1011000 aaaac

#747828439674
b1011000 aaaab
b1000011 aaaac

#747837219348
b1000101 aaaac

#747880759348
b1000011 aaaac

#756457179674
b1000101 aaaab
b1011000 aaaac

#756499359674
b1011000 aaaab
b1000011 aaaac

#756508139348
b1000101 aaaac

#756551679348
b1000011 aaaac

#765128099674
b1000101 aaaab
b1011000 aaaac

#765170279674
b1011000 aaaab
b1000011 aaaac

#765179059348
b1000101 aaaac

#765222599348
b1000011 aaaac

#773799019674
b1000101 aaaab
b1011000 aaaac

#773841199674
b1011000 aaaab
b1000011 aaaac

#773849979348
b1000101 aaaac

#773893519348
b1000011 aaaac

#782469939674
b1000101 aaaab
b1011000 aaaac

#782512119674
b1011000 aaaab
b1000011 aaaac

#782520899348
b1000101 aaaac

#782564439348
b1000011 aaaac

#791140859674
b1000101 aaaab
b1011000 aaaac

#791183039674
b1011000 aaaab
b1000011 aaaac

#791191819348
b1000101 aaaac

#791235359348
b1000011 aaaac

#799811779674
b1000101 aaaab
b1011000 aaaac

#799853959674
b1011000 aaaab
b1000011 aaaac

#799862739348
b1000101 aaaac

#799906279348
b1000011 aaaac

#808482699674
b1000101 aaaab
b1011000 aaaac

#808524879674
b1011000 aaaab
b1000011 aaaac

#808533659348
b1000101 aaaac

#808577199348
b1000011 aaaac

#817153619674
b1000101 aaaab
b1011000 aaaac

#817195799674
b1011000 aaaab
b1000011 aaaac

#817204579348
b1000101 aaaac

#817248119348
b1000011 aaaac

#825824539674
b1000101 aaaab
b1011000 aaaac

#825866719674
b1011000 aaaab
b1000011 aaaac

#825875499348
b1000101 aaaac

#825919039348
b1000011 aaaac

#834495459674
b1000101 aaaab
b1011000 aaaac

#834537639674
b1011000 aaaab
b1000011 aaaac

#834546419348
b1000101 aaaac

#834589959348
b1000011 aaaac

#843166379674
b1000101 aaaab
b1011000 aaaac

#843208559674
b1011000 aaaab
b1000011 aaaac

#843217339348
b1000101 aaaac

#843260879348
b1000011 aaaac

#851837299674
b1000101 aaaab
b1011000 aaaac

#851879479674
b1011000 aaaab
b1000011 aaaac

#851888259348
b1000101 aaaac

#851931799348
b1000011 aaaac

#860508219674
b1000101 aaaab
b1011000 aaaac

#860550399674
b1011000 aaaab
b1000011 aaaac

#860559179348
b1000101 aaaac

#860602719348
b1000011 aaaac

#869179139674
b1000101 aaaab
b1011000 aaaac

#869221319674
b1011000 aaaab
b1000011 aaaac

#869230099348
b1000101 aaaac

#869273639348
b1000011 aaaac

#877850059674
b1000101 aaaab
b1011000 aaaac

#877892239674
b1011000 aaaab
b1000011 aaaac

#877901019348
b1000101 aaaac

#877944559348
b1000011 aaaac

#886520979674
b1000101 aaaab
b1011000 aaaac

#886563159674
b1011000 aaaab
b1000011 aaaac

#886571939348
b1000101 aaaac

#886615479348
b1000011 aaaac

#895191899674
b1000101 aaaab
b1011000 aaaac

#895234079674
b1011000 aaaab
b1000011 aaaac

#895242859348
b1000101 aaaac

#895286399348
b1000011 aaaac

#903862819674
b1000101 aaaab
b1011000 aaaac

#903904999674
b1011000 aaaab
b1000011 aaaac

#903913779348
b1000101 aaaac

#903957319348
b1000011 aaaac

#912533739674
b1000101 aaaab
b1011000 aaaac

#912575919674
b1011000 aaaab
b1000011 aaaac

#912584699348
b1000101 aaaac

#912628239348
b1000011 aaaac

#921204659674
b1000101 aaaab
b1011000 aaaac

#921246839674
b1011000 aaaab
b1000011 aaaac

#921255619348
b1000101 aaaac

#921299159348
b1000011 aaaac

#929875579674
b1000101 aaaab
b1011000 aaaac

#929917759674
b1011000 aaaab
b1000011 aaaac

#929926539348
b1000101 aaaac

#929970079348
b1000011 aaaac

#938546499674
b1000101 aaaab
b1011000 aaaac

#938588679674
b1011000 aaaab
b1000011 aaaac

#938597459348
b1000101 aaaac

#938640999348
b1000011 aaaac

#947217419674
b1000101 aaaab
b1011000 aaaac

#947259599674
b1011000 aaaab
b1000011 aaaac

#947268379348
b1000101 aaaac

#947311919348
b1000011 aaaac

#955888339674
b1000101 aaaab
b1011000 aaaac

#955930519674
b1011000 aaaab
b1000011 aaaac

#955939299348
b1000101 aaaac

#955982839348
b1000011 aaaac

#964559259674
b1000101 aaaab
b1011000 aaaac

#964601439674
b1011000 aaaab
b1000011 aaaac

#964610219348
b1000101 aaaac

#964653759348
b1000011 aaaac

#973230179674
b1000101 aaaab
b1011000 aaaac

#973272359674
b1011000 aaaab
b1000011 aaaac

#973281139348
b1000101 aaaac

#973324679348
b1000011 aaaac

#981901099674
b1000101 aaaab
b1011000 aaaac

#981943279674
b1011000 aaaab
b1000011 aaaac

#981952059348
b1000101 aaaac

#981995599348
b1000011 aaaac

#990572019674
b1000101 aaaab
b1011000 aaaac

#990614199674
b1011000 aaaab
b1000011 aaaac

#990622979348
b1000101 aaaac

#990666519348
b1000011 aaaac

#999242939674
b1000101 aaaab
b1011000 aaaac

#999285119674
b1011000 aaaab
b1000011 aaaac

#999293899348
b1000101 aaaac

#999337439348
b1000011 aaaac

