examples/VAD_INTEGRATION/rtos4_trace.vcd
$comment
File created by KisTA library.
 Author: F.Herrera
 Institution: KTH
 Date: 2013
	All rights reserved by the authors, till further definition of the license.
$end

$comment
Tracing options used include to trace Task State signals,  Scheduler signals 
$end

$date
     Aug 31, 2016       14:28:27
$end

$version
 SystemC 2.3.1-Accellera --- Mar 29 2016 16:10:40
$end

$timescale
     1 ps
$end

$scope module SystemC $end
$var wire    8  aaaaa  sched4 [7:0]  $end
$var wire    8  aaaab  BE2 [7:0]  $end
$var wire    8  aaaac  D4_IN [7:0]  $end
$var wire    8  aaaad  D4_OUT [7:0]  $end
$var wire    8  aaaae  T8 [7:0]  $end
$upscope $end
$enddefinitions  $end

$comment
All initial values are dumped below at time 0 sec = 0 timescale units.
$end

$dumpvars
b1001001 aaaaa
b1010010 aaaab
b1000101 aaaac
b1010010 aaaad
b1011000 aaaae
$end

#1000
b1000101 aaaab
b1001001 aaaac
b1011000 aaaad

#8670920000
b1010010 aaaab
b1000101 aaaac

#8670921000
b1000101 aaaab
b1001001 aaaac

#9526996000
b1010010 aaaab
b1000101 aaaae

#9530996000
b1000101 aaaad
b1011000 aaaae

#9530997000
b1000101 aaaab
b1011000 aaaad

#17341840000
b1010010 aaaab
b1000101 aaaac

#17341841000
b1000101 aaaab
b1001001 aaaac

#18992436000
b1010010 aaaab
b1000101 aaaae

#18996436000
b1000101 aaaad
b1011000 aaaae

#18996437000
b1000101 aaaab
b1011000 aaaad

#26012760000
b1010010 aaaab
b1000101 aaaac

#26012761000
b1000101 aaaab
b1001001 aaaac

#28457876000
b1010010 aaaab
b1000101 aaaae

#28461876000
b1000101 aaaad
b1011000 aaaae

#28461877000
b1000101 aaaab
b1011000 aaaad

#34683680000
b1010010 aaaab
b1000101 aaaac

#34683681000
b1000101 aaaab
b1001001 aaaac

#37923316000
b1010010 aaaab
b1000101 aaaae

#37927316000
b1000101 aaaad
b1011000 aaaae

#37927317000
b1000101 aaaab
b1011000 aaaad

#43354600000
b1010010 aaaab
b1000101 aaaac

#43354601000
b1000101 aaaab
b1001001 aaaac

#47388756000
b1010010 aaaab
b1000101 aaaae

#47392756000
b1000101 aaaad
b1011000 aaaae

#47392757000
b1000101 aaaab
b1011000 aaaad

#52025520000
b1010010 aaaab
b1000101 aaaac

#52025521000
b1000101 aaaab
b1001001 aaaac

#56854196000
b1010010 aaaab
b1000101 aaaae

#56858196000
b1000101 aaaad
b1011000 aaaae

#56858197000
b1000101 aaaab
b1011000 aaaad

#60696440000
b1010010 aaaab
b1000101 aaaac

#60696441000
b1000101 aaaab
b1001001 aaaac

#66319636000
b1010010 aaaab
b1000101 aaaae

#66323636000
b1000101 aaaad
b1011000 aaaae

#66323637000
b1000101 aaaab
b1011000 aaaad

#69367360000
b1010010 aaaab
b1000101 aaaac

#69367361000
b1000101 aaaab
b1001001 aaaac

#75785076000
b1010010 aaaab
b1000101 aaaae

#75789076000
b1000101 aaaad
b1011000 aaaae

#75789077000
b1000101 aaaab
b1011000 aaaad

#78038280000
b1010010 aaaab
b1000101 aaaac

#78038281000
b1000101 aaaab
b1001001 aaaac

#85250516000
b1010010 aaaab
b1000101 aaaae

#85254516000
b1000101 aaaad
b1011000 aaaae

#85254517000
b1000101 aaaab
b1011000 aaaad

#86709200000
b1010010 aaaab
b1000101 aaaac

#86709201000
b1000101 aaaab
b1001001 aaaac

#94715956000
b1010010 aaaab
b1000101 aaaae

#94719956000
b1000101 aaaad
b1011000 aaaae

#94719957000
b1000101 aaaab
b1011000 aaaad

#95380120000
b1010010 aaaab
b1000101 aaaac

#95380121000
b1000101 aaaab
b1001001 aaaac

#104051040000
b1010010 aaaab
b1000101 aaaac

#104051041000
b1000101 aaaab
b1001001 aaaac

#112721960000
b1010010 aaaab
b1000101 aaaac

#112721961000
b1000101 aaaab
b1001001 aaaac

#112885596000
b1010010 aaaab
b1000101 aaaae

#112889596000
b1000101 aaaad
b1011000 aaaae

#112889597000
b1000101 aaaab
b1011000 aaaad

#112932436000
b1010010 aaaab
b1000101 aaaae

#112936436000
b1000101 aaaad
b1011000 aaaae

#112936437000
b1000101 aaaab
b1011000 aaaad

#121392880000
b1010010 aaaab
b1000101 aaaac

#121392881000
b1000101 aaaab
b1001001 aaaac

#130063800000
b1010010 aaaab
b1000101 aaaac

#130063801000
b1000101 aaaab
b1001001 aaaac

#131102076000
b1010010 aaaab
b1000101 aaaae

#131106076000
b1000101 aaaad
b1011000 aaaae

#131106077000
b1000101 aaaab
b1011000 aaaad

#131148916000
b1010010 aaaab
b1000101 aaaae

#131152916000
b1000101 aaaad
b1011000 aaaae

#131152917000
b1000101 aaaab
b1011000 aaaad

#138734720000
b1010010 aaaab
b1000101 aaaac

#138734721000
b1000101 aaaab
b1001001 aaaac

#147405640000
b1010010 aaaab
b1000101 aaaac

#147405641000
b1000101 aaaab
b1001001 aaaac

#149318556000
b1010010 aaaab
b1000101 aaaae

#149322556000
b1000101 aaaad
b1011000 aaaae

#149322557000
b1000101 aaaab
b1011000 aaaad

#149365396000
b1010010 aaaab
b1000101 aaaae

#149369396000
b1000101 aaaad
b1011000 aaaae

#149369397000
b1000101 aaaab
b1011000 aaaad

#156076560000
b1010010 aaaab
b1000101 aaaac

#156076561000
b1000101 aaaab
b1001001 aaaac

#164747480000
b1010010 aaaab
b1000101 aaaac

#164747481000
b1000101 aaaab
b1001001 aaaac

#167535036000
b1010010 aaaab
b1000101 aaaae

#167539036000
b1000101 aaaad
b1011000 aaaae

#167539037000
b1000101 aaaab
b1011000 aaaad

#167581876000
b1010010 aaaab
b1000101 aaaae

#167585876000
b1000101 aaaad
b1011000 aaaae

#167585877000
b1000101 aaaab
b1011000 aaaad

#173418400000
b1010010 aaaab
b1000101 aaaac

#173418401000
b1000101 aaaab
b1001001 aaaac

#182089320000
b1010010 aaaab
b1000101 aaaac

#182089321000
b1000101 aaaab
b1001001 aaaac

#185751516000
b1010010 aaaab
b1000101 aaaae

#185755516000
b1000101 aaaad
b1011000 aaaae

#185755517000
b1000101 aaaab
b1011000 aaaad

#185798356000
b1010010 aaaab
b1000101 aaaae

#185802356000
b1000101 aaaad
b1011000 aaaae

#185802357000
b1000101 aaaab
b1011000 aaaad

#190760240000
b1010010 aaaab
b1000101 aaaac

#190760241000
b1000101 aaaab
b1001001 aaaac

#199431160000
b1010010 aaaab
b1000101 aaaac

#199431161000
b1000101 aaaab
b1001001 aaaac

#203967996000
b1010010 aaaab
b1000101 aaaae

#203971996000
b1000101 aaaad
b1011000 aaaae

#203971997000
b1000101 aaaab
b1011000 aaaad

#204014836000
b1010010 aaaab
b1000101 aaaae

#204018836000
b1000101 aaaad
b1011000 aaaae

#204018837000
b1000101 aaaab
b1011000 aaaad

#208102080000
b1010010 aaaab
b1000101 aaaac

#208102081000
b1000101 aaaab
b1001001 aaaac

#216773000000
b1010010 aaaab
b1000101 aaaac

#216773001000
b1000101 aaaab
b1001001 aaaac

#222184476000
b1010010 aaaab
b1000101 aaaae

#222188476000
b1000101 aaaad
b1011000 aaaae

#222188477000
b1000101 aaaab
b1011000 aaaad

#222231316000
b1010010 aaaab
b1000101 aaaae

#222235316000
b1000101 aaaad
b1011000 aaaae

#222235317000
b1000101 aaaab
b1011000 aaaad

#225443920000
b1010010 aaaab
b1000101 aaaac

#225443921000
b1000101 aaaab
b1001001 aaaac

#234114840000
b1010010 aaaab
b1000101 aaaac

#234114841000
b1000101 aaaab
b1001001 aaaac

#240400956000
b1010010 aaaab
b1000101 aaaae

#240404956000
b1000101 aaaad
b1011000 aaaae

#240404957000
b1000101 aaaab
b1011000 aaaad

#240447796000
b1010010 aaaab
b1000101 aaaae

#240451796000
b1000101 aaaad
b1011000 aaaae

#240451797000
b1000101 aaaab
b1011000 aaaad

#242785760000
b1010010 aaaab
b1000101 aaaac

#242785761000
b1000101 aaaab
b1001001 aaaac

#251456680000
b1010010 aaaab
b1000101 aaaac

#251456681000
b1000101 aaaab
b1001001 aaaac

#258617436000
b1010010 aaaab
b1000101 aaaae

#258621436000
b1000101 aaaad
b1011000 aaaae

#258621437000
b1000101 aaaab
b1011000 aaaad

#258664276000
b1010010 aaaab
b1000101 aaaae

#258668276000
b1000101 aaaad
b1011000 aaaae

#258668277000
b1000101 aaaab
b1011000 aaaad

#260127600000
b1010010 aaaab
b1000101 aaaac

#260127601000
b1000101 aaaab
b1001001 aaaac

#268798520000
b1010010 aaaab
b1000101 aaaac

#268798521000
b1000101 aaaab
b1001001 aaaac

#276833916000
b1010010 aaaab
b1000101 aaaae

#276837916000
b1000101 aaaad
b1011000 aaaae

#276837917000
b1000101 aaaab
b1011000 aaaad

#276880756000
b1010010 aaaab
b1000101 aaaae

#276884756000
b1000101 aaaad
b1011000 aaaae

#276884757000
b1000101 aaaab
b1011000 aaaad

#277469440000
b1010010 aaaab
b1000101 aaaac

#277469441000
b1000101 aaaab
b1001001 aaaac

#286140360000
b1010010 aaaab
b1000101 aaaac

#286140361000
b1000101 aaaab
b1001001 aaaac

#294811280000
b1010010 aaaab
b1000101 aaaac

#294811281000
b1000101 aaaab
b1001001 aaaac

#303482200000
b1010010 aaaab
b1000101 aaaac

#303482201000
b1000101 aaaab
b1001001 aaaac

#303754596000
b1010010 aaaab
b1000101 aaaae

#303758596000
b1000101 aaaad
b1011000 aaaae

#303758597000
b1000101 aaaab
b1011000 aaaad

#303801436000
b1010010 aaaab
b1000101 aaaae

#303805436000
b1000101 aaaad
b1011000 aaaae

#303805437000
b1000101 aaaab
b1011000 aaaad

#303848276000
b1010010 aaaab
b1000101 aaaae

#303852276000
b1000101 aaaad
b1011000 aaaae

#303852277000
b1000101 aaaab
b1011000 aaaad

#312153120000
b1010010 aaaab
b1000101 aaaac

#312153121000
b1000101 aaaab
b1001001 aaaac

#320824040000
b1010010 aaaab
b1000101 aaaac

#320824041000
b1000101 aaaab
b1001001 aaaac

#329494960000
b1010010 aaaab
b1000101 aaaac

#329494961000
b1000101 aaaab
b1001001 aaaac

#330722116000
b1010010 aaaab
b1000101 aaaae

#330726116000
b1000101 aaaad
b1011000 aaaae

#330726117000
b1000101 aaaab
b1011000 aaaad

#330768956000
b1010010 aaaab
b1000101 aaaae

#330772956000
b1000101 aaaad
b1011000 aaaae

#330772957000
b1000101 aaaab
b1011000 aaaad

#330815796000
b1010010 aaaab
b1000101 aaaae

#330819796000
b1000101 aaaad
b1011000 aaaae

#330819797000
b1000101 aaaab
b1011000 aaaad

#338165880000
b1010010 aaaab
b1000101 aaaac

#338165881000
b1000101 aaaab
b1001001 aaaac

#346836800000
b1010010 aaaab
b1000101 aaaac

#346836801000
b1000101 aaaab
b1001001 aaaac

#355507720000
b1010010 aaaab
b1000101 aaaac

#355507721000
b1000101 aaaab
b1001001 aaaac

#357689636000
b1010010 aaaab
b1000101 aaaae

#357693636000
b1000101 aaaad
b1011000 aaaae

#357693637000
b1000101 aaaab
b1011000 aaaad

#357736476000
b1010010 aaaab
b1000101 aaaae

#357740476000
b1000101 aaaad
b1011000 aaaae

#357740477000
b1000101 aaaab
b1011000 aaaad

#357783316000
b1010010 aaaab
b1000101 aaaae

#357787316000
b1000101 aaaad
b1011000 aaaae

#357787317000
b1000101 aaaab
b1011000 aaaad

#364178640000
b1010010 aaaab
b1000101 aaaac

#364178641000
b1000101 aaaab
b1001001 aaaac

#372849560000
b1010010 aaaab
b1000101 aaaac

#372849561000
b1000101 aaaab
b1001001 aaaac

#381520480000
b1010010 aaaab
b1000101 aaaac

#381520481000
b1000101 aaaab
b1001001 aaaac

#384657156000
b1010010 aaaab
b1000101 aaaae

#384661156000
b1000101 aaaad
b1011000 aaaae

#384661157000
b1000101 aaaab
b1011000 aaaad

#384703996000
b1010010 aaaab
b1000101 aaaae

#384707996000
b1000101 aaaad
b1011000 aaaae

#384707997000
b1000101 aaaab
b1011000 aaaad

#384750836000
b1010010 aaaab
b1000101 aaaae

#384754836000
b1000101 aaaad
b1011000 aaaae

#384754837000
b1000101 aaaab
b1011000 aaaad

#390191400000
b1010010 aaaab
b1000101 aaaac

#390191401000
b1000101 aaaab
b1001001 aaaac

#398862320000
b1010010 aaaab
b1000101 aaaac

#398862321000
b1000101 aaaab
b1001001 aaaac

#407533240000
b1010010 aaaab
b1000101 aaaac

#407533241000
b1000101 aaaab
b1001001 aaaac

#411624676000
b1010010 aaaab
b1000101 aaaae

#411628676000
b1000101 aaaad
b1011000 aaaae

#411628677000
b1000101 aaaab
b1011000 aaaad

#411671516000
b1010010 aaaab
b1000101 aaaae

#411675516000
b1000101 aaaad
b1011000 aaaae

#411675517000
b1000101 aaaab
b1011000 aaaad

#411718356000
b1010010 aaaab
b1000101 aaaae

#411722356000
b1000101 aaaad
b1011000 aaaae

#411722357000
b1000101 aaaab
b1011000 aaaad

#416204160000
b1010010 aaaab
b1000101 aaaac

#416204161000
b1000101 aaaab
b1001001 aaaac

#424875080000
b1010010 aaaab
b1000101 aaaac

#424875081000
b1000101 aaaab
b1001001 aaaac

#433546000000
b1010010 aaaab
b1000101 aaaac

#433546001000
b1000101 aaaab
b1001001 aaaac

#438592196000
b1010010 aaaab
b1000101 aaaae

#438596196000
b1000101 aaaad
b1011000 aaaae

#438596197000
b1000101 aaaab
b1011000 aaaad

#438639036000
b1010010 aaaab
b1000101 aaaae

#438643036000
b1000101 aaaad
b1011000 aaaae

#438643037000
b1000101 aaaab
b1011000 aaaad

#438685876000
b1010010 aaaab
b1000101 aaaae

#438689876000
b1000101 aaaad
b1011000 aaaae

#438689877000
b1000101 aaaab
b1011000 aaaad

#442216920000
b1010010 aaaab
b1000101 aaaac

#442216921000
b1000101 aaaab
b1001001 aaaac

#450887840000
b1010010 aaaab
b1000101 aaaac

#450887841000
b1000101 aaaab
b1001001 aaaac

#459558760000
b1010010 aaaab
b1000101 aaaac

#459558761000
b1000101 aaaab
b1001001 aaaac

#465559716000
b1010010 aaaab
b1000101 aaaae

#465563716000
b1000101 aaaad
b1011000 aaaae

#465563717000
b1000101 aaaab
b1011000 aaaad

#465606556000
b1010010 aaaab
b1000101 aaaae

#465610556000
b1000101 aaaad
b1011000 aaaae

#465610557000
b1000101 aaaab
b1011000 aaaad

#465653396000
b1010010 aaaab
b1000101 aaaae

#465657396000
b1000101 aaaad
b1011000 aaaae

#465657397000
b1000101 aaaab
b1011000 aaaad

#468229680000
b1010010 aaaab
b1000101 aaaac

#468229681000
b1000101 aaaab
b1001001 aaaac

#476900600000
b1010010 aaaab
b1000101 aaaac

#476900601000
b1000101 aaaab
b1001001 aaaac

#485571520000
b1010010 aaaab
b1000101 aaaac

#485571521000
b1000101 aaaab
b1001001 aaaac

#492527236000
b1010010 aaaab
b1000101 aaaae

#492531236000
b1000101 aaaad
b1011000 aaaae

#492531237000
b1000101 aaaab
b1011000 aaaad

#492574076000
b1010010 aaaab
b1000101 aaaae

#492578076000
b1000101 aaaad
b1011000 aaaae

#492578077000
b1000101 aaaab
b1011000 aaaad

#492620916000
b1010010 aaaab
b1000101 aaaae

#492624916000
b1000101 aaaad
b1011000 aaaae

#492624917000
b1000101 aaaab
b1011000 aaaad

#494242440000
b1010010 aaaab
b1000101 aaaac

#494242441000
b1000101 aaaab
b1001001 aaaac

#502913360000
b1010010 aaaab
b1000101 aaaac

#502913361000
b1000101 aaaab
b1001001 aaaac

#511584280000
b1010010 aaaab
b1000101 aaaac

#511584281000
b1000101 aaaab
b1001001 aaaac

#519494756000
b1010010 aaaab
b1000101 aaaae

#519498756000
b1000101 aaaad
b1011000 aaaae

#519498757000
b1000101 aaaab
b1011000 aaaad

#519541596000
b1010010 aaaab
b1000101 aaaae

#519545596000
b1000101 aaaad
b1011000 aaaae

#519545597000
b1000101 aaaab
b1011000 aaaad

#519588436000
b1010010 aaaab
b1000101 aaaae

#519592436000
b1000101 aaaad
b1011000 aaaae

#519592437000
b1000101 aaaab
b1011000 aaaad

#520255200000
b1010010 aaaab
b1000101 aaaac

#520255201000
b1000101 aaaab
b1001001 aaaac

#528926120000
b1010010 aaaab
b1000101 aaaac

#528926121000
b1000101 aaaab
b1001001 aaaac

#537597040000
b1010010 aaaab
b1000101 aaaac

#537597041000
b1000101 aaaab
b1001001 aaaac

#546267960000
b1010010 aaaab
b1000101 aaaac

#546267961000
b1000101 aaaab
b1001001 aaaac

#554938880000
b1010010 aaaab
b1000101 aaaac

#554938881000
b1000101 aaaab
b1001001 aaaac

#555166476000
b1010010 aaaab
b1000101 aaaae

#555170476000
b1000101 aaaad
b1011000 aaaae

#555170477000
b1000101 aaaab
b1011000 aaaad

#555213316000
b1010010 aaaab
b1000101 aaaae

#555217316000
b1000101 aaaad
b1011000 aaaae

#555217317000
b1000101 aaaab
b1011000 aaaad

#555260156000
b1010010 aaaab
b1000101 aaaae

#555264156000
b1000101 aaaad
b1011000 aaaae

#555264157000
b1000101 aaaab
b1011000 aaaad

#555306996000
b1010010 aaaab
b1000101 aaaae

#555310996000
b1000101 aaaad
b1011000 aaaae

#555310997000
b1000101 aaaab
b1011000 aaaad

#563609800000
b1010010 aaaab
b1000101 aaaac

#563609801000
b1000101 aaaab
b1001001 aaaac

#572280720000
b1010010 aaaab
b1000101 aaaac

#572280721000
b1000101 aaaab
b1001001 aaaac

#580951640000
b1010010 aaaab
b1000101 aaaac

#580951641000
b1000101 aaaab
b1001001 aaaac

#589622560000
b1010010 aaaab
b1000101 aaaac

#589622561000
b1000101 aaaab
b1001001 aaaac

#590885036000
b1010010 aaaab
b1000101 aaaae

#590889036000
b1000101 aaaad
b1011000 aaaae

#590889037000
b1000101 aaaab
b1011000 aaaad

#590931876000
b1010010 aaaab
b1000101 aaaae

#590935876000
b1000101 aaaad
b1011000 aaaae

#590935877000
b1000101 aaaab
b1011000 aaaad

#590978716000
b1010010 aaaab
b1000101 aaaae

#590982716000
b1000101 aaaad
b1011000 aaaae

#590982717000
b1000101 aaaab
b1011000 aaaad

#591025556000
b1010010 aaaab
b1000101 aaaae

#591029556000
b1000101 aaaad
b1011000 aaaae

#591029557000
b1000101 aaaab
b1011000 aaaad

#598293480000
b1010010 aaaab
b1000101 aaaac

#598293481000
b1000101 aaaab
b1001001 aaaac

#606964400000
b1010010 aaaab
b1000101 aaaac

#606964401000
b1000101 aaaab
b1001001 aaaac

#615635320000
b1010010 aaaab
b1000101 aaaac

#615635321000
b1000101 aaaab
b1001001 aaaac

#624306240000
b1010010 aaaab
b1000101 aaaac

#624306241000
b1000101 aaaab
b1001001 aaaac

#626603596000
b1010010 aaaab
b1000101 aaaae

#626607596000
b1000101 aaaad
b1011000 aaaae

#626607597000
b1000101 aaaab
b1011000 aaaad

#626650436000
b1010010 aaaab
b1000101 aaaae

#626654436000
b1000101 aaaad
b1011000 aaaae

#626654437000
b1000101 aaaab
b1011000 aaaad

#626697276000
b1010010 aaaab
b1000101 aaaae

#626701276000
b1000101 aaaad
b1011000 aaaae

#626701277000
b1000101 aaaab
b1011000 aaaad

#626744116000
b1010010 aaaab
b1000101 aaaae

#626748116000
b1000101 aaaad
b1011000 aaaae

#626748117000
b1000101 aaaab
b1011000 aaaad

#632977160000
b1010010 aaaab
b1000101 aaaac

#632977161000
b1000101 aaaab
b1001001 aaaac

#641648080000
b1010010 aaaab
b1000101 aaaac

#641648081000
b1000101 aaaab
b1001001 aaaac

#650319000000
b1010010 aaaab
b1000101 aaaac

#650319001000
b1000101 aaaab
b1001001 aaaac

#658989920000
b1010010 aaaab
b1000101 aaaac

#658989921000
b1000101 aaaab
b1001001 aaaac

#662322156000
b1010010 aaaab
b1000101 aaaae

#662326156000
b1000101 aaaad
b1011000 aaaae

#662326157000
b1000101 aaaab
b1011000 aaaad

#662368996000
b1010010 aaaab
b1000101 aaaae

#662372996000
b1000101 aaaad
b1011000 aaaae

#662372997000
b1000101 aaaab
b1011000 aaaad

#662415836000
b1010010 aaaab
b1000101 aaaae

#662419836000
b1000101 aaaad
b1011000 aaaae

#662419837000
b1000101 aaaab
b1011000 aaaad

#662462676000
b1010010 aaaab
b1000101 aaaae

#662466676000
b1000101 aaaad
b1011000 aaaae

#662466677000
b1000101 aaaab
b1011000 aaaad

#667660840000
b1010010 aaaab
b1000101 aaaac

#667660841000
b1000101 aaaab
b1001001 aaaac

#676331760000
b1010010 aaaab
b1000101 aaaac

#676331761000
b1000101 aaaab
b1001001 aaaac

#685002680000
b1010010 aaaab
b1000101 aaaac

#685002681000
b1000101 aaaab
b1001001 aaaac

#693673600000
b1010010 aaaab
b1000101 aaaac

#693673601000
b1000101 aaaab
b1001001 aaaac

#698040716000
b1010010 aaaab
b1000101 aaaae

#698044716000
b1000101 aaaad
b1011000 aaaae

#698044717000
b1000101 aaaab
b1011000 aaaad

#698087556000
b1010010 aaaab
b1000101 aaaae

#698091556000
b1000101 aaaad
b1011000 aaaae

#698091557000
b1000101 aaaab
b1011000 aaaad

#698134396000
b1010010 aaaab
b1000101 aaaae

#698138396000
b1000101 aaaad
b1011000 aaaae

#698138397000
b1000101 aaaab
b1011000 aaaad

#698181236000
b1010010 aaaab
b1000101 aaaae

#698185236000
b1000101 aaaad
b1011000 aaaae

#698185237000
b1000101 aaaab
b1011000 aaaad

#702344520000
b1010010 aaaab
b1000101 aaaac

#702344521000
b1000101 aaaab
b1001001 aaaac

#711015440000
b1010010 aaaab
b1000101 aaaac

#711015441000
b1000101 aaaab
b1001001 aaaac

#719686360000
b1010010 aaaab
b1000101 aaaac

#719686361000
b1000101 aaaab
b1001001 aaaac

#728357280000
b1010010 aaaab
b1000101 aaaac

#728357281000
b1000101 aaaab
b1001001 aaaac

#733759276000
b1010010 aaaab
b1000101 aaaae

#733763276000
b1000101 aaaad
b1011000 aaaae

#733763277000
b1000101 aaaab
b1011000 aaaad

#733806116000
b1010010 aaaab
b1000101 aaaae

#733810116000
b1000101 aaaad
b1011000 aaaae

#733810117000
b1000101 aaaab
b1011000 aaaad

#733852956000
b1010010 aaaab
b1000101 aaaae

#733856956000
b1000101 aaaad
b1011000 aaaae

#733856957000
b1000101 aaaab
b1011000 aaaad

#733899796000
b1010010 aaaab
b1000101 aaaae

#733903796000
b1000101 aaaad
b1011000 aaaae

#733903797000
b1000101 aaaab
b1011000 aaaad

#737028200000
b1010010 aaaab
b1000101 aaaac

#737028201000
b1000101 aaaab
b1001001 aaaac

#745699120000
b1010010 aaaab
b1000101 aaaac

#745699121000
b1000101 aaaab
b1001001 aaaac

#754370040000
b1010010 aaaab
b1000101 aaaac

#754370041000
b1000101 aaaab
b1001001 aaaac

#763040960000
b1010010 aaaab
b1000101 aaaac

#763040961000
b1000101 aaaab
b1001001 aaaac

#769477836000
b1010010 aaaab
b1000101 aaaae

#769481836000
b1000101 aaaad
b1011000 aaaae

#769481837000
b1000101 aaaab
b1011000 aaaad

#769524676000
b1010010 aaaab
b1000101 aaaae

#769528676000
b1000101 aaaad
b1011000 aaaae

#769528677000
b1000101 aaaab
b1011000 aaaad

#769571516000
b1010010 aaaab
b1000101 aaaae

#769575516000
b1000101 aaaad
b1011000 aaaae

#769575517000
b1000101 aaaab
b1011000 aaaad

#769618356000
b1010010 aaaab
b1000101 aaaae

#769622356000
b1000101 aaaad
b1011000 aaaae

#769622357000
b1000101 aaaab
b1011000 aaaad

#771711880000
b1010010 aaaab
b1000101 aaaac

#771711881000
b1000101 aaaab
b1001001 aaaac

#780382800000
b1010010 aaaab
b1000101 aaaac

#780382801000
b1000101 aaaab
b1001001 aaaac

#789053720000
b1010010 aaaab
b1000101 aaaac

#789053721000
b1000101 aaaab
b1001001 aaaac

#797724640000
b1010010 aaaab
b1000101 aaaac

#797724641000
b1000101 aaaab
b1001001 aaaac

#805196396000
b1010010 aaaab
b1000101 aaaae

#805200396000
b1000101 aaaad
b1011000 aaaae

#805200397000
b1000101 aaaab
b1011000 aaaad

#805243236000
b1010010 aaaab
b1000101 aaaae

#805247236000
b1000101 aaaad
b1011000 aaaae

#805247237000
b1000101 aaaab
b1011000 aaaad

#805290076000
b1010010 aaaab
b1000101 aaaae

#805294076000
b1000101 aaaad
b1011000 aaaae

#805294077000
b1000101 aaaab
b1011000 aaaad

#805336916000
b1010010 aaaab
b1000101 aaaae

#805340916000
b1000101 aaaad
b1011000 aaaae

#805340917000
b1000101 aaaab
b1011000 aaaad

#806395560000
b1010010 aaaab
b1000101 aaaac

#806395561000
b1000101 aaaab
b1001001 aaaac

#815066480000
b1010010 aaaab
b1000101 aaaac

#815066481000
b1000101 aaaab
b1001001 aaaac

#823737400000
b1010010 aaaab
b1000101 aaaac

#823737401000
b1000101 aaaab
b1001001 aaaac

#832408320000
b1010010 aaaab
b1000101 aaaac

#832408321000
b1000101 aaaab
b1001001 aaaac

#840914956000
b1010010 aaaab
b1000101 aaaae

#840918956000
b1000101 aaaad
b1011000 aaaae

#840918957000
b1000101 aaaab
b1011000 aaaad

#840961796000
b1010010 aaaab
b1000101 aaaae

#840965796000
b1000101 aaaad
b1011000 aaaae

#840965797000
b1000101 aaaab
b1011000 aaaad

#841008636000
b1010010 aaaab
b1000101 aaaae

#841012636000
b1000101 aaaad
b1011000 aaaae

#841012637000
b1000101 aaaab
b1011000 aaaad

#841055476000
b1010010 aaaab
b1000101 aaaae

#841059476000
b1000101 aaaad
b1011000 aaaae

#841059477000
b1000101 aaaab
b1011000 aaaad

#841079240000
b1010010 aaaab
b1000101 aaaac

#841079241000
b1000101 aaaab
b1001001 aaaac

#849750160000
b1010010 aaaab
b1000101 aaaac

#849750161000
b1000101 aaaab
b1001001 aaaac

#858421080000
b1010010 aaaab
b1000101 aaaac

#858421081000
b1000101 aaaab
b1001001 aaaac

#867092000000
b1010010 aaaab
b1000101 aaaac

#867092001000
b1000101 aaaab
b1001001 aaaac

#875762920000
b1010010 aaaab
b1000101 aaaac

#875762921000
b1000101 aaaab
b1001001 aaaac

#884433840000
b1010010 aaaab
b1000101 aaaac

#884433841000
b1000101 aaaab
b1001001 aaaac

#885337716000
b1010010 aaaab
b1000101 aaaae

#885341716000
b1000101 aaaad
b1011000 aaaae

#885341717000
b1000101 aaaab
b1011000 aaaad

#885384556000
b1010010 aaaab
b1000101 aaaae

#885388556000
b1000101 aaaad
b1011000 aaaae

#885388557000
b1000101 aaaab
b1011000 aaaad

#885431396000
b1010010 aaaab
b1000101 aaaae

#885435396000
b1000101 aaaad
b1011000 aaaae

#885435397000
b1000101 aaaab
b1011000 aaaad

#885478236000
b1010010 aaaab
b1000101 aaaae

#885482236000
b1000101 aaaad
b1011000 aaaae

#885482237000
b1000101 aaaab
b1011000 aaaad

#885525076000
b1010010 aaaab
b1000101 aaaae

#885529076000
b1000101 aaaad
b1011000 aaaae

#885529077000
b1000101 aaaab
b1011000 aaaad

#893104760000
b1010010 aaaab
b1000101 aaaac

#893104761000
b1000101 aaaab
b1001001 aaaac

#901775680000
b1010010 aaaab
b1000101 aaaac

#901775681000
b1000101 aaaab
b1001001 aaaac

#910446600000
b1010010 aaaab
b1000101 aaaac

#910446601000
b1000101 aaaab
b1001001 aaaac

#919117520000
b1010010 aaaab
b1000101 aaaac

#919117521000
b1000101 aaaab
b1001001 aaaac

#927788440000
b1010010 aaaab
b1000101 aaaac

#927788441000
b1000101 aaaab
b1001001 aaaac

#929807316000
b1010010 aaaab
b1000101 aaaae

#929811316000
b1000101 aaaad
b1011000 aaaae

#929811317000
b1000101 aaaab
b1011000 aaaad

#929854156000
b1010010 aaaab
b1000101 aaaae

#929858156000
b1000101 aaaad
b1011000 aaaae

#929858157000
b1000101 aaaab
b1011000 aaaad

#929900996000
b1010010 aaaab
b1000101 aaaae

#929904996000
b1000101 aaaad
b1011000 aaaae

#929904997000
b1000101 aaaab
b1011000 aaaad

#929947836000
b1010010 aaaab
b1000101 aaaae

#929951836000
b1000101 aaaad
b1011000 aaaae

#929951837000
b1000101 aaaab
b1011000 aaaad

#929994676000
b1010010 aaaab
b1000101 aaaae

#929998676000
b1000101 aaaad
b1011000 aaaae

#929998677000
b1000101 aaaab
b1011000 aaaad

#936459360000
b1010010 aaaab
b1000101 aaaac

#936459361000
b1000101 aaaab
b1001001 aaaac

#945130280000
b1010010 aaaab
b1000101 aaaac

#945130281000
b1000101 aaaab
b1001001 aaaac

#953801200000
b1010010 aaaab
b1000101 aaaac

#953801201000
b1000101 aaaab
b1001001 aaaac

#962472120000
b1010010 aaaab
b1000101 aaaac

#962472121000
b1000101 aaaab
b1001001 aaaac

#971143040000
b1010010 aaaab
b1000101 aaaac

#971143041000
b1000101 aaaab
b1001001 aaaac

#974276916000
b1010010 aaaab
b1000101 aaaae

#974280916000
b1000101 aaaad
b1011000 aaaae

#974280917000
b1000101 aaaab
b1011000 aaaad

#974323756000
b1010010 aaaab
b1000101 aaaae

#974327756000
b1000101 aaaad
b1011000 aaaae

#974327757000
b1000101 aaaab
b1011000 aaaad

#974370596000
b1010010 aaaab
b1000101 aaaae

#974374596000
b1000101 aaaad
b1011000 aaaae

#974374597000
b1000101 aaaab
b1011000 aaaad

#974417436000
b1010010 aaaab
b1000101 aaaae

#974421436000
b1000101 aaaad
b1011000 aaaae

#974421437000
b1000101 aaaab
b1011000 aaaad

#974464276000
b1010010 aaaab
b1000101 aaaae

#974468276000
b1000101 aaaad
b1011000 aaaae

#974468277000
b1000101 aaaab
b1011000 aaaad

#979813960000
b1010010 aaaab
b1000101 aaaac

#979813961000
b1000101 aaaab
b1001001 aaaac

#988484880000
b1010010 aaaab
b1000101 aaaac

#988484881000
b1000101 aaaab
b1001001 aaaac

#997155800000
b1010010 aaaab
b1000101 aaaac

#997155801000
b1000101 aaaab
b1001001 aaaac

