examples/VAD_INTEGRATION/rtos4_trace.vcd
$comment
File created by KisTA library.
 Author: F.Herrera
 Institution: KTH
 Date: 2013
	All rights reserved by the authors, till further definition of the license.
$end

$comment
Tracing options used include to trace Task State signals,  Scheduler signals 
$end

$date
     Jul 21, 2016       11:14:01
$end

$version
 SystemC 2.3.1-Accellera --- Mar 29 2016 16:10:40
$end

$timescale
     1 ps
$end

$scope module SystemC $end
$var wire    8  aaaaa  sched4 [7:0]  $end
$var wire    8  aaaab  D4_IN [7:0]  $end
$var wire    8  aaaac  D4_OUT [7:0]  $end
$var wire    8  aaaad  T7 [7:0]  $end
$var wire    8  aaaae  T8 [7:0]  $end
$upscope $end
$enddefinitions  $end

$comment
All initial values are dumped below at time 0 sec = 0 timescale units.
$end

$dumpvars
b1001001 aaaaa
b1000101 aaaab
b1010010 aaaac
b1011000 aaaad
b1011000 aaaae
$end

#1000
b1001001 aaaab
b1011000 aaaac
b1000011 aaaad

#9000000000
b1000101 aaaab
b1011000 aaaad

#9000001000
b1001001 aaaab
b1000011 aaaad

#9401263883
b1000101 aaaad

#9405283883
b1011000 aaaad
b1000101 aaaae

#9409283883
b1000101 aaaac
b1011000 aaaae

#9409284883
b1011000 aaaac
b1000011 aaaad

#18000000000
b1000101 aaaab
b1011000 aaaad

#18000001000
b1001001 aaaab
b1000011 aaaad

#18401263883
b1000101 aaaad

#18405283883
b1011000 aaaad
b1000101 aaaae

#18409283883
b1000101 aaaac
b1011000 aaaae

#18409284883
b1011000 aaaac
b1000011 aaaad

#27000000000
b1000101 aaaab
b1011000 aaaad

#27000001000
b1001001 aaaab
b1000011 aaaad

#27401263883
b1000101 aaaad

#27405283883
b1011000 aaaad
b1000101 aaaae

#27409283883
b1000101 aaaac
b1011000 aaaae

#27409284883
b1011000 aaaac
b1000011 aaaad

#36000000000
b1000101 aaaab
b1011000 aaaad

#36000001000
b1001001 aaaab
b1000011 aaaad

#36401263883
b1000101 aaaad

#36405283883
b1011000 aaaad
b1000101 aaaae

#36409283883
b1000101 aaaac
b1011000 aaaae

#36409284883
b1011000 aaaac
b1000011 aaaad

#45000000000
b1000101 aaaab
b1011000 aaaad

#45000001000
b1001001 aaaab
b1000011 aaaad

#45401263883
b1000101 aaaad

#45405283883
b1011000 aaaad
b1000101 aaaae

#45409283883
b1000101 aaaac
b1011000 aaaae

#45409284883
b1011000 aaaac
b1000011 aaaad

#54000000000
b1000101 aaaab
b1011000 aaaad

#54000001000
b1001001 aaaab
b1000011 aaaad

#54401263883
b1000101 aaaad

#54405283883
b1011000 aaaad
b1000101 aaaae

#54409283883
b1000101 aaaac
b1011000 aaaae

#54409284883
b1011000 aaaac
b1000011 aaaad

#63000000000
b1000101 aaaab
b1011000 aaaad

#63000001000
b1001001 aaaab
b1000011 aaaad

#63401263883
b1000101 aaaad

#63405283883
b1011000 aaaad
b1000101 aaaae

#63409283883
b1000101 aaaac
b1011000 aaaae

#63409284883
b1011000 aaaac
b1000011 aaaad

#72000000000
b1000101 aaaab
b1011000 aaaad

#72000001000
b1001001 aaaab
b1000011 aaaad

#72401263883
b1000101 aaaad

#72405283883
b1011000 aaaad
b1000101 aaaae

#72409283883
b1000101 aaaac
b1011000 aaaae

#72409284883
b1011000 aaaac
b1000011 aaaad

#81000000000
b1000101 aaaab
b1011000 aaaad

#81000001000
b1001001 aaaab
b1000011 aaaad

#81401263883
b1000101 aaaad

#81405283883
b1011000 aaaad
b1000101 aaaae

#81409283883
b1000101 aaaac
b1011000 aaaae

#81409284883
b1011000 aaaac
b1000011 aaaad

#90000000000
b1000101 aaaab
b1011000 aaaad

#90000001000
b1001001 aaaab
b1000011 aaaad

#90401263883
b1000101 aaaad

#90405283883
b1011000 aaaad
b1000101 aaaae

#90409283883
b1000101 aaaac
b1011000 aaaae

#90409284883
b1011000 aaaac
b1000011 aaaad

#99000000000
b1000101 aaaab
b1011000 aaaad

#99000001000
b1001001 aaaab
b1000011 aaaad

#99401263883
b1000101 aaaad

#99405283883
b1011000 aaaad
b1000101 aaaae

#99409283883
b1000101 aaaac
b1011000 aaaae

#99409284883
b1011000 aaaac
b1000011 aaaad

#108000000000
b1000101 aaaab
b1011000 aaaad

#108000001000
b1001001 aaaab
b1000011 aaaad

#108401263883
b1000101 aaaad

#108405283883
b1011000 aaaad
b1000101 aaaae

#108409283883
b1000101 aaaac
b1011000 aaaae

#108409284883
b1011000 aaaac
b1000011 aaaad

#117000000000
b1000101 aaaab
b1011000 aaaad

#117000001000
b1001001 aaaab
b1000011 aaaad

#117401263883
b1000101 aaaad

#117405283883
b1011000 aaaad
b1000101 aaaae

#117409283883
b1000101 aaaac
b1011000 aaaae

#117409284883
b1011000 aaaac
b1000011 aaaad

#126000000000
b1000101 aaaab
b1011000 aaaad

#126000001000
b1001001 aaaab
b1000011 aaaad

#126401263883
b1000101 aaaad

#126405283883
b1011000 aaaad
b1000101 aaaae

#126409283883
b1000101 aaaac
b1011000 aaaae

#126409284883
b1011000 aaaac
b1000011 aaaad

#135000000000
b1000101 aaaab
b1011000 aaaad

#135000001000
b1001001 aaaab
b1000011 aaaad

#135401263883
b1000101 aaaad

#135405283883
b1011000 aaaad
b1000101 aaaae

#135409283883
b1000101 aaaac
b1011000 aaaae

#135409284883
b1011000 aaaac
b1000011 aaaad

#144000000000
b1000101 aaaab
b1011000 aaaad

#144000001000
b1001001 aaaab
b1000011 aaaad

#144401263883
b1000101 aaaad

#144405283883
b1011000 aaaad
b1000101 aaaae

#144409283883
b1000101 aaaac
b1011000 aaaae

#144409284883
b1011000 aaaac
b1000011 aaaad

#153000000000
b1000101 aaaab
b1011000 aaaad

#153000001000
b1001001 aaaab
b1000011 aaaad

#153401263883
b1000101 aaaad

#153405283883
b1011000 aaaad
b1000101 aaaae

#153409283883
b1000101 aaaac
b1011000 aaaae

#153409284883
b1011000 aaaac
b1000011 aaaad

#162000000000
b1000101 aaaab
b1011000 aaaad

#162000001000
b1001001 aaaab
b1000011 aaaad

#162401263883
b1000101 aaaad

#162405283883
b1011000 aaaad
b1000101 aaaae

#162409283883
b1000101 aaaac
b1011000 aaaae

#162409284883
b1011000 aaaac
b1000011 aaaad

#171000000000
b1000101 aaaab
b1011000 aaaad

#171000001000
b1001001 aaaab
b1000011 aaaad

#171401263883
b1000101 aaaad

#171405283883
b1011000 aaaad
b1000101 aaaae

#171409283883
b1000101 aaaac
b1011000 aaaae

#171409284883
b1011000 aaaac
b1000011 aaaad

#180000000000
b1000101 aaaab
b1011000 aaaad

#180000001000
b1001001 aaaab
b1000011 aaaad

#180401263883
b1000101 aaaad

#180405283883
b1011000 aaaad
b1000101 aaaae

#180409283883
b1000101 aaaac
b1011000 aaaae

#180409284883
b1011000 aaaac
b1000011 aaaad

#189000000000
b1000101 aaaab
b1011000 aaaad

#189000001000
b1001001 aaaab
b1000011 aaaad

#189401263883
b1000101 aaaad

#189405283883
b1011000 aaaad
b1000101 aaaae

#189409283883
b1000101 aaaac
b1011000 aaaae

#189409284883
b1011000 aaaac
b1000011 aaaad

#198000000000
b1000101 aaaab
b1011000 aaaad

#198000001000
b1001001 aaaab
b1000011 aaaad

#198401263883
b1000101 aaaad

#198405283883
b1011000 aaaad
b1000101 aaaae

#198409283883
b1000101 aaaac
b1011000 aaaae

#198409284883
b1011000 aaaac
b1000011 aaaad

#207000000000
b1000101 aaaab
b1011000 aaaad

#207000001000
b1001001 aaaab
b1000011 aaaad

#207401263883
b1000101 aaaad

#207405283883
b1011000 aaaad
b1000101 aaaae

#207409283883
b1000101 aaaac
b1011000 aaaae

#207409284883
b1011000 aaaac
b1000011 aaaad

#216000000000
b1000101 aaaab
b1011000 aaaad

#216000001000
b1001001 aaaab
b1000011 aaaad

#216401263883
b1000101 aaaad

#216405283883
b1011000 aaaad
b1000101 aaaae

#216409283883
b1000101 aaaac
b1011000 aaaae

#216409284883
b1011000 aaaac
b1000011 aaaad

#225000000000
b1000101 aaaab
b1011000 aaaad

#225000001000
b1001001 aaaab
b1000011 aaaad

#225401263883
b1000101 aaaad

#225405283883
b1011000 aaaad
b1000101 aaaae

#225409283883
b1000101 aaaac
b1011000 aaaae

#225409284883
b1011000 aaaac
b1000011 aaaad

#234000000000
b1000101 aaaab
b1011000 aaaad

#234000001000
b1001001 aaaab
b1000011 aaaad

#234401263883
b1000101 aaaad

#234405283883
b1011000 aaaad
b1000101 aaaae

#234409283883
b1000101 aaaac
b1011000 aaaae

#234409284883
b1011000 aaaac
b1000011 aaaad

#243000000000
b1000101 aaaab
b1011000 aaaad

#243000001000
b1001001 aaaab
b1000011 aaaad

#243401263883
b1000101 aaaad

#243405283883
b1011000 aaaad
b1000101 aaaae

#243409283883
b1000101 aaaac
b1011000 aaaae

#243409284883
b1011000 aaaac
b1000011 aaaad

#252000000000
b1000101 aaaab
b1011000 aaaad

#252000001000
b1001001 aaaab
b1000011 aaaad

#252401263883
b1000101 aaaad

#252405283883
b1011000 aaaad
b1000101 aaaae

#252409283883
b1000101 aaaac
b1011000 aaaae

#252409284883
b1011000 aaaac
b1000011 aaaad

#261000000000
b1000101 aaaab
b1011000 aaaad

#261000001000
b1001001 aaaab
b1000011 aaaad

#261401263883
b1000101 aaaad

#261405283883
b1011000 aaaad
b1000101 aaaae

#261409283883
b1000101 aaaac
b1011000 aaaae

#261409284883
b1011000 aaaac
b1000011 aaaad

#270000000000
b1000101 aaaab
b1011000 aaaad

#270000001000
b1001001 aaaab
b1000011 aaaad

#270401263883
b1000101 aaaad

#270405283883
b1011000 aaaad
b1000101 aaaae

#270409283883
b1000101 aaaac
b1011000 aaaae

#270409284883
b1011000 aaaac
b1000011 aaaad

#279000000000
b1000101 aaaab
b1011000 aaaad

#279000001000
b1001001 aaaab
b1000011 aaaad

#279401263883
b1000101 aaaad

#279405283883
b1011000 aaaad
b1000101 aaaae

#279409283883
b1000101 aaaac
b1011000 aaaae

#279409284883
b1011000 aaaac
b1000011 aaaad

#288000000000
b1000101 aaaab
b1011000 aaaad

#288000001000
b1001001 aaaab
b1000011 aaaad

#288401263883
b1000101 aaaad

#288405283883
b1011000 aaaad
b1000101 aaaae

#288409283883
b1000101 aaaac
b1011000 aaaae

#288409284883
b1011000 aaaac
b1000011 aaaad

#297000000000
b1000101 aaaab
b1011000 aaaad

#297000001000
b1001001 aaaab
b1000011 aaaad

#297401263883
b1000101 aaaad

#297405283883
b1011000 aaaad
b1000101 aaaae

#297409283883
b1000101 aaaac
b1011000 aaaae

#297409284883
b1011000 aaaac
b1000011 aaaad

#306000000000
b1000101 aaaab
b1011000 aaaad

#306000001000
b1001001 aaaab
b1000011 aaaad

#306401263883
b1000101 aaaad

#306405283883
b1011000 aaaad
b1000101 aaaae

#306409283883
b1000101 aaaac
b1011000 aaaae

#306409284883
b1011000 aaaac
b1000011 aaaad

#315000000000
b1000101 aaaab
b1011000 aaaad

#315000001000
b1001001 aaaab
b1000011 aaaad

#315401263883
b1000101 aaaad

#315405283883
b1011000 aaaad
b1000101 aaaae

#315409283883
b1000101 aaaac
b1011000 aaaae

#315409284883
b1011000 aaaac
b1000011 aaaad

#324000000000
b1000101 aaaab
b1011000 aaaad

#324000001000
b1001001 aaaab
b1000011 aaaad

#324401263883
b1000101 aaaad

#324405283883
b1011000 aaaad
b1000101 aaaae

#324409283883
b1000101 aaaac
b1011000 aaaae

#324409284883
b1011000 aaaac
b1000011 aaaad

#333000000000
b1000101 aaaab
b1011000 aaaad

#333000001000
b1001001 aaaab
b1000011 aaaad

#333401263883
b1000101 aaaad

#333405283883
b1011000 aaaad
b1000101 aaaae

#333409283883
b1000101 aaaac
b1011000 aaaae

#333409284883
b1011000 aaaac
b1000011 aaaad

#342000000000
b1000101 aaaab
b1011000 aaaad

#342000001000
b1001001 aaaab
b1000011 aaaad

#342401263883
b1000101 aaaad

#342405283883
b1011000 aaaad
b1000101 aaaae

#342409283883
b1000101 aaaac
b1011000 aaaae

#342409284883
b1011000 aaaac
b1000011 aaaad

#351000000000
b1000101 aaaab
b1011000 aaaad

#351000001000
b1001001 aaaab
b1000011 aaaad

#351401263883
b1000101 aaaad

#351405283883
b1011000 aaaad
b1000101 aaaae

#351409283883
b1000101 aaaac
b1011000 aaaae

#351409284883
b1011000 aaaac
b1000011 aaaad

#360000000000
b1000101 aaaab
b1011000 aaaad

#360000001000
b1001001 aaaab
b1000011 aaaad

#360401263883
b1000101 aaaad

#360405283883
b1011000 aaaad
b1000101 aaaae

#360409283883
b1000101 aaaac
b1011000 aaaae

#360409284883
b1011000 aaaac
b1000011 aaaad

#369000000000
b1000101 aaaab
b1011000 aaaad

#369000001000
b1001001 aaaab
b1000011 aaaad

#369401263883
b1000101 aaaad

#369405283883
b1011000 aaaad
b1000101 aaaae

#369409283883
b1000101 aaaac
b1011000 aaaae

#369409284883
b1011000 aaaac
b1000011 aaaad

#378000000000
b1000101 aaaab
b1011000 aaaad

#378000001000
b1001001 aaaab
b1000011 aaaad

#378401263883
b1000101 aaaad

#378405283883
b1011000 aaaad
b1000101 aaaae

#378409283883
b1000101 aaaac
b1011000 aaaae

#378409284883
b1011000 aaaac
b1000011 aaaad

#387000000000
b1000101 aaaab
b1011000 aaaad

#387000001000
b1001001 aaaab
b1000011 aaaad

#387401263883
b1000101 aaaad

#387405283883
b1011000 aaaad
b1000101 aaaae

#387409283883
b1000101 aaaac
b1011000 aaaae

#387409284883
b1011000 aaaac
b1000011 aaaad

#396000000000
b1000101 aaaab
b1011000 aaaad

#396000001000
b1001001 aaaab
b1000011 aaaad

#396401263883
b1000101 aaaad

#396405283883
b1011000 aaaad
b1000101 aaaae

#396409283883
b1000101 aaaac
b1011000 aaaae

#396409284883
b1011000 aaaac
b1000011 aaaad

#405000000000
b1000101 aaaab
b1011000 aaaad

#405000001000
b1001001 aaaab
b1000011 aaaad

#405401263883
b1000101 aaaad

#405405283883
b1011000 aaaad
b1000101 aaaae

#405409283883
b1000101 aaaac
b1011000 aaaae

#405409284883
b1011000 aaaac
b1000011 aaaad

#414000000000
b1000101 aaaab
b1011000 aaaad

#414000001000
b1001001 aaaab
b1000011 aaaad

#414401263883
b1000101 aaaad

#414405283883
b1011000 aaaad
b1000101 aaaae

#414409283883
b1000101 aaaac
b1011000 aaaae

#414409284883
b1011000 aaaac
b1000011 aaaad

#423000000000
b1000101 aaaab
b1011000 aaaad

#423000001000
b1001001 aaaab
b1000011 aaaad

#423401263883
b1000101 aaaad

#423405283883
b1011000 aaaad
b1000101 aaaae

#423409283883
b1000101 aaaac
b1011000 aaaae

#423409284883
b1011000 aaaac
b1000011 aaaad

#432000000000
b1000101 aaaab
b1011000 aaaad

#432000001000
b1001001 aaaab
b1000011 aaaad

#432401263883
b1000101 aaaad

#432405283883
b1011000 aaaad
b1000101 aaaae

#432409283883
b1000101 aaaac
b1011000 aaaae

#432409284883
b1011000 aaaac
b1000011 aaaad

#441000000000
b1000101 aaaab
b1011000 aaaad

#441000001000
b1001001 aaaab
b1000011 aaaad

#441401263883
b1000101 aaaad

#441405283883
b1011000 aaaad
b1000101 aaaae

#441409283883
b1000101 aaaac
b1011000 aaaae

#441409284883
b1011000 aaaac
b1000011 aaaad

#450000000000
b1000101 aaaab
b1011000 aaaad

#450000001000
b1001001 aaaab
b1000011 aaaad

#450401263883
b1000101 aaaad

#450405283883
b1011000 aaaad
b1000101 aaaae

#450409283883
b1000101 aaaac
b1011000 aaaae

#450409284883
b1011000 aaaac
b1000011 aaaad

#459000000000
b1000101 aaaab
b1011000 aaaad

#459000001000
b1001001 aaaab
b1000011 aaaad

#459401263883
b1000101 aaaad

#459405283883
b1011000 aaaad
b1000101 aaaae

#459409283883
b1000101 aaaac
b1011000 aaaae

#459409284883
b1011000 aaaac
b1000011 aaaad

#468000000000
b1000101 aaaab
b1011000 aaaad

#468000001000
b1001001 aaaab
b1000011 aaaad

#468401263883
b1000101 aaaad

#468405283883
b1011000 aaaad
b1000101 aaaae

#468409283883
b1000101 aaaac
b1011000 aaaae

#468409284883
b1011000 aaaac
b1000011 aaaad

#477000000000
b1000101 aaaab
b1011000 aaaad

#477000001000
b1001001 aaaab
b1000011 aaaad

#477401263883
b1000101 aaaad

#477405283883
b1011000 aaaad
b1000101 aaaae

#477409283883
b1000101 aaaac
b1011000 aaaae

#477409284883
b1011000 aaaac
b1000011 aaaad

#486000000000
b1000101 aaaab
b1011000 aaaad

#486000001000
b1001001 aaaab
b1000011 aaaad

#486401263883
b1000101 aaaad

#486405283883
b1011000 aaaad
b1000101 aaaae

#486409283883
b1000101 aaaac
b1011000 aaaae

#486409284883
b1011000 aaaac
b1000011 aaaad

#495000000000
b1000101 aaaab
b1011000 aaaad

#495000001000
b1001001 aaaab
b1000011 aaaad

#495401263883
b1000101 aaaad

#495405283883
b1011000 aaaad
b1000101 aaaae

#495409283883
b1000101 aaaac
b1011000 aaaae

#495409284883
b1011000 aaaac
b1000011 aaaad

#504000000000
b1000101 aaaab
b1011000 aaaad

#504000001000
b1001001 aaaab
b1000011 aaaad

#504401263883
b1000101 aaaad

#504405283883
b1011000 aaaad
b1000101 aaaae

#504409283883
b1000101 aaaac
b1011000 aaaae

#504409284883
b1011000 aaaac
b1000011 aaaad

#513000000000
b1000101 aaaab
b1011000 aaaad

#513000001000
b1001001 aaaab
b1000011 aaaad

#513401263883
b1000101 aaaad

#513405283883
b1011000 aaaad
b1000101 aaaae

#513409283883
b1000101 aaaac
b1011000 aaaae

#513409284883
b1011000 aaaac
b1000011 aaaad

#522000000000
b1000101 aaaab
b1011000 aaaad

#522000001000
b1001001 aaaab
b1000011 aaaad

#522401263883
b1000101 aaaad

#522405283883
b1011000 aaaad
b1000101 aaaae

#522409283883
b1000101 aaaac
b1011000 aaaae

#522409284883
b1011000 aaaac
b1000011 aaaad

#531000000000
b1000101 aaaab
b1011000 aaaad

#531000001000
b1001001 aaaab
b1000011 aaaad

#531401263883
b1000101 aaaad

#531405283883
b1011000 aaaad
b1000101 aaaae

#531409283883
b1000101 aaaac
b1011000 aaaae

#531409284883
b1011000 aaaac
b1000011 aaaad

#540000000000
b1000101 aaaab
b1011000 aaaad

#540000001000
b1001001 aaaab
b1000011 aaaad

#540401263883
b1000101 aaaad

#540405283883
b1011000 aaaad
b1000101 aaaae

#540409283883
b1000101 aaaac
b1011000 aaaae

#540409284883
b1011000 aaaac
b1000011 aaaad

#549000000000
b1000101 aaaab
b1011000 aaaad

#549000001000
b1001001 aaaab
b1000011 aaaad

#549401263883
b1000101 aaaad

#549405283883
b1011000 aaaad
b1000101 aaaae

#549409283883
b1000101 aaaac
b1011000 aaaae

#549409284883
b1011000 aaaac
b1000011 aaaad

#558000000000
b1000101 aaaab
b1011000 aaaad

#558000001000
b1001001 aaaab
b1000011 aaaad

#558401263883
b1000101 aaaad

#558405283883
b1011000 aaaad
b1000101 aaaae

#558409283883
b1000101 aaaac
b1011000 aaaae

#558409284883
b1011000 aaaac
b1000011 aaaad

#567000000000
b1000101 aaaab
b1011000 aaaad

#567000001000
b1001001 aaaab
b1000011 aaaad

#567401263883
b1000101 aaaad

#567405283883
b1011000 aaaad
b1000101 aaaae

#567409283883
b1000101 aaaac
b1011000 aaaae

#567409284883
b1011000 aaaac
b1000011 aaaad

#576000000000
b1000101 aaaab
b1011000 aaaad

#576000001000
b1001001 aaaab
b1000011 aaaad

#576401263883
b1000101 aaaad

#576405283883
b1011000 aaaad
b1000101 aaaae

#576409283883
b1000101 aaaac
b1011000 aaaae

#576409284883
b1011000 aaaac
b1000011 aaaad

#585000000000
b1000101 aaaab
b1011000 aaaad

#585000001000
b1001001 aaaab
b1000011 aaaad

#585401263883
b1000101 aaaad

#585405283883
b1011000 aaaad
b1000101 aaaae

#585409283883
b1000101 aaaac
b1011000 aaaae

#585409284883
b1011000 aaaac
b1000011 aaaad

#594000000000
b1000101 aaaab
b1011000 aaaad

#594000001000
b1001001 aaaab
b1000011 aaaad

#594401263883
b1000101 aaaad

#594405283883
b1011000 aaaad
b1000101 aaaae

#594409283883
b1000101 aaaac
b1011000 aaaae

#594409284883
b1011000 aaaac
b1000011 aaaad

#603000000000
b1000101 aaaab
b1011000 aaaad

#603000001000
b1001001 aaaab
b1000011 aaaad

#603401263883
b1000101 aaaad

#603405283883
b1011000 aaaad
b1000101 aaaae

#603409283883
b1000101 aaaac
b1011000 aaaae

#603409284883
b1011000 aaaac
b1000011 aaaad

#612000000000
b1000101 aaaab
b1011000 aaaad

#612000001000
b1001001 aaaab
b1000011 aaaad

#612401263883
b1000101 aaaad

#612405283883
b1011000 aaaad
b1000101 aaaae

#612409283883
b1000101 aaaac
b1011000 aaaae

#612409284883
b1011000 aaaac
b1000011 aaaad

#621000000000
b1000101 aaaab
b1011000 aaaad

#621000001000
b1001001 aaaab
b1000011 aaaad

#621401263883
b1000101 aaaad

#621405283883
b1011000 aaaad
b1000101 aaaae

#621409283883
b1000101 aaaac
b1011000 aaaae

#621409284883
b1011000 aaaac
b1000011 aaaad

#630000000000
b1000101 aaaab
b1011000 aaaad

#630000001000
b1001001 aaaab
b1000011 aaaad

#630401263883
b1000101 aaaad

#630405283883
b1011000 aaaad
b1000101 aaaae

#630409283883
b1000101 aaaac
b1011000 aaaae

#630409284883
b1011000 aaaac
b1000011 aaaad

#639000000000
b1000101 aaaab
b1011000 aaaad

#639000001000
b1001001 aaaab
b1000011 aaaad

#639401263883
b1000101 aaaad

#639405283883
b1011000 aaaad
b1000101 aaaae

#639409283883
b1000101 aaaac
b1011000 aaaae

#639409284883
b1011000 aaaac
b1000011 aaaad

#648000000000
b1000101 aaaab
b1011000 aaaad

#648000001000
b1001001 aaaab
b1000011 aaaad

#648401263883
b1000101 aaaad

#648405283883
b1011000 aaaad
b1000101 aaaae

#648409283883
b1000101 aaaac
b1011000 aaaae

#648409284883
b1011000 aaaac
b1000011 aaaad

#657000000000
b1000101 aaaab
b1011000 aaaad

#657000001000
b1001001 aaaab
b1000011 aaaad

#657401263883
b1000101 aaaad

#657405283883
b1011000 aaaad
b1000101 aaaae

#657409283883
b1000101 aaaac
b1011000 aaaae

#657409284883
b1011000 aaaac
b1000011 aaaad

#666000000000
b1000101 aaaab
b1011000 aaaad

#666000001000
b1001001 aaaab
b1000011 aaaad

#666401263883
b1000101 aaaad

#666405283883
b1011000 aaaad
b1000101 aaaae

#666409283883
b1000101 aaaac
b1011000 aaaae

#666409284883
b1011000 aaaac
b1000011 aaaad

#675000000000
b1000101 aaaab
b1011000 aaaad

#675000001000
b1001001 aaaab
b1000011 aaaad

#675401263883
b1000101 aaaad

#675405283883
b1011000 aaaad
b1000101 aaaae

#675409283883
b1000101 aaaac
b1011000 aaaae

#675409284883
b1011000 aaaac
b1000011 aaaad

#684000000000
b1000101 aaaab
b1011000 aaaad

#684000001000
b1001001 aaaab
b1000011 aaaad

#684401263883
b1000101 aaaad

#684405283883
b1011000 aaaad
b1000101 aaaae

#684409283883
b1000101 aaaac
b1011000 aaaae

#684409284883
b1011000 aaaac
b1000011 aaaad

#693000000000
b1000101 aaaab
b1011000 aaaad

#693000001000
b1001001 aaaab
b1000011 aaaad

#693401263883
b1000101 aaaad

#693405283883
b1011000 aaaad
b1000101 aaaae

#693409283883
b1000101 aaaac
b1011000 aaaae

#693409284883
b1011000 aaaac
b1000011 aaaad

#702000000000
b1000101 aaaab
b1011000 aaaad

#702000001000
b1001001 aaaab
b1000011 aaaad

#702401263883
b1000101 aaaad

#702405283883
b1011000 aaaad
b1000101 aaaae

#702409283883
b1000101 aaaac
b1011000 aaaae

#702409284883
b1011000 aaaac
b1000011 aaaad

#711000000000
b1000101 aaaab
b1011000 aaaad

#711000001000
b1001001 aaaab
b1000011 aaaad

#711401263883
b1000101 aaaad

#711405283883
b1011000 aaaad
b1000101 aaaae

#711409283883
b1000101 aaaac
b1011000 aaaae

#711409284883
b1011000 aaaac
b1000011 aaaad

#720000000000
b1000101 aaaab
b1011000 aaaad

#720000001000
b1001001 aaaab
b1000011 aaaad

#720401263883
b1000101 aaaad

#720405283883
b1011000 aaaad
b1000101 aaaae

#720409283883
b1000101 aaaac
b1011000 aaaae

#720409284883
b1011000 aaaac
b1000011 aaaad

#729000000000
b1000101 aaaab
b1011000 aaaad

#729000001000
b1001001 aaaab
b1000011 aaaad

#729401263883
b1000101 aaaad

#729405283883
b1011000 aaaad
b1000101 aaaae

#729409283883
b1000101 aaaac
b1011000 aaaae

#729409284883
b1011000 aaaac
b1000011 aaaad

#738000000000
b1000101 aaaab
b1011000 aaaad

#738000001000
b1001001 aaaab
b1000011 aaaad

#738401263883
b1000101 aaaad

#738405283883
b1011000 aaaad
b1000101 aaaae

#738409283883
b1000101 aaaac
b1011000 aaaae

#738409284883
b1011000 aaaac
b1000011 aaaad

#747000000000
b1000101 aaaab
b1011000 aaaad

#747000001000
b1001001 aaaab
b1000011 aaaad

#747401263883
b1000101 aaaad

#747405283883
b1011000 aaaad
b1000101 aaaae

#747409283883
b1000101 aaaac
b1011000 aaaae

#747409284883
b1011000 aaaac
b1000011 aaaad

#756000000000
b1000101 aaaab
b1011000 aaaad

#756000001000
b1001001 aaaab
b1000011 aaaad

#756401263883
b1000101 aaaad

#756405283883
b1011000 aaaad
b1000101 aaaae

#756409283883
b1000101 aaaac
b1011000 aaaae

#756409284883
b1011000 aaaac
b1000011 aaaad

#765000000000
b1000101 aaaab
b1011000 aaaad

#765000001000
b1001001 aaaab
b1000011 aaaad

#765401263883
b1000101 aaaad

#765405283883
b1011000 aaaad
b1000101 aaaae

#765409283883
b1000101 aaaac
b1011000 aaaae

#765409284883
b1011000 aaaac
b1000011 aaaad

#774000000000
b1000101 aaaab
b1011000 aaaad

#774000001000
b1001001 aaaab
b1000011 aaaad

#774401263883
b1000101 aaaad

#774405283883
b1011000 aaaad
b1000101 aaaae

#774409283883
b1000101 aaaac
b1011000 aaaae

#774409284883
b1011000 aaaac
b1000011 aaaad

#783000000000
b1000101 aaaab
b1011000 aaaad

#783000001000
b1001001 aaaab
b1000011 aaaad

#783401263883
b1000101 aaaad

#783405283883
b1011000 aaaad
b1000101 aaaae

#783409283883
b1000101 aaaac
b1011000 aaaae

#783409284883
b1011000 aaaac
b1000011 aaaad

#792000000000
b1000101 aaaab
b1011000 aaaad

#792000001000
b1001001 aaaab
b1000011 aaaad

#792401263883
b1000101 aaaad

#792405283883
b1011000 aaaad
b1000101 aaaae

#792409283883
b1000101 aaaac
b1011000 aaaae

#792409284883
b1011000 aaaac
b1000011 aaaad

#801000000000
b1000101 aaaab
b1011000 aaaad

#801000001000
b1001001 aaaab
b1000011 aaaad

#801401263883
b1000101 aaaad

#801405283883
b1011000 aaaad
b1000101 aaaae

#801409283883
b1000101 aaaac
b1011000 aaaae

#801409284883
b1011000 aaaac
b1000011 aaaad

#810000000000
b1000101 aaaab
b1011000 aaaad

#810000001000
b1001001 aaaab
b1000011 aaaad

#810401263883
b1000101 aaaad

#810405283883
b1011000 aaaad
b1000101 aaaae

#810409283883
b1000101 aaaac
b1011000 aaaae

#810409284883
b1011000 aaaac
b1000011 aaaad

#819000000000
b1000101 aaaab
b1011000 aaaad

#819000001000
b1001001 aaaab
b1000011 aaaad

#819401263883
b1000101 aaaad

#819405283883
b1011000 aaaad
b1000101 aaaae

#819409283883
b1000101 aaaac
b1011000 aaaae

#819409284883
b1011000 aaaac
b1000011 aaaad

#828000000000
b1000101 aaaab
b1011000 aaaad

#828000001000
b1001001 aaaab
b1000011 aaaad

#828401263883
b1000101 aaaad

#828405283883
b1011000 aaaad
b1000101 aaaae

#828409283883
b1000101 aaaac
b1011000 aaaae

#828409284883
b1011000 aaaac
b1000011 aaaad

#837000000000
b1000101 aaaab
b1011000 aaaad

#837000001000
b1001001 aaaab
b1000011 aaaad

#837401263883
b1000101 aaaad

#837405283883
b1011000 aaaad
b1000101 aaaae

#837409283883
b1000101 aaaac
b1011000 aaaae

#837409284883
b1011000 aaaac
b1000011 aaaad

#846000000000
b1000101 aaaab
b1011000 aaaad

#846000001000
b1001001 aaaab
b1000011 aaaad

#846401263883
b1000101 aaaad

#846405283883
b1011000 aaaad
b1000101 aaaae

#846409283883
b1000101 aaaac
b1011000 aaaae

#846409284883
b1011000 aaaac
b1000011 aaaad

#855000000000
b1000101 aaaab
b1011000 aaaad

#855000001000
b1001001 aaaab
b1000011 aaaad

#855401263883
b1000101 aaaad

#855405283883
b1011000 aaaad
b1000101 aaaae

#855409283883
b1000101 aaaac
b1011000 aaaae

#855409284883
b1011000 aaaac
b1000011 aaaad

#864000000000
b1000101 aaaab
b1011000 aaaad

#864000001000
b1001001 aaaab
b1000011 aaaad

#864401263883
b1000101 aaaad

#864405283883
b1011000 aaaad
b1000101 aaaae

#864409283883
b1000101 aaaac
b1011000 aaaae

#864409284883
b1011000 aaaac
b1000011 aaaad

#873000000000
b1000101 aaaab
b1011000 aaaad

#873000001000
b1001001 aaaab
b1000011 aaaad

#873401263883
b1000101 aaaad

#873405283883
b1011000 aaaad
b1000101 aaaae

#873409283883
b1000101 aaaac
b1011000 aaaae

#873409284883
b1011000 aaaac
b1000011 aaaad

#882000000000
b1000101 aaaab
b1011000 aaaad

#882000001000
b1001001 aaaab
b1000011 aaaad

#882401263883
b1000101 aaaad

#882405283883
b1011000 aaaad
b1000101 aaaae

#882409283883
b1000101 aaaac
b1011000 aaaae

#882409284883
b1011000 aaaac
b1000011 aaaad

#891000000000
b1000101 aaaab
b1011000 aaaad

#891000001000
b1001001 aaaab
b1000011 aaaad

#891401263883
b1000101 aaaad

#891405283883
b1011000 aaaad
b1000101 aaaae

#891409283883
b1000101 aaaac
b1011000 aaaae

#891409284883
b1011000 aaaac
b1000011 aaaad

#900000000000
b1000101 aaaab
b1011000 aaaad

#900000001000
b1001001 aaaab
b1000011 aaaad

