examples/VAD_INTEGRATION/rtos2_trace.vcd
$comment
File created by KisTA library.
 Author: F.Herrera
 Institution: KTH
 Date: 2013
	All rights reserved by the authors, till further definition of the license.
$end

$comment
Tracing options used include to trace Task State signals,  Scheduler signals 
$end

$date
     Jul 21, 2016       11:14:01
$end

$version
 SystemC 2.3.1-Accellera --- Mar 29 2016 16:10:40
$end

$timescale
     1 ps
$end

$scope module SystemC $end
$var wire    8  aaaaa  sched2 [7:0]  $end
$var wire    8  aaaab  D2_IN [7:0]  $end
$var wire    8  aaaac  D2_OUT [7:0]  $end
$var wire    8  aaaad  T3 [7:0]  $end
$var wire    8  aaaae  T4 [7:0]  $end
$upscope $end
$enddefinitions  $end

$comment
All initial values are dumped below at time 0 sec = 0 timescale units.
$end

$dumpvars
b1001001 aaaaa
b1000101 aaaab
b1010010 aaaac
b1011000 aaaad
b1011000 aaaae
$end

#1000
b1001001 aaaab
b1000101 aaaad

#80121000
b1011000 aaaad
b1000101 aaaae

#1455521000
b1000101 aaaac
b1011000 aaaae

#1455522000
b1011000 aaaac
b1000011 aaaad

#9000000000
b1000101 aaaab
b1011000 aaaad

#9000001000
b1001001 aaaab
b1000101 aaaad

#9080121000
b1011000 aaaad
b1000101 aaaae

#10455521000
b1000101 aaaac
b1011000 aaaae

#10455522000
b1011000 aaaac
b1000011 aaaad

#18000000000
b1000101 aaaab
b1011000 aaaad

#18000001000
b1001001 aaaab
b1000101 aaaad

#18080121000
b1011000 aaaad
b1000101 aaaae

#19455521000
b1000101 aaaac
b1011000 aaaae

#19455522000
b1011000 aaaac
b1000011 aaaad

#27000000000
b1000101 aaaab
b1011000 aaaad

#27000001000
b1001001 aaaab
b1000101 aaaad

#27080121000
b1011000 aaaad
b1000101 aaaae

#28455521000
b1000101 aaaac
b1011000 aaaae

#28455522000
b1011000 aaaac
b1000011 aaaad

#36000000000
b1000101 aaaab
b1011000 aaaad

#36000001000
b1001001 aaaab
b1000101 aaaad

#36080121000
b1011000 aaaad
b1000101 aaaae

#37455521000
b1000101 aaaac
b1011000 aaaae

#37455522000
b1011000 aaaac
b1000011 aaaad

#45000000000
b1000101 aaaab
b1011000 aaaad

#45000001000
b1001001 aaaab
b1000101 aaaad

#45080121000
b1011000 aaaad
b1000101 aaaae

#46455521000
b1000101 aaaac
b1011000 aaaae

#46455522000
b1011000 aaaac
b1000011 aaaad

#54000000000
b1000101 aaaab
b1011000 aaaad

#54000001000
b1001001 aaaab
b1000101 aaaad

#54080121000
b1011000 aaaad
b1000101 aaaae

#55455521000
b1000101 aaaac
b1011000 aaaae

#55455522000
b1011000 aaaac
b1000011 aaaad

#63000000000
b1000101 aaaab
b1011000 aaaad

#63000001000
b1001001 aaaab
b1000101 aaaad

#63080121000
b1011000 aaaad
b1000101 aaaae

#64455521000
b1000101 aaaac
b1011000 aaaae

#64455522000
b1011000 aaaac
b1000011 aaaad

#72000000000
b1000101 aaaab
b1011000 aaaad

#72000001000
b1001001 aaaab
b1000101 aaaad

#72080121000
b1011000 aaaad
b1000101 aaaae

#73455521000
b1000101 aaaac
b1011000 aaaae

#73455522000
b1011000 aaaac
b1000011 aaaad

#81000000000
b1000101 aaaab
b1011000 aaaad

#81000001000
b1001001 aaaab
b1000101 aaaad

#81080121000
b1011000 aaaad
b1000101 aaaae

#82455521000
b1000101 aaaac
b1011000 aaaae

#82455522000
b1011000 aaaac
b1000011 aaaad

#90000000000
b1000101 aaaab
b1011000 aaaad

#90000001000
b1001001 aaaab
b1000101 aaaad

#90080121000
b1011000 aaaad
b1000101 aaaae

#91455521000
b1000101 aaaac
b1011000 aaaae

#91455522000
b1011000 aaaac
b1000011 aaaad

#99000000000
b1000101 aaaab
b1011000 aaaad

#99000001000
b1001001 aaaab
b1000101 aaaad

#99080121000
b1011000 aaaad
b1000101 aaaae

#100455521000
b1000101 aaaac
b1011000 aaaae

#100455522000
b1011000 aaaac
b1000011 aaaad

#108000000000
b1000101 aaaab
b1011000 aaaad

#108000001000
b1001001 aaaab
b1000101 aaaad

#108080121000
b1011000 aaaad
b1000101 aaaae

#109455521000
b1000101 aaaac
b1011000 aaaae

#109455522000
b1011000 aaaac
b1000011 aaaad

#117000000000
b1000101 aaaab
b1011000 aaaad

#117000001000
b1001001 aaaab
b1000101 aaaad

#117080121000
b1011000 aaaad
b1000101 aaaae

#118455521000
b1000101 aaaac
b1011000 aaaae

#118455522000
b1011000 aaaac
b1000011 aaaad

#126000000000
b1000101 aaaab
b1011000 aaaad

#126000001000
b1001001 aaaab
b1000101 aaaad

#126080121000
b1011000 aaaad
b1000101 aaaae

#127455521000
b1000101 aaaac
b1011000 aaaae

#127455522000
b1011000 aaaac
b1000011 aaaad

#135000000000
b1000101 aaaab
b1011000 aaaad

#135000001000
b1001001 aaaab
b1000101 aaaad

#135080121000
b1011000 aaaad
b1000101 aaaae

#136455521000
b1000101 aaaac
b1011000 aaaae

#136455522000
b1011000 aaaac
b1000011 aaaad

#144000000000
b1000101 aaaab
b1011000 aaaad

#144000001000
b1001001 aaaab
b1000101 aaaad

#144080121000
b1011000 aaaad
b1000101 aaaae

#145455521000
b1000101 aaaac
b1011000 aaaae

#145455522000
b1011000 aaaac
b1000011 aaaad

#153000000000
b1000101 aaaab
b1011000 aaaad

#153000001000
b1001001 aaaab
b1000101 aaaad

#153080121000
b1011000 aaaad
b1000101 aaaae

#154455521000
b1000101 aaaac
b1011000 aaaae

#154455522000
b1011000 aaaac
b1000011 aaaad

#162000000000
b1000101 aaaab
b1011000 aaaad

#162000001000
b1001001 aaaab
b1000101 aaaad

#162080121000
b1011000 aaaad
b1000101 aaaae

#163455521000
b1000101 aaaac
b1011000 aaaae

#163455522000
b1011000 aaaac
b1000011 aaaad

#171000000000
b1000101 aaaab
b1011000 aaaad

#171000001000
b1001001 aaaab
b1000101 aaaad

#171080121000
b1011000 aaaad
b1000101 aaaae

#172455521000
b1000101 aaaac
b1011000 aaaae

#172455522000
b1011000 aaaac
b1000011 aaaad

#180000000000
b1000101 aaaab
b1011000 aaaad

#180000001000
b1001001 aaaab
b1000101 aaaad

#180080121000
b1011000 aaaad
b1000101 aaaae

#181455521000
b1000101 aaaac
b1011000 aaaae

#181455522000
b1011000 aaaac
b1000011 aaaad

#189000000000
b1000101 aaaab
b1011000 aaaad

#189000001000
b1001001 aaaab
b1000101 aaaad

#189080121000
b1011000 aaaad
b1000101 aaaae

#190455521000
b1000101 aaaac
b1011000 aaaae

#190455522000
b1011000 aaaac
b1000011 aaaad

#198000000000
b1000101 aaaab
b1011000 aaaad

#198000001000
b1001001 aaaab
b1000101 aaaad

#198080121000
b1011000 aaaad
b1000101 aaaae

#199455521000
b1000101 aaaac
b1011000 aaaae

#199455522000
b1011000 aaaac
b1000011 aaaad

#207000000000
b1000101 aaaab
b1011000 aaaad

#207000001000
b1001001 aaaab
b1000101 aaaad

#207080121000
b1011000 aaaad
b1000101 aaaae

#208455521000
b1000101 aaaac
b1011000 aaaae

#208455522000
b1011000 aaaac
b1000011 aaaad

#216000000000
b1000101 aaaab
b1011000 aaaad

#216000001000
b1001001 aaaab
b1000101 aaaad

#216080121000
b1011000 aaaad
b1000101 aaaae

#217455521000
b1000101 aaaac
b1011000 aaaae

#217455522000
b1011000 aaaac
b1000011 aaaad

#225000000000
b1000101 aaaab
b1011000 aaaad

#225000001000
b1001001 aaaab
b1000101 aaaad

#225080121000
b1011000 aaaad
b1000101 aaaae

#226455521000
b1000101 aaaac
b1011000 aaaae

#226455522000
b1011000 aaaac
b1000011 aaaad

#234000000000
b1000101 aaaab
b1011000 aaaad

#234000001000
b1001001 aaaab
b1000101 aaaad

#234080121000
b1011000 aaaad
b1000101 aaaae

#235455521000
b1000101 aaaac
b1011000 aaaae

#235455522000
b1011000 aaaac
b1000011 aaaad

#243000000000
b1000101 aaaab
b1011000 aaaad

#243000001000
b1001001 aaaab
b1000101 aaaad

#243080121000
b1011000 aaaad
b1000101 aaaae

#244455521000
b1000101 aaaac
b1011000 aaaae

#244455522000
b1011000 aaaac
b1000011 aaaad

#252000000000
b1000101 aaaab
b1011000 aaaad

#252000001000
b1001001 aaaab
b1000101 aaaad

#252080121000
b1011000 aaaad
b1000101 aaaae

#253455521000
b1000101 aaaac
b1011000 aaaae

#253455522000
b1011000 aaaac
b1000011 aaaad

#261000000000
b1000101 aaaab
b1011000 aaaad

#261000001000
b1001001 aaaab
b1000101 aaaad

#261080121000
b1011000 aaaad
b1000101 aaaae

#262455521000
b1000101 aaaac
b1011000 aaaae

#262455522000
b1011000 aaaac
b1000011 aaaad

#270000000000
b1000101 aaaab
b1011000 aaaad

#270000001000
b1001001 aaaab
b1000101 aaaad

#270080121000
b1011000 aaaad
b1000101 aaaae

#271455521000
b1000101 aaaac
b1011000 aaaae

#271455522000
b1011000 aaaac
b1000011 aaaad

#279000000000
b1000101 aaaab
b1011000 aaaad

#279000001000
b1001001 aaaab
b1000101 aaaad

#279080121000
b1011000 aaaad
b1000101 aaaae

#280455521000
b1000101 aaaac
b1011000 aaaae

#280455522000
b1011000 aaaac
b1000011 aaaad

#288000000000
b1000101 aaaab
b1011000 aaaad

#288000001000
b1001001 aaaab
b1000101 aaaad

#288080121000
b1011000 aaaad
b1000101 aaaae

#289455521000
b1000101 aaaac
b1011000 aaaae

#289455522000
b1011000 aaaac
b1000011 aaaad

#297000000000
b1000101 aaaab
b1011000 aaaad

#297000001000
b1001001 aaaab
b1000101 aaaad

#297080121000
b1011000 aaaad
b1000101 aaaae

#298455521000
b1000101 aaaac
b1011000 aaaae

#298455522000
b1011000 aaaac
b1000011 aaaad

#306000000000
b1000101 aaaab
b1011000 aaaad

#306000001000
b1001001 aaaab
b1000101 aaaad

#306080121000
b1011000 aaaad
b1000101 aaaae

#307455521000
b1000101 aaaac
b1011000 aaaae

#307455522000
b1011000 aaaac
b1000011 aaaad

#315000000000
b1000101 aaaab
b1011000 aaaad

#315000001000
b1001001 aaaab
b1000101 aaaad

#315080121000
b1011000 aaaad
b1000101 aaaae

#316455521000
b1000101 aaaac
b1011000 aaaae

#316455522000
b1011000 aaaac
b1000011 aaaad

#324000000000
b1000101 aaaab
b1011000 aaaad

#324000001000
b1001001 aaaab
b1000101 aaaad

#324080121000
b1011000 aaaad
b1000101 aaaae

#325455521000
b1000101 aaaac
b1011000 aaaae

#325455522000
b1011000 aaaac
b1000011 aaaad

#333000000000
b1000101 aaaab
b1011000 aaaad

#333000001000
b1001001 aaaab
b1000101 aaaad

#333080121000
b1011000 aaaad
b1000101 aaaae

#334455521000
b1000101 aaaac
b1011000 aaaae

#334455522000
b1011000 aaaac
b1000011 aaaad

#342000000000
b1000101 aaaab
b1011000 aaaad

#342000001000
b1001001 aaaab
b1000101 aaaad

#342080121000
b1011000 aaaad
b1000101 aaaae

#343455521000
b1000101 aaaac
b1011000 aaaae

#343455522000
b1011000 aaaac
b1000011 aaaad

#351000000000
b1000101 aaaab
b1011000 aaaad

#351000001000
b1001001 aaaab
b1000101 aaaad

#351080121000
b1011000 aaaad
b1000101 aaaae

#352455521000
b1000101 aaaac
b1011000 aaaae

#352455522000
b1011000 aaaac
b1000011 aaaad

#360000000000
b1000101 aaaab
b1011000 aaaad

#360000001000
b1001001 aaaab
b1000101 aaaad

#360080121000
b1011000 aaaad
b1000101 aaaae

#361455521000
b1000101 aaaac
b1011000 aaaae

#361455522000
b1011000 aaaac
b1000011 aaaad

#369000000000
b1000101 aaaab
b1011000 aaaad

#369000001000
b1001001 aaaab
b1000101 aaaad

#369080121000
b1011000 aaaad
b1000101 aaaae

#370455521000
b1000101 aaaac
b1011000 aaaae

#370455522000
b1011000 aaaac
b1000011 aaaad

#378000000000
b1000101 aaaab
b1011000 aaaad

#378000001000
b1001001 aaaab
b1000101 aaaad

#378080121000
b1011000 aaaad
b1000101 aaaae

#379455521000
b1000101 aaaac
b1011000 aaaae

#379455522000
b1011000 aaaac
b1000011 aaaad

#387000000000
b1000101 aaaab
b1011000 aaaad

#387000001000
b1001001 aaaab
b1000101 aaaad

#387080121000
b1011000 aaaad
b1000101 aaaae

#388455521000
b1000101 aaaac
b1011000 aaaae

#388455522000
b1011000 aaaac
b1000011 aaaad

#396000000000
b1000101 aaaab
b1011000 aaaad

#396000001000
b1001001 aaaab
b1000101 aaaad

#396080121000
b1011000 aaaad
b1000101 aaaae

#397455521000
b1000101 aaaac
b1011000 aaaae

#397455522000
b1011000 aaaac
b1000011 aaaad

#405000000000
b1000101 aaaab
b1011000 aaaad

#405000001000
b1001001 aaaab
b1000101 aaaad

#405080121000
b1011000 aaaad
b1000101 aaaae

#406455521000
b1000101 aaaac
b1011000 aaaae

#406455522000
b1011000 aaaac
b1000011 aaaad

#414000000000
b1000101 aaaab
b1011000 aaaad

#414000001000
b1001001 aaaab
b1000101 aaaad

#414080121000
b1011000 aaaad
b1000101 aaaae

#415455521000
b1000101 aaaac
b1011000 aaaae

#415455522000
b1011000 aaaac
b1000011 aaaad

#423000000000
b1000101 aaaab
b1011000 aaaad

#423000001000
b1001001 aaaab
b1000101 aaaad

#423080121000
b1011000 aaaad
b1000101 aaaae

#424455521000
b1000101 aaaac
b1011000 aaaae

#424455522000
b1011000 aaaac
b1000011 aaaad

#432000000000
b1000101 aaaab
b1011000 aaaad

#432000001000
b1001001 aaaab
b1000101 aaaad

#432080121000
b1011000 aaaad
b1000101 aaaae

#433455521000
b1000101 aaaac
b1011000 aaaae

#433455522000
b1011000 aaaac
b1000011 aaaad

#441000000000
b1000101 aaaab
b1011000 aaaad

#441000001000
b1001001 aaaab
b1000101 aaaad

#441080121000
b1011000 aaaad
b1000101 aaaae

#442455521000
b1000101 aaaac
b1011000 aaaae

#442455522000
b1011000 aaaac
b1000011 aaaad

#450000000000
b1000101 aaaab
b1011000 aaaad

#450000001000
b1001001 aaaab
b1000101 aaaad

#450080121000
b1011000 aaaad
b1000101 aaaae

#451455521000
b1000101 aaaac
b1011000 aaaae

#451455522000
b1011000 aaaac
b1000011 aaaad

#459000000000
b1000101 aaaab
b1011000 aaaad

#459000001000
b1001001 aaaab
b1000101 aaaad

#459080121000
b1011000 aaaad
b1000101 aaaae

#460455521000
b1000101 aaaac
b1011000 aaaae

#460455522000
b1011000 aaaac
b1000011 aaaad

#468000000000
b1000101 aaaab
b1011000 aaaad

#468000001000
b1001001 aaaab
b1000101 aaaad

#468080121000
b1011000 aaaad
b1000101 aaaae

#469455521000
b1000101 aaaac
b1011000 aaaae

#469455522000
b1011000 aaaac
b1000011 aaaad

#477000000000
b1000101 aaaab
b1011000 aaaad

#477000001000
b1001001 aaaab
b1000101 aaaad

#477080121000
b1011000 aaaad
b1000101 aaaae

#478455521000
b1000101 aaaac
b1011000 aaaae

#478455522000
b1011000 aaaac
b1000011 aaaad

#486000000000
b1000101 aaaab
b1011000 aaaad

#486000001000
b1001001 aaaab
b1000101 aaaad

#486080121000
b1011000 aaaad
b1000101 aaaae

#487455521000
b1000101 aaaac
b1011000 aaaae

#487455522000
b1011000 aaaac
b1000011 aaaad

#495000000000
b1000101 aaaab
b1011000 aaaad

#495000001000
b1001001 aaaab
b1000101 aaaad

#495080121000
b1011000 aaaad
b1000101 aaaae

#496455521000
b1000101 aaaac
b1011000 aaaae

#496455522000
b1011000 aaaac
b1000011 aaaad

#504000000000
b1000101 aaaab
b1011000 aaaad

#504000001000
b1001001 aaaab
b1000101 aaaad

#504080121000
b1011000 aaaad
b1000101 aaaae

#505455521000
b1000101 aaaac
b1011000 aaaae

#505455522000
b1011000 aaaac
b1000011 aaaad

#513000000000
b1000101 aaaab
b1011000 aaaad

#513000001000
b1001001 aaaab
b1000101 aaaad

#513080121000
b1011000 aaaad
b1000101 aaaae

#514455521000
b1000101 aaaac
b1011000 aaaae

#514455522000
b1011000 aaaac
b1000011 aaaad

#522000000000
b1000101 aaaab
b1011000 aaaad

#522000001000
b1001001 aaaab
b1000101 aaaad

#522080121000
b1011000 aaaad
b1000101 aaaae

#523455521000
b1000101 aaaac
b1011000 aaaae

#523455522000
b1011000 aaaac
b1000011 aaaad

#531000000000
b1000101 aaaab
b1011000 aaaad

#531000001000
b1001001 aaaab
b1000101 aaaad

#531080121000
b1011000 aaaad
b1000101 aaaae

#532455521000
b1000101 aaaac
b1011000 aaaae

#532455522000
b1011000 aaaac
b1000011 aaaad

#540000000000
b1000101 aaaab
b1011000 aaaad

#540000001000
b1001001 aaaab
b1000101 aaaad

#540080121000
b1011000 aaaad
b1000101 aaaae

#541455521000
b1000101 aaaac
b1011000 aaaae

#541455522000
b1011000 aaaac
b1000011 aaaad

#549000000000
b1000101 aaaab
b1011000 aaaad

#549000001000
b1001001 aaaab
b1000101 aaaad

#549080121000
b1011000 aaaad
b1000101 aaaae

#550455521000
b1000101 aaaac
b1011000 aaaae

#550455522000
b1011000 aaaac
b1000011 aaaad

#558000000000
b1000101 aaaab
b1011000 aaaad

#558000001000
b1001001 aaaab
b1000101 aaaad

#558080121000
b1011000 aaaad
b1000101 aaaae

#559455521000
b1000101 aaaac
b1011000 aaaae

#559455522000
b1011000 aaaac
b1000011 aaaad

#567000000000
b1000101 aaaab
b1011000 aaaad

#567000001000
b1001001 aaaab
b1000101 aaaad

#567080121000
b1011000 aaaad
b1000101 aaaae

#568455521000
b1000101 aaaac
b1011000 aaaae

#568455522000
b1011000 aaaac
b1000011 aaaad

#576000000000
b1000101 aaaab
b1011000 aaaad

#576000001000
b1001001 aaaab
b1000101 aaaad

#576080121000
b1011000 aaaad
b1000101 aaaae

#577455521000
b1000101 aaaac
b1011000 aaaae

#577455522000
b1011000 aaaac
b1000011 aaaad

#585000000000
b1000101 aaaab
b1011000 aaaad

#585000001000
b1001001 aaaab
b1000101 aaaad

#585080121000
b1011000 aaaad
b1000101 aaaae

#586455521000
b1000101 aaaac
b1011000 aaaae

#586455522000
b1011000 aaaac
b1000011 aaaad

#594000000000
b1000101 aaaab
b1011000 aaaad

#594000001000
b1001001 aaaab
b1000101 aaaad

#594080121000
b1011000 aaaad
b1000101 aaaae

#595455521000
b1000101 aaaac
b1011000 aaaae

#595455522000
b1011000 aaaac
b1000011 aaaad

#603000000000
b1000101 aaaab
b1011000 aaaad

#603000001000
b1001001 aaaab
b1000101 aaaad

#603080121000
b1011000 aaaad
b1000101 aaaae

#604455521000
b1000101 aaaac
b1011000 aaaae

#604455522000
b1011000 aaaac
b1000011 aaaad

#612000000000
b1000101 aaaab
b1011000 aaaad

#612000001000
b1001001 aaaab
b1000101 aaaad

#612080121000
b1011000 aaaad
b1000101 aaaae

#613455521000
b1000101 aaaac
b1011000 aaaae

#613455522000
b1011000 aaaac
b1000011 aaaad

#621000000000
b1000101 aaaab
b1011000 aaaad

#621000001000
b1001001 aaaab
b1000101 aaaad

#621080121000
b1011000 aaaad
b1000101 aaaae

#622455521000
b1000101 aaaac
b1011000 aaaae

#622455522000
b1011000 aaaac
b1000011 aaaad

#630000000000
b1000101 aaaab
b1011000 aaaad

#630000001000
b1001001 aaaab
b1000101 aaaad

#630080121000
b1011000 aaaad
b1000101 aaaae

#631455521000
b1000101 aaaac
b1011000 aaaae

#631455522000
b1011000 aaaac
b1000011 aaaad

#639000000000
b1000101 aaaab
b1011000 aaaad

#639000001000
b1001001 aaaab
b1000101 aaaad

#639080121000
b1011000 aaaad
b1000101 aaaae

#640455521000
b1000101 aaaac
b1011000 aaaae

#640455522000
b1011000 aaaac
b1000011 aaaad

#648000000000
b1000101 aaaab
b1011000 aaaad

#648000001000
b1001001 aaaab
b1000101 aaaad

#648080121000
b1011000 aaaad
b1000101 aaaae

#649455521000
b1000101 aaaac
b1011000 aaaae

#649455522000
b1011000 aaaac
b1000011 aaaad

#657000000000
b1000101 aaaab
b1011000 aaaad

#657000001000
b1001001 aaaab
b1000101 aaaad

#657080121000
b1011000 aaaad
b1000101 aaaae

#658455521000
b1000101 aaaac
b1011000 aaaae

#658455522000
b1011000 aaaac
b1000011 aaaad

#666000000000
b1000101 aaaab
b1011000 aaaad

#666000001000
b1001001 aaaab
b1000101 aaaad

#666080121000
b1011000 aaaad
b1000101 aaaae

#667455521000
b1000101 aaaac
b1011000 aaaae

#667455522000
b1011000 aaaac
b1000011 aaaad

#675000000000
b1000101 aaaab
b1011000 aaaad

#675000001000
b1001001 aaaab
b1000101 aaaad

#675080121000
b1011000 aaaad
b1000101 aaaae

#676455521000
b1000101 aaaac
b1011000 aaaae

#676455522000
b1011000 aaaac
b1000011 aaaad

#684000000000
b1000101 aaaab
b1011000 aaaad

#684000001000
b1001001 aaaab
b1000101 aaaad

#684080121000
b1011000 aaaad
b1000101 aaaae

#685455521000
b1000101 aaaac
b1011000 aaaae

#685455522000
b1011000 aaaac
b1000011 aaaad

#693000000000
b1000101 aaaab
b1011000 aaaad

#693000001000
b1001001 aaaab
b1000101 aaaad

#693080121000
b1011000 aaaad
b1000101 aaaae

#694455521000
b1000101 aaaac
b1011000 aaaae

#694455522000
b1011000 aaaac
b1000011 aaaad

#702000000000
b1000101 aaaab
b1011000 aaaad

#702000001000
b1001001 aaaab
b1000101 aaaad

#702080121000
b1011000 aaaad
b1000101 aaaae

#703455521000
b1000101 aaaac
b1011000 aaaae

#703455522000
b1011000 aaaac
b1000011 aaaad

#711000000000
b1000101 aaaab
b1011000 aaaad

#711000001000
b1001001 aaaab
b1000101 aaaad

#711080121000
b1011000 aaaad
b1000101 aaaae

#712455521000
b1000101 aaaac
b1011000 aaaae

#712455522000
b1011000 aaaac
b1000011 aaaad

#720000000000
b1000101 aaaab
b1011000 aaaad

#720000001000
b1001001 aaaab
b1000101 aaaad

#720080121000
b1011000 aaaad
b1000101 aaaae

#721455521000
b1000101 aaaac
b1011000 aaaae

#721455522000
b1011000 aaaac
b1000011 aaaad

#729000000000
b1000101 aaaab
b1011000 aaaad

#729000001000
b1001001 aaaab
b1000101 aaaad

#729080121000
b1011000 aaaad
b1000101 aaaae

#730455521000
b1000101 aaaac
b1011000 aaaae

#730455522000
b1011000 aaaac
b1000011 aaaad

#738000000000
b1000101 aaaab
b1011000 aaaad

#738000001000
b1001001 aaaab
b1000101 aaaad

#738080121000
b1011000 aaaad
b1000101 aaaae

#739455521000
b1000101 aaaac
b1011000 aaaae

#739455522000
b1011000 aaaac
b1000011 aaaad

#747000000000
b1000101 aaaab
b1011000 aaaad

#747000001000
b1001001 aaaab
b1000101 aaaad

#747080121000
b1011000 aaaad
b1000101 aaaae

#748455521000
b1000101 aaaac
b1011000 aaaae

#748455522000
b1011000 aaaac
b1000011 aaaad

#756000000000
b1000101 aaaab
b1011000 aaaad

#756000001000
b1001001 aaaab
b1000101 aaaad

#756080121000
b1011000 aaaad
b1000101 aaaae

#757455521000
b1000101 aaaac
b1011000 aaaae

#757455522000
b1011000 aaaac
b1000011 aaaad

#765000000000
b1000101 aaaab
b1011000 aaaad

#765000001000
b1001001 aaaab
b1000101 aaaad

#765080121000
b1011000 aaaad
b1000101 aaaae

#766455521000
b1000101 aaaac
b1011000 aaaae

#766455522000
b1011000 aaaac
b1000011 aaaad

#774000000000
b1000101 aaaab
b1011000 aaaad

#774000001000
b1001001 aaaab
b1000101 aaaad

#774080121000
b1011000 aaaad
b1000101 aaaae

#775455521000
b1000101 aaaac
b1011000 aaaae

#775455522000
b1011000 aaaac
b1000011 aaaad

#783000000000
b1000101 aaaab
b1011000 aaaad

#783000001000
b1001001 aaaab
b1000101 aaaad

#783080121000
b1011000 aaaad
b1000101 aaaae

#784455521000
b1000101 aaaac
b1011000 aaaae

#784455522000
b1011000 aaaac
b1000011 aaaad

#792000000000
b1000101 aaaab
b1011000 aaaad

#792000001000
b1001001 aaaab
b1000101 aaaad

#792080121000
b1011000 aaaad
b1000101 aaaae

#793455521000
b1000101 aaaac
b1011000 aaaae

#793455522000
b1011000 aaaac
b1000011 aaaad

#801000000000
b1000101 aaaab
b1011000 aaaad

#801000001000
b1001001 aaaab
b1000101 aaaad

#801080121000
b1011000 aaaad
b1000101 aaaae

#802455521000
b1000101 aaaac
b1011000 aaaae

#802455522000
b1011000 aaaac
b1000011 aaaad

#810000000000
b1000101 aaaab
b1011000 aaaad

#810000001000
b1001001 aaaab
b1000101 aaaad

#810080121000
b1011000 aaaad
b1000101 aaaae

#811455521000
b1000101 aaaac
b1011000 aaaae

#811455522000
b1011000 aaaac
b1000011 aaaad

#819000000000
b1000101 aaaab
b1011000 aaaad

#819000001000
b1001001 aaaab
b1000101 aaaad

#819080121000
b1011000 aaaad
b1000101 aaaae

#820455521000
b1000101 aaaac
b1011000 aaaae

#820455522000
b1011000 aaaac
b1000011 aaaad

#828000000000
b1000101 aaaab
b1011000 aaaad

#828000001000
b1001001 aaaab
b1000101 aaaad

#828080121000
b1011000 aaaad
b1000101 aaaae

#829455521000
b1000101 aaaac
b1011000 aaaae

#829455522000
b1011000 aaaac
b1000011 aaaad

#837000000000
b1000101 aaaab
b1011000 aaaad

#837000001000
b1001001 aaaab
b1000101 aaaad

#837080121000
b1011000 aaaad
b1000101 aaaae

#838455521000
b1000101 aaaac
b1011000 aaaae

#838455522000
b1011000 aaaac
b1000011 aaaad

#846000000000
b1000101 aaaab
b1011000 aaaad

#846000001000
b1001001 aaaab
b1000101 aaaad

#846080121000
b1011000 aaaad
b1000101 aaaae

#847455521000
b1000101 aaaac
b1011000 aaaae

#847455522000
b1011000 aaaac
b1000011 aaaad

#855000000000
b1000101 aaaab
b1011000 aaaad

#855000001000
b1001001 aaaab
b1000101 aaaad

#855080121000
b1011000 aaaad
b1000101 aaaae

#856455521000
b1000101 aaaac
b1011000 aaaae

#856455522000
b1011000 aaaac
b1000011 aaaad

#864000000000
b1000101 aaaab
b1011000 aaaad

#864000001000
b1001001 aaaab
b1000101 aaaad

#864080121000
b1011000 aaaad
b1000101 aaaae

#865455521000
b1000101 aaaac
b1011000 aaaae

#865455522000
b1011000 aaaac
b1000011 aaaad

#873000000000
b1000101 aaaab
b1011000 aaaad

#873000001000
b1001001 aaaab
b1000101 aaaad

#873080121000
b1011000 aaaad
b1000101 aaaae

#874455521000
b1000101 aaaac
b1011000 aaaae

#874455522000
b1011000 aaaac
b1000011 aaaad

#882000000000
b1000101 aaaab
b1011000 aaaad

#882000001000
b1001001 aaaab
b1000101 aaaad

#882080121000
b1011000 aaaad
b1000101 aaaae

#883455521000
b1000101 aaaac
b1011000 aaaae

#883455522000
b1011000 aaaac
b1000011 aaaad

#891000000000
b1000101 aaaab
b1011000 aaaad

#891000001000
b1001001 aaaab
b1000101 aaaad

#891080121000
b1011000 aaaad
b1000101 aaaae

#892455521000
b1000101 aaaac
b1011000 aaaae

#892455522000
b1011000 aaaac
b1000011 aaaad

#900000000000
b1000101 aaaab
b1011000 aaaad

#900000001000
b1001001 aaaab
b1000101 aaaad

#900080121000
b1011000 aaaad
b1000101 aaaae

#901455521000
b1000101 aaaac
b1011000 aaaae

#901455522000
b1011000 aaaac
b1000011 aaaad

#909000000000
b1000101 aaaab
b1011000 aaaad

#909000001000
b1001001 aaaab
b1000101 aaaad

#909080121000
b1011000 aaaad
b1000101 aaaae

#910455521000
b1000101 aaaac
b1011000 aaaae

#910455522000
b1011000 aaaac
b1000011 aaaad

#918000000000
b1000101 aaaab
b1011000 aaaad

#918000001000
b1001001 aaaab
b1000101 aaaad

#918080121000
b1011000 aaaad
b1000101 aaaae

#919455521000
b1000101 aaaac
b1011000 aaaae

#919455522000
b1011000 aaaac
b1000011 aaaad

#927000000000
b1000101 aaaab
b1011000 aaaad

#927000001000
b1001001 aaaab
b1000101 aaaad

#927080121000
b1011000 aaaad
b1000101 aaaae

#928455521000
b1000101 aaaac
b1011000 aaaae

#928455522000
b1011000 aaaac
b1000011 aaaad

#936000000000
b1000101 aaaab
b1011000 aaaad

#936000001000
b1001001 aaaab
b1000101 aaaad

#936080121000
b1011000 aaaad
b1000101 aaaae

#937455521000
b1000101 aaaac
b1011000 aaaae

#937455522000
b1011000 aaaac
b1000011 aaaad

#945000000000
b1000101 aaaab
b1011000 aaaad

#945000001000
b1001001 aaaab
b1000101 aaaad

#945080121000
b1011000 aaaad
b1000101 aaaae

#946455521000
b1000101 aaaac
b1011000 aaaae

#946455522000
b1011000 aaaac
b1000011 aaaad

#954000000000
b1000101 aaaab
b1011000 aaaad

#954000001000
b1001001 aaaab
b1000101 aaaad

#954080121000
b1011000 aaaad
b1000101 aaaae

#955455521000
b1000101 aaaac
b1011000 aaaae

#955455522000
b1011000 aaaac
b1000011 aaaad

#963000000000
b1000101 aaaab
b1011000 aaaad

#963000001000
b1001001 aaaab
b1000101 aaaad

#963080121000
b1011000 aaaad
b1000101 aaaae

#964455521000
b1000101 aaaac
b1011000 aaaae

#964455522000
b1011000 aaaac
b1000011 aaaad

#972000000000
b1000101 aaaab
b1011000 aaaad

#972000001000
b1001001 aaaab
b1000101 aaaad

#972080121000
b1011000 aaaad
b1000101 aaaae

#973455521000
b1000101 aaaac
b1011000 aaaae

#973455522000
b1011000 aaaac
b1000011 aaaad

#981000000000
b1000101 aaaab
b1011000 aaaad

#981000001000
b1001001 aaaab
b1000101 aaaad

#981080121000
b1011000 aaaad
b1000101 aaaae

#982455521000
b1000101 aaaac
b1011000 aaaae

#982455522000
b1011000 aaaac
b1000011 aaaad

#990000000000
b1000101 aaaab
b1011000 aaaad

#990000001000
b1001001 aaaab
b1000101 aaaad

#990080121000
b1011000 aaaad
b1000101 aaaae

#991455521000
b1000101 aaaac
b1011000 aaaae

#991455522000
b1011000 aaaac
b1000011 aaaad

#999000000000
b1000101 aaaab
b1011000 aaaad

#999000001000
b1001001 aaaab
b1000101 aaaad

#999080121000
b1011000 aaaad
b1000101 aaaae

