examples/VAD_INTEGRATION/rtos3_trace.vcd
$comment
File created by KisTA library.
 Author: F.Herrera
 Institution: KTH
 Date: 2013
	All rights reserved by the authors, till further definition of the license.
$end

$comment
Tracing options used include to trace Task State signals,  Scheduler signals 
$end

$date
     Jul 21, 2016       11:14:01
$end

$version
 SystemC 2.3.1-Accellera --- Mar 29 2016 16:10:40
$end

$timescale
     1 ps
$end

$scope module SystemC $end
$var wire    8  aaaaa  sched3 [7:0]  $end
$var wire    8  aaaab  D3_IN [7:0]  $end
$var wire    8  aaaac  D3_OUT [7:0]  $end
$var wire    8  aaaad  T5 [7:0]  $end
$var wire    8  aaaae  T6 [7:0]  $end
$upscope $end
$enddefinitions  $end

$comment
All initial values are dumped below at time 0 sec = 0 timescale units.
$end

$dumpvars
b1001001 aaaaa
b1000101 aaaab
b1010010 aaaac
b1011000 aaaad
b1011000 aaaae
$end

#1000
b1001001 aaaab
b1011000 aaaac
b1000011 aaaad

#771940674
b1000101 aaaad

#9000000000
b1010010 aaaab

#9396020674
b1011000 aaaad
b1000101 aaaae

#9442860674
b1000101 aaaab
b1010010 aaaac
b1011000 aaaae

#9442861674
b1001001 aaaab
b1000101 aaaac

#9442862674
b1011000 aaaac
b1000011 aaaad

#9771940674
b1000101 aaaad

#18000000000
b1010010 aaaab

#18396020674
b1011000 aaaad
b1000101 aaaae

#18442860674
b1000101 aaaab
b1010010 aaaac
b1011000 aaaae

#18442861674
b1001001 aaaab
b1000101 aaaac

#18442862674
b1011000 aaaac
b1000011 aaaad

#18771940674
b1000101 aaaad

#27000000000
b1010010 aaaab

#27396020674
b1011000 aaaad
b1000101 aaaae

#27442860674
b1000101 aaaab
b1010010 aaaac
b1011000 aaaae

#27442861674
b1001001 aaaab
b1000101 aaaac

#27442862674
b1011000 aaaac
b1000011 aaaad

#27771940674
b1000101 aaaad

#36000000000
b1010010 aaaab

#36396020674
b1011000 aaaad
b1000101 aaaae

#36442860674
b1000101 aaaab
b1010010 aaaac
b1011000 aaaae

#36442861674
b1001001 aaaab
b1000101 aaaac

#36442862674
b1011000 aaaac
b1000011 aaaad

#36771940674
b1000101 aaaad

#45000000000
b1010010 aaaab

#45396020674
b1011000 aaaad
b1000101 aaaae

#45442860674
b1000101 aaaab
b1010010 aaaac
b1011000 aaaae

#45442861674
b1001001 aaaab
b1000101 aaaac

#45442862674
b1011000 aaaac
b1000011 aaaad

#45771940674
b1000101 aaaad

#54000000000
b1010010 aaaab

#54396020674
b1011000 aaaad
b1000101 aaaae

#54442860674
b1000101 aaaab
b1010010 aaaac
b1011000 aaaae

#54442861674
b1001001 aaaab
b1000101 aaaac

#54442862674
b1011000 aaaac
b1000011 aaaad

#54771940674
b1000101 aaaad

#63000000000
b1010010 aaaab

#63396020674
b1011000 aaaad
b1000101 aaaae

#63442860674
b1000101 aaaab
b1010010 aaaac
b1011000 aaaae

#63442861674
b1001001 aaaab
b1000101 aaaac

#63442862674
b1011000 aaaac
b1000011 aaaad

#63771940674
b1000101 aaaad

#72000000000
b1010010 aaaab

#72396020674
b1011000 aaaad
b1000101 aaaae

#72442860674
b1000101 aaaab
b1010010 aaaac
b1011000 aaaae

#72442861674
b1001001 aaaab
b1000101 aaaac

#72442862674
b1011000 aaaac
b1000011 aaaad

#72771940674
b1000101 aaaad

#81000000000
b1010010 aaaab

#81396020674
b1011000 aaaad
b1000101 aaaae

#81442860674
b1000101 aaaab
b1010010 aaaac
b1011000 aaaae

#81442861674
b1001001 aaaab
b1000101 aaaac

#81442862674
b1011000 aaaac
b1000011 aaaad

#81771940674
b1000101 aaaad

#90000000000
b1010010 aaaab

#90396020674
b1011000 aaaad
b1000101 aaaae

#90442860674
b1000101 aaaab
b1010010 aaaac
b1011000 aaaae

#90442861674
b1001001 aaaab
b1000101 aaaac

#90442862674
b1011000 aaaac
b1000011 aaaad

#90771940674
b1000101 aaaad

#99000000000
b1010010 aaaab

#99396020674
b1011000 aaaad
b1000101 aaaae

#99442860674
b1000101 aaaab
b1010010 aaaac
b1011000 aaaae

#99442861674
b1001001 aaaab
b1000101 aaaac

#99442862674
b1011000 aaaac
b1000011 aaaad

#99771940674
b1000101 aaaad

#108000000000
b1010010 aaaab

#108396020674
b1011000 aaaad
b1000101 aaaae

#108442860674
b1000101 aaaab
b1010010 aaaac
b1011000 aaaae

#108442861674
b1001001 aaaab
b1000101 aaaac

#108442862674
b1011000 aaaac
b1000011 aaaad

#108771940674
b1000101 aaaad

#117000000000
b1010010 aaaab

#117396020674
b1011000 aaaad
b1000101 aaaae

#117442860674
b1000101 aaaab
b1010010 aaaac
b1011000 aaaae

#117442861674
b1001001 aaaab
b1000101 aaaac

#117442862674
b1011000 aaaac
b1000011 aaaad

#117771940674
b1000101 aaaad

#126000000000
b1010010 aaaab

#126396020674
b1011000 aaaad
b1000101 aaaae

#126442860674
b1000101 aaaab
b1010010 aaaac
b1011000 aaaae

#126442861674
b1001001 aaaab
b1000101 aaaac

#126442862674
b1011000 aaaac
b1000011 aaaad

#126771940674
b1000101 aaaad

#135000000000
b1010010 aaaab

#135396020674
b1011000 aaaad
b1000101 aaaae

#135442860674
b1000101 aaaab
b1010010 aaaac
b1011000 aaaae

#135442861674
b1001001 aaaab
b1000101 aaaac

#135442862674
b1011000 aaaac
b1000011 aaaad

#135771940674
b1000101 aaaad

#144000000000
b1010010 aaaab

#144396020674
b1011000 aaaad
b1000101 aaaae

#144442860674
b1000101 aaaab
b1010010 aaaac
b1011000 aaaae

#144442861674
b1001001 aaaab
b1000101 aaaac

#144442862674
b1011000 aaaac
b1000011 aaaad

#144771940674
b1000101 aaaad

#153000000000
b1010010 aaaab

#153396020674
b1011000 aaaad
b1000101 aaaae

#153442860674
b1000101 aaaab
b1010010 aaaac
b1011000 aaaae

#153442861674
b1001001 aaaab
b1000101 aaaac

#153442862674
b1011000 aaaac
b1000011 aaaad

#153771940674
b1000101 aaaad

#162000000000
b1010010 aaaab

#162396020674
b1011000 aaaad
b1000101 aaaae

#162442860674
b1000101 aaaab
b1010010 aaaac
b1011000 aaaae

#162442861674
b1001001 aaaab
b1000101 aaaac

#162442862674
b1011000 aaaac
b1000011 aaaad

#162771940674
b1000101 aaaad

#171000000000
b1010010 aaaab

#171396020674
b1011000 aaaad
b1000101 aaaae

#171442860674
b1000101 aaaab
b1010010 aaaac
b1011000 aaaae

#171442861674
b1001001 aaaab
b1000101 aaaac

#171442862674
b1011000 aaaac
b1000011 aaaad

#171771940674
b1000101 aaaad

#180000000000
b1010010 aaaab

#180396020674
b1011000 aaaad
b1000101 aaaae

#180442860674
b1000101 aaaab
b1010010 aaaac
b1011000 aaaae

#180442861674
b1001001 aaaab
b1000101 aaaac

#180442862674
b1011000 aaaac
b1000011 aaaad

#180771940674
b1000101 aaaad

#189000000000
b1010010 aaaab

#189396020674
b1011000 aaaad
b1000101 aaaae

#189442860674
b1000101 aaaab
b1010010 aaaac
b1011000 aaaae

#189442861674
b1001001 aaaab
b1000101 aaaac

#189442862674
b1011000 aaaac
b1000011 aaaad

#189771940674
b1000101 aaaad

#198000000000
b1010010 aaaab

#198396020674
b1011000 aaaad
b1000101 aaaae

#198442860674
b1000101 aaaab
b1010010 aaaac
b1011000 aaaae

#198442861674
b1001001 aaaab
b1000101 aaaac

#198442862674
b1011000 aaaac
b1000011 aaaad

#198771940674
b1000101 aaaad

#207000000000
b1010010 aaaab

#207396020674
b1011000 aaaad
b1000101 aaaae

#207442860674
b1000101 aaaab
b1010010 aaaac
b1011000 aaaae

#207442861674
b1001001 aaaab
b1000101 aaaac

#207442862674
b1011000 aaaac
b1000011 aaaad

#207771940674
b1000101 aaaad

#216000000000
b1010010 aaaab

#216396020674
b1011000 aaaad
b1000101 aaaae

#216442860674
b1000101 aaaab
b1010010 aaaac
b1011000 aaaae

#216442861674
b1001001 aaaab
b1000101 aaaac

#216442862674
b1011000 aaaac
b1000011 aaaad

#216771940674
b1000101 aaaad

#225000000000
b1010010 aaaab

#225396020674
b1011000 aaaad
b1000101 aaaae

#225442860674
b1000101 aaaab
b1010010 aaaac
b1011000 aaaae

#225442861674
b1001001 aaaab
b1000101 aaaac

#225442862674
b1011000 aaaac
b1000011 aaaad

#225771940674
b1000101 aaaad

#234000000000
b1010010 aaaab

#234396020674
b1011000 aaaad
b1000101 aaaae

#234442860674
b1000101 aaaab
b1010010 aaaac
b1011000 aaaae

#234442861674
b1001001 aaaab
b1000101 aaaac

#234442862674
b1011000 aaaac
b1000011 aaaad

#234771940674
b1000101 aaaad

#243000000000
b1010010 aaaab

#243396020674
b1011000 aaaad
b1000101 aaaae

#243442860674
b1000101 aaaab
b1010010 aaaac
b1011000 aaaae

#243442861674
b1001001 aaaab
b1000101 aaaac

#243442862674
b1011000 aaaac
b1000011 aaaad

#243771940674
b1000101 aaaad

#252000000000
b1010010 aaaab

#252396020674
b1011000 aaaad
b1000101 aaaae

#252442860674
b1000101 aaaab
b1010010 aaaac
b1011000 aaaae

#252442861674
b1001001 aaaab
b1000101 aaaac

#252442862674
b1011000 aaaac
b1000011 aaaad

#252771940674
b1000101 aaaad

#261000000000
b1010010 aaaab

#261396020674
b1011000 aaaad
b1000101 aaaae

#261442860674
b1000101 aaaab
b1010010 aaaac
b1011000 aaaae

#261442861674
b1001001 aaaab
b1000101 aaaac

#261442862674
b1011000 aaaac
b1000011 aaaad

#261771940674
b1000101 aaaad

#270000000000
b1010010 aaaab

#270396020674
b1011000 aaaad
b1000101 aaaae

#270442860674
b1000101 aaaab
b1010010 aaaac
b1011000 aaaae

#270442861674
b1001001 aaaab
b1000101 aaaac

#270442862674
b1011000 aaaac
b1000011 aaaad

#270771940674
b1000101 aaaad

#279000000000
b1010010 aaaab

#279396020674
b1011000 aaaad
b1000101 aaaae

#279442860674
b1000101 aaaab
b1010010 aaaac
b1011000 aaaae

#279442861674
b1001001 aaaab
b1000101 aaaac

#279442862674
b1011000 aaaac
b1000011 aaaad

#279771940674
b1000101 aaaad

#288000000000
b1010010 aaaab

#288396020674
b1011000 aaaad
b1000101 aaaae

#288442860674
b1000101 aaaab
b1010010 aaaac
b1011000 aaaae

#288442861674
b1001001 aaaab
b1000101 aaaac

#288442862674
b1011000 aaaac
b1000011 aaaad

#288771940674
b1000101 aaaad

#297000000000
b1010010 aaaab

#297396020674
b1011000 aaaad
b1000101 aaaae

#297442860674
b1000101 aaaab
b1010010 aaaac
b1011000 aaaae

#297442861674
b1001001 aaaab
b1000101 aaaac

#297442862674
b1011000 aaaac
b1000011 aaaad

#297771940674
b1000101 aaaad

#306000000000
b1010010 aaaab

#306396020674
b1011000 aaaad
b1000101 aaaae

#306442860674
b1000101 aaaab
b1010010 aaaac
b1011000 aaaae

#306442861674
b1001001 aaaab
b1000101 aaaac

#306442862674
b1011000 aaaac
b1000011 aaaad

#306771940674
b1000101 aaaad

#315000000000
b1010010 aaaab

#315396020674
b1011000 aaaad
b1000101 aaaae

#315442860674
b1000101 aaaab
b1010010 aaaac
b1011000 aaaae

#315442861674
b1001001 aaaab
b1000101 aaaac

#315442862674
b1011000 aaaac
b1000011 aaaad

#315771940674
b1000101 aaaad

#324000000000
b1010010 aaaab

#324396020674
b1011000 aaaad
b1000101 aaaae

#324442860674
b1000101 aaaab
b1010010 aaaac
b1011000 aaaae

#324442861674
b1001001 aaaab
b1000101 aaaac

#324442862674
b1011000 aaaac
b1000011 aaaad

#324771940674
b1000101 aaaad

#333000000000
b1010010 aaaab

#333396020674
b1011000 aaaad
b1000101 aaaae

#333442860674
b1000101 aaaab
b1010010 aaaac
b1011000 aaaae

#333442861674
b1001001 aaaab
b1000101 aaaac

#333442862674
b1011000 aaaac
b1000011 aaaad

#333771940674
b1000101 aaaad

#342000000000
b1010010 aaaab

#342396020674
b1011000 aaaad
b1000101 aaaae

#342442860674
b1000101 aaaab
b1010010 aaaac
b1011000 aaaae

#342442861674
b1001001 aaaab
b1000101 aaaac

#342442862674
b1011000 aaaac
b1000011 aaaad

#342771940674
b1000101 aaaad

#351000000000
b1010010 aaaab

#351396020674
b1011000 aaaad
b1000101 aaaae

#351442860674
b1000101 aaaab
b1010010 aaaac
b1011000 aaaae

#351442861674
b1001001 aaaab
b1000101 aaaac

#351442862674
b1011000 aaaac
b1000011 aaaad

#351771940674
b1000101 aaaad

#360000000000
b1010010 aaaab

#360396020674
b1011000 aaaad
b1000101 aaaae

#360442860674
b1000101 aaaab
b1010010 aaaac
b1011000 aaaae

#360442861674
b1001001 aaaab
b1000101 aaaac

#360442862674
b1011000 aaaac
b1000011 aaaad

#360771940674
b1000101 aaaad

#369000000000
b1010010 aaaab

#369396020674
b1011000 aaaad
b1000101 aaaae

#369442860674
b1000101 aaaab
b1010010 aaaac
b1011000 aaaae

#369442861674
b1001001 aaaab
b1000101 aaaac

#369442862674
b1011000 aaaac
b1000011 aaaad

#369771940674
b1000101 aaaad

#378000000000
b1010010 aaaab

#378396020674
b1011000 aaaad
b1000101 aaaae

#378442860674
b1000101 aaaab
b1010010 aaaac
b1011000 aaaae

#378442861674
b1001001 aaaab
b1000101 aaaac

#378442862674
b1011000 aaaac
b1000011 aaaad

#378771940674
b1000101 aaaad

#387000000000
b1010010 aaaab

#387396020674
b1011000 aaaad
b1000101 aaaae

#387442860674
b1000101 aaaab
b1010010 aaaac
b1011000 aaaae

#387442861674
b1001001 aaaab
b1000101 aaaac

#387442862674
b1011000 aaaac
b1000011 aaaad

#387771940674
b1000101 aaaad

#396000000000
b1010010 aaaab

#396396020674
b1011000 aaaad
b1000101 aaaae

#396442860674
b1000101 aaaab
b1010010 aaaac
b1011000 aaaae

#396442861674
b1001001 aaaab
b1000101 aaaac

#396442862674
b1011000 aaaac
b1000011 aaaad

#396771940674
b1000101 aaaad

#405000000000
b1010010 aaaab

#405396020674
b1011000 aaaad
b1000101 aaaae

#405442860674
b1000101 aaaab
b1010010 aaaac
b1011000 aaaae

#405442861674
b1001001 aaaab
b1000101 aaaac

#405442862674
b1011000 aaaac
b1000011 aaaad

#405771940674
b1000101 aaaad

#414000000000
b1010010 aaaab

#414396020674
b1011000 aaaad
b1000101 aaaae

#414442860674
b1000101 aaaab
b1010010 aaaac
b1011000 aaaae

#414442861674
b1001001 aaaab
b1000101 aaaac

#414442862674
b1011000 aaaac
b1000011 aaaad

#414771940674
b1000101 aaaad

#423000000000
b1010010 aaaab

#423396020674
b1011000 aaaad
b1000101 aaaae

#423442860674
b1000101 aaaab
b1010010 aaaac
b1011000 aaaae

#423442861674
b1001001 aaaab
b1000101 aaaac

#423442862674
b1011000 aaaac
b1000011 aaaad

#423771940674
b1000101 aaaad

#432000000000
b1010010 aaaab

#432396020674
b1011000 aaaad
b1000101 aaaae

#432442860674
b1000101 aaaab
b1010010 aaaac
b1011000 aaaae

#432442861674
b1001001 aaaab
b1000101 aaaac

#432442862674
b1011000 aaaac
b1000011 aaaad

#432771940674
b1000101 aaaad

#441000000000
b1010010 aaaab

#441396020674
b1011000 aaaad
b1000101 aaaae

#441442860674
b1000101 aaaab
b1010010 aaaac
b1011000 aaaae

#441442861674
b1001001 aaaab
b1000101 aaaac

#441442862674
b1011000 aaaac
b1000011 aaaad

#441771940674
b1000101 aaaad

#450000000000
b1010010 aaaab

#450396020674
b1011000 aaaad
b1000101 aaaae

#450442860674
b1000101 aaaab
b1010010 aaaac
b1011000 aaaae

#450442861674
b1001001 aaaab
b1000101 aaaac

#450442862674
b1011000 aaaac
b1000011 aaaad

#450771940674
b1000101 aaaad

#459000000000
b1010010 aaaab

#459396020674
b1011000 aaaad
b1000101 aaaae

#459442860674
b1000101 aaaab
b1010010 aaaac
b1011000 aaaae

#459442861674
b1001001 aaaab
b1000101 aaaac

#459442862674
b1011000 aaaac
b1000011 aaaad

#459771940674
b1000101 aaaad

#468000000000
b1010010 aaaab

#468396020674
b1011000 aaaad
b1000101 aaaae

#468442860674
b1000101 aaaab
b1010010 aaaac
b1011000 aaaae

#468442861674
b1001001 aaaab
b1000101 aaaac

#468442862674
b1011000 aaaac
b1000011 aaaad

#468771940674
b1000101 aaaad

#477000000000
b1010010 aaaab

#477396020674
b1011000 aaaad
b1000101 aaaae

#477442860674
b1000101 aaaab
b1010010 aaaac
b1011000 aaaae

#477442861674
b1001001 aaaab
b1000101 aaaac

#477442862674
b1011000 aaaac
b1000011 aaaad

#477771940674
b1000101 aaaad

#486000000000
b1010010 aaaab

#486396020674
b1011000 aaaad
b1000101 aaaae

#486442860674
b1000101 aaaab
b1010010 aaaac
b1011000 aaaae

#486442861674
b1001001 aaaab
b1000101 aaaac

#486442862674
b1011000 aaaac
b1000011 aaaad

#486771940674
b1000101 aaaad

#495000000000
b1010010 aaaab

#495396020674
b1011000 aaaad
b1000101 aaaae

#495442860674
b1000101 aaaab
b1010010 aaaac
b1011000 aaaae

#495442861674
b1001001 aaaab
b1000101 aaaac

#495442862674
b1011000 aaaac
b1000011 aaaad

#495771940674
b1000101 aaaad

#504000000000
b1010010 aaaab

#504396020674
b1011000 aaaad
b1000101 aaaae

#504442860674
b1000101 aaaab
b1010010 aaaac
b1011000 aaaae

#504442861674
b1001001 aaaab
b1000101 aaaac

#504442862674
b1011000 aaaac
b1000011 aaaad

#504771940674
b1000101 aaaad

#513000000000
b1010010 aaaab

#513396020674
b1011000 aaaad
b1000101 aaaae

#513442860674
b1000101 aaaab
b1010010 aaaac
b1011000 aaaae

#513442861674
b1001001 aaaab
b1000101 aaaac

#513442862674
b1011000 aaaac
b1000011 aaaad

#513771940674
b1000101 aaaad

#522000000000
b1010010 aaaab

#522396020674
b1011000 aaaad
b1000101 aaaae

#522442860674
b1000101 aaaab
b1010010 aaaac
b1011000 aaaae

#522442861674
b1001001 aaaab
b1000101 aaaac

#522442862674
b1011000 aaaac
b1000011 aaaad

#522771940674
b1000101 aaaad

#531000000000
b1010010 aaaab

#531396020674
b1011000 aaaad
b1000101 aaaae

#531442860674
b1000101 aaaab
b1010010 aaaac
b1011000 aaaae

#531442861674
b1001001 aaaab
b1000101 aaaac

#531442862674
b1011000 aaaac
b1000011 aaaad

#531771940674
b1000101 aaaad

#540000000000
b1010010 aaaab

#540396020674
b1011000 aaaad
b1000101 aaaae

#540442860674
b1000101 aaaab
b1010010 aaaac
b1011000 aaaae

#540442861674
b1001001 aaaab
b1000101 aaaac

#540442862674
b1011000 aaaac
b1000011 aaaad

#540771940674
b1000101 aaaad

#549000000000
b1010010 aaaab

#549396020674
b1011000 aaaad
b1000101 aaaae

#549442860674
b1000101 aaaab
b1010010 aaaac
b1011000 aaaae

#549442861674
b1001001 aaaab
b1000101 aaaac

#549442862674
b1011000 aaaac
b1000011 aaaad

#549771940674
b1000101 aaaad

#558000000000
b1010010 aaaab

#558396020674
b1011000 aaaad
b1000101 aaaae

#558442860674
b1000101 aaaab
b1010010 aaaac
b1011000 aaaae

#558442861674
b1001001 aaaab
b1000101 aaaac

#558442862674
b1011000 aaaac
b1000011 aaaad

#558771940674
b1000101 aaaad

#567000000000
b1010010 aaaab

#567396020674
b1011000 aaaad
b1000101 aaaae

#567442860674
b1000101 aaaab
b1010010 aaaac
b1011000 aaaae

#567442861674
b1001001 aaaab
b1000101 aaaac

#567442862674
b1011000 aaaac
b1000011 aaaad

#567771940674
b1000101 aaaad

#576000000000
b1010010 aaaab

#576396020674
b1011000 aaaad
b1000101 aaaae

#576442860674
b1000101 aaaab
b1010010 aaaac
b1011000 aaaae

#576442861674
b1001001 aaaab
b1000101 aaaac

#576442862674
b1011000 aaaac
b1000011 aaaad

#576771940674
b1000101 aaaad

#585000000000
b1010010 aaaab

#585396020674
b1011000 aaaad
b1000101 aaaae

#585442860674
b1000101 aaaab
b1010010 aaaac
b1011000 aaaae

#585442861674
b1001001 aaaab
b1000101 aaaac

#585442862674
b1011000 aaaac
b1000011 aaaad

#585771940674
b1000101 aaaad

#594000000000
b1010010 aaaab

#594396020674
b1011000 aaaad
b1000101 aaaae

#594442860674
b1000101 aaaab
b1010010 aaaac
b1011000 aaaae

#594442861674
b1001001 aaaab
b1000101 aaaac

#594442862674
b1011000 aaaac
b1000011 aaaad

#594771940674
b1000101 aaaad

#603000000000
b1010010 aaaab

#603396020674
b1011000 aaaad
b1000101 aaaae

#603442860674
b1000101 aaaab
b1010010 aaaac
b1011000 aaaae

#603442861674
b1001001 aaaab
b1000101 aaaac

#603442862674
b1011000 aaaac
b1000011 aaaad

#603771940674
b1000101 aaaad

#612000000000
b1010010 aaaab

#612396020674
b1011000 aaaad
b1000101 aaaae

#612442860674
b1000101 aaaab
b1010010 aaaac
b1011000 aaaae

#612442861674
b1001001 aaaab
b1000101 aaaac

#612442862674
b1011000 aaaac
b1000011 aaaad

#612771940674
b1000101 aaaad

#621000000000
b1010010 aaaab

#621396020674
b1011000 aaaad
b1000101 aaaae

#621442860674
b1000101 aaaab
b1010010 aaaac
b1011000 aaaae

#621442861674
b1001001 aaaab
b1000101 aaaac

#621442862674
b1011000 aaaac
b1000011 aaaad

#621771940674
b1000101 aaaad

#630000000000
b1010010 aaaab

#630396020674
b1011000 aaaad
b1000101 aaaae

#630442860674
b1000101 aaaab
b1010010 aaaac
b1011000 aaaae

#630442861674
b1001001 aaaab
b1000101 aaaac

#630442862674
b1011000 aaaac
b1000011 aaaad

#630771940674
b1000101 aaaad

#639000000000
b1010010 aaaab

#639396020674
b1011000 aaaad
b1000101 aaaae

#639442860674
b1000101 aaaab
b1010010 aaaac
b1011000 aaaae

#639442861674
b1001001 aaaab
b1000101 aaaac

#639442862674
b1011000 aaaac
b1000011 aaaad

#639771940674
b1000101 aaaad

#648000000000
b1010010 aaaab

#648396020674
b1011000 aaaad
b1000101 aaaae

#648442860674
b1000101 aaaab
b1010010 aaaac
b1011000 aaaae

#648442861674
b1001001 aaaab
b1000101 aaaac

#648442862674
b1011000 aaaac
b1000011 aaaad

#648771940674
b1000101 aaaad

#657000000000
b1010010 aaaab

#657396020674
b1011000 aaaad
b1000101 aaaae

#657442860674
b1000101 aaaab
b1010010 aaaac
b1011000 aaaae

#657442861674
b1001001 aaaab
b1000101 aaaac

#657442862674
b1011000 aaaac
b1000011 aaaad

#657771940674
b1000101 aaaad

#666000000000
b1010010 aaaab

#666396020674
b1011000 aaaad
b1000101 aaaae

#666442860674
b1000101 aaaab
b1010010 aaaac
b1011000 aaaae

#666442861674
b1001001 aaaab
b1000101 aaaac

#666442862674
b1011000 aaaac
b1000011 aaaad

#666771940674
b1000101 aaaad

#675000000000
b1010010 aaaab

#675396020674
b1011000 aaaad
b1000101 aaaae

#675442860674
b1000101 aaaab
b1010010 aaaac
b1011000 aaaae

#675442861674
b1001001 aaaab
b1000101 aaaac

#675442862674
b1011000 aaaac
b1000011 aaaad

#675771940674
b1000101 aaaad

#684000000000
b1010010 aaaab

#684396020674
b1011000 aaaad
b1000101 aaaae

#684442860674
b1000101 aaaab
b1010010 aaaac
b1011000 aaaae

#684442861674
b1001001 aaaab
b1000101 aaaac

#684442862674
b1011000 aaaac
b1000011 aaaad

#684771940674
b1000101 aaaad

#693000000000
b1010010 aaaab

#693396020674
b1011000 aaaad
b1000101 aaaae

#693442860674
b1000101 aaaab
b1010010 aaaac
b1011000 aaaae

#693442861674
b1001001 aaaab
b1000101 aaaac

#693442862674
b1011000 aaaac
b1000011 aaaad

#693771940674
b1000101 aaaad

#702000000000
b1010010 aaaab

#702396020674
b1011000 aaaad
b1000101 aaaae

#702442860674
b1000101 aaaab
b1010010 aaaac
b1011000 aaaae

#702442861674
b1001001 aaaab
b1000101 aaaac

#702442862674
b1011000 aaaac
b1000011 aaaad

#702771940674
b1000101 aaaad

#711000000000
b1010010 aaaab

#711396020674
b1011000 aaaad
b1000101 aaaae

#711442860674
b1000101 aaaab
b1010010 aaaac
b1011000 aaaae

#711442861674
b1001001 aaaab
b1000101 aaaac

#711442862674
b1011000 aaaac
b1000011 aaaad

#711771940674
b1000101 aaaad

#720000000000
b1010010 aaaab

#720396020674
b1011000 aaaad
b1000101 aaaae

#720442860674
b1000101 aaaab
b1010010 aaaac
b1011000 aaaae

#720442861674
b1001001 aaaab
b1000101 aaaac

#720442862674
b1011000 aaaac
b1000011 aaaad

#720771940674
b1000101 aaaad

#729000000000
b1010010 aaaab

#729396020674
b1011000 aaaad
b1000101 aaaae

#729442860674
b1000101 aaaab
b1010010 aaaac
b1011000 aaaae

#729442861674
b1001001 aaaab
b1000101 aaaac

#729442862674
b1011000 aaaac
b1000011 aaaad

#729771940674
b1000101 aaaad

#738000000000
b1010010 aaaab

#738396020674
b1011000 aaaad
b1000101 aaaae

#738442860674
b1000101 aaaab
b1010010 aaaac
b1011000 aaaae

#738442861674
b1001001 aaaab
b1000101 aaaac

#738442862674
b1011000 aaaac
b1000011 aaaad

#738771940674
b1000101 aaaad

#747000000000
b1010010 aaaab

#747396020674
b1011000 aaaad
b1000101 aaaae

#747442860674
b1000101 aaaab
b1010010 aaaac
b1011000 aaaae

#747442861674
b1001001 aaaab
b1000101 aaaac

#747442862674
b1011000 aaaac
b1000011 aaaad

#747771940674
b1000101 aaaad

#756000000000
b1010010 aaaab

#756396020674
b1011000 aaaad
b1000101 aaaae

#756442860674
b1000101 aaaab
b1010010 aaaac
b1011000 aaaae

#756442861674
b1001001 aaaab
b1000101 aaaac

#756442862674
b1011000 aaaac
b1000011 aaaad

#756771940674
b1000101 aaaad

#765000000000
b1010010 aaaab

#765396020674
b1011000 aaaad
b1000101 aaaae

#765442860674
b1000101 aaaab
b1010010 aaaac
b1011000 aaaae

#765442861674
b1001001 aaaab
b1000101 aaaac

#765442862674
b1011000 aaaac
b1000011 aaaad

#765771940674
b1000101 aaaad

#774000000000
b1010010 aaaab

#774396020674
b1011000 aaaad
b1000101 aaaae

#774442860674
b1000101 aaaab
b1010010 aaaac
b1011000 aaaae

#774442861674
b1001001 aaaab
b1000101 aaaac

#774442862674
b1011000 aaaac
b1000011 aaaad

#774771940674
b1000101 aaaad

#783000000000
b1010010 aaaab

#783396020674
b1011000 aaaad
b1000101 aaaae

#783442860674
b1000101 aaaab
b1010010 aaaac
b1011000 aaaae

#783442861674
b1001001 aaaab
b1000101 aaaac

#783442862674
b1011000 aaaac
b1000011 aaaad

#783771940674
b1000101 aaaad

#792000000000
b1010010 aaaab

#792396020674
b1011000 aaaad
b1000101 aaaae

#792442860674
b1000101 aaaab
b1010010 aaaac
b1011000 aaaae

#792442861674
b1001001 aaaab
b1000101 aaaac

#792442862674
b1011000 aaaac
b1000011 aaaad

#792771940674
b1000101 aaaad

#801000000000
b1010010 aaaab

#801396020674
b1011000 aaaad
b1000101 aaaae

#801442860674
b1000101 aaaab
b1010010 aaaac
b1011000 aaaae

#801442861674
b1001001 aaaab
b1000101 aaaac

#801442862674
b1011000 aaaac
b1000011 aaaad

#801771940674
b1000101 aaaad

#810000000000
b1010010 aaaab

#810396020674
b1011000 aaaad
b1000101 aaaae

#810442860674
b1000101 aaaab
b1010010 aaaac
b1011000 aaaae

#810442861674
b1001001 aaaab
b1000101 aaaac

#810442862674
b1011000 aaaac
b1000011 aaaad

#810771940674
b1000101 aaaad

#819000000000
b1010010 aaaab

#819396020674
b1011000 aaaad
b1000101 aaaae

#819442860674
b1000101 aaaab
b1010010 aaaac
b1011000 aaaae

#819442861674
b1001001 aaaab
b1000101 aaaac

#819442862674
b1011000 aaaac
b1000011 aaaad

#819771940674
b1000101 aaaad

#828000000000
b1010010 aaaab

#828396020674
b1011000 aaaad
b1000101 aaaae

#828442860674
b1000101 aaaab
b1010010 aaaac
b1011000 aaaae

#828442861674
b1001001 aaaab
b1000101 aaaac

#828442862674
b1011000 aaaac
b1000011 aaaad

#828771940674
b1000101 aaaad

#837000000000
b1010010 aaaab

#837396020674
b1011000 aaaad
b1000101 aaaae

#837442860674
b1000101 aaaab
b1010010 aaaac
b1011000 aaaae

#837442861674
b1001001 aaaab
b1000101 aaaac

#837442862674
b1011000 aaaac
b1000011 aaaad

#837771940674
b1000101 aaaad

#846000000000
b1010010 aaaab

#846396020674
b1011000 aaaad
b1000101 aaaae

#846442860674
b1000101 aaaab
b1010010 aaaac
b1011000 aaaae

#846442861674
b1001001 aaaab
b1000101 aaaac

#846442862674
b1011000 aaaac
b1000011 aaaad

#846771940674
b1000101 aaaad

#855000000000
b1010010 aaaab

#855396020674
b1011000 aaaad
b1000101 aaaae

#855442860674
b1000101 aaaab
b1010010 aaaac
b1011000 aaaae

#855442861674
b1001001 aaaab
b1000101 aaaac

#855442862674
b1011000 aaaac
b1000011 aaaad

#855771940674
b1000101 aaaad

#864000000000
b1010010 aaaab

#864396020674
b1011000 aaaad
b1000101 aaaae

#864442860674
b1000101 aaaab
b1010010 aaaac
b1011000 aaaae

#864442861674
b1001001 aaaab
b1000101 aaaac

#864442862674
b1011000 aaaac
b1000011 aaaad

#864771940674
b1000101 aaaad

#873000000000
b1010010 aaaab

#873396020674
b1011000 aaaad
b1000101 aaaae

#873442860674
b1000101 aaaab
b1010010 aaaac
b1011000 aaaae

#873442861674
b1001001 aaaab
b1000101 aaaac

#873442862674
b1011000 aaaac
b1000011 aaaad

#873771940674
b1000101 aaaad

#882000000000
b1010010 aaaab

#882396020674
b1011000 aaaad
b1000101 aaaae

#882442860674
b1000101 aaaab
b1010010 aaaac
b1011000 aaaae

#882442861674
b1001001 aaaab
b1000101 aaaac

#882442862674
b1011000 aaaac
b1000011 aaaad

#882771940674
b1000101 aaaad

#891000000000
b1010010 aaaab

#891396020674
b1011000 aaaad
b1000101 aaaae

#891442860674
b1000101 aaaab
b1010010 aaaac
b1011000 aaaae

#891442861674
b1001001 aaaab
b1000101 aaaac

#891442862674
b1011000 aaaac
b1000011 aaaad

#891771940674
b1000101 aaaad

#900000000000
b1010010 aaaab

#900396020674
b1011000 aaaad
b1000101 aaaae

