examples/VAD_INTEGRATION/rtos1_trace.vcd
$comment
File created by KisTA library.
 Author: F.Herrera
 Institution: KTH
 Date: 2013
	All rights reserved by the authors, till further definition of the license.
$end

$comment
Tracing options used include to trace Task State signals,  Scheduler signals 
$end

$date
     Aug 31, 2016       14:28:27
$end

$version
 SystemC 2.3.1-Accellera --- Mar 29 2016 16:10:40
$end

$timescale
     1 ps
$end

$scope module SystemC $end
$var wire    8  aaaaa  sched1 [7:0]  $end
$var wire    8  aaaab  D1_IN [7:0]  $end
$var wire    8  aaaac  D1_OUT [7:0]  $end
$var wire    8  aaaad  T1 [7:0]  $end
$var wire    8  aaaae  T2 [7:0]  $end
$var wire    8  aaaaf  T3 [7:0]  $end
$var wire    8  aaaag  T4 [7:0]  $end
$upscope $end
$enddefinitions  $end

$comment
All initial values are dumped below at time 0 sec = 0 timescale units.
$end

$dumpvars
b1001001 aaaaa
b1000101 aaaab
b1010010 aaaac
b1011000 aaaad
b1011000 aaaae
b1011000 aaaaf
b1011000 aaaag
$end

#1000
b1001001 aaaab
b1000101 aaaad
b1010010 aaaaf

#42181000
b1011000 aaaad
b1000101 aaaae

#85721000
b1011000 aaaae
b1000101 aaaaf

#165841000
b1011000 aaaaf
b1000101 aaaag

#1541241000
b1000101 aaaac
b1011000 aaaag

#1541242000
b1011000 aaaac
b1000011 aaaad

#8670920000
b1000101 aaaab
b1011000 aaaad

#8670921000
b1001001 aaaab
b1000101 aaaad

#8713101000
b1000011 aaaad

#9507621000
b1011000 aaaad
b1000101 aaaae

#9534712000
b1010010 aaaaf

#9551161000
b1010010 aaaac
b1011000 aaaae
b1000101 aaaaf

#9631281000
b1011000 aaaaf
b1000101 aaaag

#11006681000
b1000101 aaaac
b1011000 aaaag

#11006682000
b1011000 aaaac
b1000011 aaaad

#17341840000
b1000101 aaaab
b1011000 aaaad

#17341841000
b1001001 aaaab
b1000101 aaaad

#17384021000
b1000011 aaaad

#18973061000
b1011000 aaaad
b1000101 aaaae

#19000152000
b1010010 aaaaf

#19016601000
b1010010 aaaac
b1011000 aaaae
b1000101 aaaaf

#19096721000
b1011000 aaaaf
b1000101 aaaag

#20472121000
b1000101 aaaac
b1011000 aaaag

#20472122000
b1011000 aaaac
b1000011 aaaad

#26012760000
b1000101 aaaab
b1011000 aaaad

#26012761000
b1001001 aaaab
b1000101 aaaad

#26054941000
b1000011 aaaad

#28438501000
b1011000 aaaad
b1000101 aaaae

#28465592000
b1010010 aaaaf

#28482041000
b1010010 aaaac
b1011000 aaaae
b1000101 aaaaf

#28562161000
b1011000 aaaaf
b1000101 aaaag

#29937561000
b1000101 aaaac
b1011000 aaaag

#29937562000
b1011000 aaaac
b1000011 aaaad

#34683680000
b1000101 aaaab
b1011000 aaaad

#34683681000
b1001001 aaaab
b1000101 aaaad

#34725861000
b1000011 aaaad

#37903941000
b1011000 aaaad
b1000101 aaaae

#37931032000
b1010010 aaaaf

#37947481000
b1010010 aaaac
b1011000 aaaae
b1000101 aaaaf

#38027601000
b1011000 aaaaf
b1000101 aaaag

#39403001000
b1000101 aaaac
b1011000 aaaag

#39403002000
b1011000 aaaac
b1000011 aaaad

#43354600000
b1000101 aaaab
b1011000 aaaad

#43354601000
b1001001 aaaab
b1000101 aaaad

#43396781000
b1000011 aaaad

#47369381000
b1011000 aaaad
b1000101 aaaae

#47396472000
b1010010 aaaaf

#47412921000
b1010010 aaaac
b1011000 aaaae
b1000101 aaaaf

#47493041000
b1011000 aaaaf
b1000101 aaaag

#48868441000
b1000101 aaaac
b1011000 aaaag

#48868442000
b1011000 aaaac
b1000011 aaaad

#52025520000
b1000101 aaaab
b1011000 aaaad

#52025521000
b1001001 aaaab
b1000101 aaaad

#52067701000
b1000011 aaaad

#56834821000
b1011000 aaaad
b1000101 aaaae

#56861912000
b1010010 aaaaf

#56878361000
b1010010 aaaac
b1011000 aaaae
b1000101 aaaaf

#56958481000
b1011000 aaaaf
b1000101 aaaag

#58333881000
b1000101 aaaac
b1011000 aaaag

#58333882000
b1011000 aaaac
b1000011 aaaad

#60696440000
b1000101 aaaab
b1011000 aaaad

#60696441000
b1001001 aaaab
b1000101 aaaad

#60738621000
b1000011 aaaad

#66300261000
b1011000 aaaad
b1000101 aaaae

#66327352000
b1010010 aaaaf

#66343801000
b1010010 aaaac
b1011000 aaaae
b1000101 aaaaf

#66423921000
b1011000 aaaaf
b1000101 aaaag

#67799321000
b1000101 aaaac
b1011000 aaaag

#67799322000
b1011000 aaaac
b1000011 aaaad

#69367360000
b1000101 aaaab
b1011000 aaaad

#69367361000
b1001001 aaaab
b1000101 aaaad

#69409541000
b1000011 aaaad

#75765701000
b1011000 aaaad
b1000101 aaaae

#75792792000
b1010010 aaaaf

#75809241000
b1010010 aaaac
b1011000 aaaae
b1000101 aaaaf

#75889361000
b1011000 aaaaf
b1000101 aaaag

#77264761000
b1000101 aaaac
b1011000 aaaag

#77264762000
b1011000 aaaac
b1000011 aaaad

#78038280000
b1000101 aaaab
b1011000 aaaad

#78038281000
b1001001 aaaab
b1000101 aaaad

#78080461000
b1000011 aaaad

#85231141000
b1011000 aaaad
b1000101 aaaae

#85258232000
b1010010 aaaaf

#85274681000
b1010010 aaaac
b1011000 aaaae
b1000101 aaaaf

#85354801000
b1011000 aaaaf
b1000101 aaaag

#86709200000
b1010010 aaaab

#86730201000
b1000101 aaaab
b1011000 aaaag

#86730202000
b1001001 aaaab
b1000101 aaaad

#86772382000
b1000101 aaaac
b1011000 aaaad

#86772383000
b1011000 aaaac
b1000011 aaaad

#94696581000
b1011000 aaaad
b1000101 aaaae

#94723672000
b1010010 aaaaf

#94740121000
b1010010 aaaac
b1011000 aaaae
b1000101 aaaaf

#94820241000
b1011000 aaaaf
b1000101 aaaag

#95380120000
b1010010 aaaab

#95380121000
b1000101 aaaaf
b1010010 aaaag

#95460241000
b1011000 aaaaf
b1000101 aaaag

#97651161000
b1000101 aaaab
b1011000 aaaag

#97651162000
b1001001 aaaab
b1000101 aaaad

#97693342000
b1000101 aaaac
b1011000 aaaad

#97693343000
b1011000 aaaac
b1000011 aaaad

#104051040000
b1000101 aaaab
b1011000 aaaad

#104051041000
b1001001 aaaab
b1000101 aaaad

#104093221000
b1000011 aaaad

#112721960000
b1000101 aaaab
b1011000 aaaad

#112721961000
b1001001 aaaab
b1000101 aaaad

#112764141000
b1000011 aaaad

#112866221000
b1011000 aaaad
b1000101 aaaae

#112909761000
b1000101 aaaac
b1011000 aaaae

#112909762000
b1011000 aaaac
b1000011 aaaad

#112913061000
b1011000 aaaad
b1000101 aaaae

#112940152000
b1010010 aaaaf

#112956601000
b1010010 aaaac
b1011000 aaaae
b1000101 aaaaf

#113036721000
b1010010 aaaag

#113116841000
b1011000 aaaaf
b1000101 aaaag

#115867641000
b1000101 aaaac
b1011000 aaaag

#115867642000
b1011000 aaaac
b1000011 aaaad

#121392880000
b1000101 aaaab
b1011000 aaaad

#121392881000
b1001001 aaaab
b1000101 aaaad

#121435061000
b1000011 aaaad

#130063800000
b1000101 aaaab
b1011000 aaaad

#130063801000
b1001001 aaaab
b1000101 aaaad

#130105981000
b1000011 aaaad

#131082701000
b1011000 aaaad
b1000101 aaaae

#131126241000
b1000101 aaaac
b1011000 aaaae

#131126242000
b1011000 aaaac
b1000011 aaaad

#131129541000
b1011000 aaaad
b1000101 aaaae

#131156632000
b1010010 aaaaf

#131173081000
b1010010 aaaac
b1011000 aaaae
b1000101 aaaaf

#131253201000
b1010010 aaaag

#131333321000
b1011000 aaaaf
b1000101 aaaag

#134084121000
b1000101 aaaac
b1011000 aaaag

#134084122000
b1011000 aaaac
b1000011 aaaad

#138734720000
b1000101 aaaab
b1011000 aaaad

#138734721000
b1001001 aaaab
b1000101 aaaad

#138776901000
b1000011 aaaad

#147405640000
b1000101 aaaab
b1011000 aaaad

#147405641000
b1001001 aaaab
b1000101 aaaad

#147447821000
b1000011 aaaad

#149299181000
b1011000 aaaad
b1000101 aaaae

#149342721000
b1000101 aaaac
b1011000 aaaae

#149342722000
b1011000 aaaac
b1000011 aaaad

#149346021000
b1011000 aaaad
b1000101 aaaae

#149373112000
b1010010 aaaaf

#149389561000
b1010010 aaaac
b1011000 aaaae
b1000101 aaaaf

#149469681000
b1010010 aaaag

#149549801000
b1011000 aaaaf
b1000101 aaaag

#152300601000
b1000101 aaaac
b1011000 aaaag

#152300602000
b1011000 aaaac
b1000011 aaaad

#156076560000
b1000101 aaaab
b1011000 aaaad

#156076561000
b1001001 aaaab
b1000101 aaaad

#156118741000
b1000011 aaaad

#164747480000
b1000101 aaaab
b1011000 aaaad

#164747481000
b1001001 aaaab
b1000101 aaaad

#164789661000
b1000011 aaaad

#167515661000
b1011000 aaaad
b1000101 aaaae

#167559201000
b1000101 aaaac
b1011000 aaaae

#167559202000
b1011000 aaaac
b1000011 aaaad

#167562501000
b1011000 aaaad
b1000101 aaaae

#167589592000
b1010010 aaaaf

#167606041000
b1010010 aaaac
b1011000 aaaae
b1000101 aaaaf

#167686161000
b1010010 aaaag

#167766281000
b1011000 aaaaf
b1000101 aaaag

#170517081000
b1000101 aaaac
b1011000 aaaag

#170517082000
b1011000 aaaac
b1000011 aaaad

#173418400000
b1000101 aaaab
b1011000 aaaad

#173418401000
b1001001 aaaab
b1000101 aaaad

#173460581000
b1000011 aaaad

#182089320000
b1000101 aaaab
b1011000 aaaad

#182089321000
b1001001 aaaab
b1000101 aaaad

#182131501000
b1000011 aaaad

#185732141000
b1011000 aaaad
b1000101 aaaae

#185775681000
b1000101 aaaac
b1011000 aaaae

#185775682000
b1011000 aaaac
b1000011 aaaad

#185778981000
b1011000 aaaad
b1000101 aaaae

#185806072000
b1010010 aaaaf

#185822521000
b1010010 aaaac
b1011000 aaaae
b1000101 aaaaf

#185902641000
b1010010 aaaag

#185982761000
b1011000 aaaaf
b1000101 aaaag

#188733561000
b1000101 aaaac
b1011000 aaaag

#188733562000
b1011000 aaaac
b1000011 aaaad

#190760240000
b1000101 aaaab
b1011000 aaaad

#190760241000
b1001001 aaaab
b1000101 aaaad

#190802421000
b1000011 aaaad

#199431160000
b1000101 aaaab
b1011000 aaaad

#199431161000
b1001001 aaaab
b1000101 aaaad

#199473341000
b1000011 aaaad

#203948621000
b1011000 aaaad
b1000101 aaaae

#203992161000
b1000101 aaaac
b1011000 aaaae

#203992162000
b1011000 aaaac
b1000011 aaaad

#203995461000
b1011000 aaaad
b1000101 aaaae

#204022552000
b1010010 aaaaf

#204039001000
b1010010 aaaac
b1011000 aaaae
b1000101 aaaaf

#204119121000
b1010010 aaaag

#204199241000
b1011000 aaaaf
b1000101 aaaag

#206950041000
b1000101 aaaac
b1011000 aaaag

#206950042000
b1011000 aaaac
b1000011 aaaad

#208102080000
b1000101 aaaab
b1011000 aaaad

#208102081000
b1001001 aaaab
b1000101 aaaad

#208144261000
b1000011 aaaad

#216773000000
b1000101 aaaab
b1011000 aaaad

#216773001000
b1001001 aaaab
b1000101 aaaad

#216815181000
b1000011 aaaad

#222165101000
b1011000 aaaad
b1000101 aaaae

#222208641000
b1000101 aaaac
b1011000 aaaae

#222208642000
b1011000 aaaac
b1000011 aaaad

#222211941000
b1011000 aaaad
b1000101 aaaae

#222239032000
b1010010 aaaaf

#222255481000
b1010010 aaaac
b1011000 aaaae
b1000101 aaaaf

#222335601000
b1010010 aaaag

#222415721000
b1011000 aaaaf
b1000101 aaaag

#225166521000
b1000101 aaaac
b1011000 aaaag

#225166522000
b1011000 aaaac
b1000011 aaaad

#225443920000
b1000101 aaaab
b1011000 aaaad

#225443921000
b1001001 aaaab
b1000101 aaaad

#225486101000
b1000011 aaaad

#234114840000
b1000101 aaaab
b1011000 aaaad

#234114841000
b1001001 aaaab
b1000101 aaaad

#234157021000
b1000011 aaaad

#240381581000
b1011000 aaaad
b1000101 aaaae

#240425121000
b1000101 aaaac
b1011000 aaaae

#240425122000
b1011000 aaaac
b1000011 aaaad

#240428421000
b1011000 aaaad
b1000101 aaaae

#240455512000
b1010010 aaaaf

#240471961000
b1010010 aaaac
b1011000 aaaae
b1000101 aaaaf

#240552081000
b1010010 aaaag

#240632201000
b1011000 aaaaf
b1000101 aaaag

#242785760000
b1010010 aaaab

#243383001000
b1000101 aaaab
b1011000 aaaag

#243383002000
b1001001 aaaab
b1000101 aaaad

#243425182000
b1000101 aaaac
b1011000 aaaad

#243425183000
b1011000 aaaac
b1000011 aaaad

#251456680000
b1000101 aaaab
b1011000 aaaad

#251456681000
b1001001 aaaab
b1000101 aaaad

#251498861000
b1000011 aaaad

#258598061000
b1011000 aaaad
b1000101 aaaae

#258641601000
b1000101 aaaac
b1011000 aaaae

#258641602000
b1011000 aaaac
b1000011 aaaad

#258644901000
b1011000 aaaad
b1000101 aaaae

#258671992000
b1010010 aaaaf

#258688441000
b1010010 aaaac
b1011000 aaaae
b1000101 aaaaf

#258768561000
b1010010 aaaag

#258848681000
b1011000 aaaaf
b1000101 aaaag

#260127600000
b1010010 aaaab

#261599481000
b1000101 aaaab
b1011000 aaaag

#261599482000
b1001001 aaaab
b1000101 aaaad

#261641662000
b1000101 aaaac
b1011000 aaaad

#261641663000
b1011000 aaaac
b1000011 aaaad

#268798520000
b1000101 aaaab
b1011000 aaaad

#268798521000
b1001001 aaaab
b1000101 aaaad

#268840701000
b1000011 aaaad

#276814541000
b1011000 aaaad
b1000101 aaaae

#276858081000
b1000101 aaaac
b1011000 aaaae

#276858082000
b1011000 aaaac
b1000011 aaaad

#276861381000
b1011000 aaaad
b1000101 aaaae

#276888472000
b1010010 aaaaf

#276904921000
b1010010 aaaac
b1011000 aaaae
b1000101 aaaaf

#276985041000
b1010010 aaaag

#277065161000
b1011000 aaaaf
b1000101 aaaag

#277469440000
b1010010 aaaab

#277469441000
b1000101 aaaaf
b1010010 aaaag

#277549561000
b1011000 aaaaf
b1000101 aaaag

#281271481000
b1000101 aaaab
b1011000 aaaag

#281271482000
b1001001 aaaab
b1000101 aaaad

#281313662000
b1000101 aaaac
b1011000 aaaad

#281313663000
b1011000 aaaac
b1000011 aaaad

#286140360000
b1000101 aaaab
b1011000 aaaad

#286140361000
b1001001 aaaab
b1000101 aaaad

#286182541000
b1000011 aaaad

#294811280000
b1000101 aaaab
b1011000 aaaad

#294811281000
b1001001 aaaab
b1000101 aaaad

#294853461000
b1000011 aaaad

#303482200000
b1000101 aaaab
b1011000 aaaad

#303482201000
b1001001 aaaab
b1000101 aaaad

#303524381000
b1000011 aaaad

#303735221000
b1011000 aaaad
b1000101 aaaae

#303778761000
b1000101 aaaac
b1011000 aaaae

#303778762000
b1011000 aaaac
b1000011 aaaad

#303782061000
b1011000 aaaad
b1000101 aaaae

#303825601000
b1000101 aaaac
b1011000 aaaae

#303825602000
b1011000 aaaac
b1000011 aaaad

#303828901000
b1011000 aaaad
b1000101 aaaae

#303855992000
b1010010 aaaaf

#303872441000
b1010010 aaaac
b1011000 aaaae
b1000101 aaaaf

#303952561000
b1010010 aaaag

#304112801000
b1011000 aaaaf
b1000101 aaaag

#308239001000
b1000101 aaaac
b1011000 aaaag

#308239002000
b1011000 aaaac
b1000011 aaaad

#312153120000
b1000101 aaaab
b1011000 aaaad

#312153121000
b1001001 aaaab
b1000101 aaaad

#312195301000
b1000011 aaaad

#320824040000
b1000101 aaaab
b1011000 aaaad

#320824041000
b1001001 aaaab
b1000101 aaaad

#320866221000
b1000011 aaaad

#329494960000
b1000101 aaaab
b1011000 aaaad

#329494961000
b1001001 aaaab
b1000101 aaaad

#329537141000
b1000011 aaaad

#330702741000
b1011000 aaaad
b1000101 aaaae

#330746281000
b1000101 aaaac
b1011000 aaaae

#330746282000
b1011000 aaaac
b1000011 aaaad

#330749581000
b1011000 aaaad
b1000101 aaaae

#330793121000
b1000101 aaaac
b1011000 aaaae

#330793122000
b1011000 aaaac
b1000011 aaaad

#330796421000
b1011000 aaaad
b1000101 aaaae

#330823512000
b1010010 aaaaf

#330839961000
b1010010 aaaac
b1011000 aaaae
b1000101 aaaaf

#330920081000
b1010010 aaaag

#331080321000
b1011000 aaaaf
b1000101 aaaag

#335206521000
b1000101 aaaac
b1011000 aaaag

#335206522000
b1011000 aaaac
b1000011 aaaad

#338165880000
b1000101 aaaab
b1011000 aaaad

#338165881000
b1001001 aaaab
b1000101 aaaad

#338208061000
b1000011 aaaad

#346836800000
b1000101 aaaab
b1011000 aaaad

#346836801000
b1001001 aaaab
b1000101 aaaad

#346878981000
b1000011 aaaad

#355507720000
b1000101 aaaab
b1011000 aaaad

#355507721000
b1001001 aaaab
b1000101 aaaad

#355549901000
b1000011 aaaad

#357670261000
b1011000 aaaad
b1000101 aaaae

#357713801000
b1000101 aaaac
b1011000 aaaae

#357713802000
b1011000 aaaac
b1000011 aaaad

#357717101000
b1011000 aaaad
b1000101 aaaae

#357760641000
b1000101 aaaac
b1011000 aaaae

#357760642000
b1011000 aaaac
b1000011 aaaad

#357763941000
b1011000 aaaad
b1000101 aaaae

#357791032000
b1010010 aaaaf

#357807481000
b1010010 aaaac
b1011000 aaaae
b1000101 aaaaf

#357887601000
b1010010 aaaag

#358047841000
b1011000 aaaaf
b1000101 aaaag

#362174041000
b1000101 aaaac
b1011000 aaaag

#362174042000
b1011000 aaaac
b1000011 aaaad

#364178640000
b1000101 aaaab
b1011000 aaaad

#364178641000
b1001001 aaaab
b1000101 aaaad

#364220821000
b1000011 aaaad

#372849560000
b1000101 aaaab
b1011000 aaaad

#372849561000
b1001001 aaaab
b1000101 aaaad

#372891741000
b1000011 aaaad

#381520480000
b1000101 aaaab
b1011000 aaaad

#381520481000
b1001001 aaaab
b1000101 aaaad

#381562661000
b1000011 aaaad

#384637781000
b1011000 aaaad
b1000101 aaaae

#384681321000
b1000101 aaaac
b1011000 aaaae

#384681322000
b1011000 aaaac
b1000011 aaaad

#384684621000
b1011000 aaaad
b1000101 aaaae

#384728161000
b1000101 aaaac
b1011000 aaaae

#384728162000
b1011000 aaaac
b1000011 aaaad

#384731461000
b1011000 aaaad
b1000101 aaaae

#384758552000
b1010010 aaaaf

#384775001000
b1010010 aaaac
b1011000 aaaae
b1000101 aaaaf

#384855121000
b1010010 aaaag

#385015361000
b1011000 aaaaf
b1000101 aaaag

#389141561000
b1000101 aaaac
b1011000 aaaag

#389141562000
b1011000 aaaac
b1000011 aaaad

#390191400000
b1000101 aaaab
b1011000 aaaad

#390191401000
b1001001 aaaab
b1000101 aaaad

#390233581000
b1000011 aaaad

#398862320000
b1000101 aaaab
b1011000 aaaad

#398862321000
b1001001 aaaab
b1000101 aaaad

#398904501000
b1000011 aaaad

#407533240000
b1000101 aaaab
b1011000 aaaad

#407533241000
b1001001 aaaab
b1000101 aaaad

#407575421000
b1000011 aaaad

#411605301000
b1011000 aaaad
b1000101 aaaae

#411648841000
b1000101 aaaac
b1011000 aaaae

#411648842000
b1011000 aaaac
b1000011 aaaad

#411652141000
b1011000 aaaad
b1000101 aaaae

#411695681000
b1000101 aaaac
b1011000 aaaae

#411695682000
b1011000 aaaac
b1000011 aaaad

#411698981000
b1011000 aaaad
b1000101 aaaae

#411726072000
b1010010 aaaaf

#411742521000
b1010010 aaaac
b1011000 aaaae
b1000101 aaaaf

#411822641000
b1010010 aaaag

#411982881000
b1011000 aaaaf
b1000101 aaaag

#416109081000
b1000101 aaaac
b1011000 aaaag

#416109082000
b1011000 aaaac
b1000011 aaaad

#416204160000
b1000101 aaaab
b1011000 aaaad

#416204161000
b1001001 aaaab
b1000101 aaaad

#416246341000
b1000011 aaaad

#424875080000
b1000101 aaaab
b1011000 aaaad

#424875081000
b1001001 aaaab
b1000101 aaaad

#424917261000
b1000011 aaaad

#433546000000
b1000101 aaaab
b1011000 aaaad

#433546001000
b1001001 aaaab
b1000101 aaaad

#433588181000
b1000011 aaaad

#438572821000
b1011000 aaaad
b1000101 aaaae

#438616361000
b1000101 aaaac
b1011000 aaaae

#438616362000
b1011000 aaaac
b1000011 aaaad

#438619661000
b1011000 aaaad
b1000101 aaaae

#438663201000
b1000101 aaaac
b1011000 aaaae

#438663202000
b1011000 aaaac
b1000011 aaaad

#438666501000
b1011000 aaaad
b1000101 aaaae

#438693592000
b1010010 aaaaf

#438710041000
b1010010 aaaac
b1011000 aaaae
b1000101 aaaaf

#438790161000
b1010010 aaaag

#438950401000
b1011000 aaaaf
b1000101 aaaag

#442216920000
b1010010 aaaab

#443076601000
b1000101 aaaab
b1011000 aaaag

#443076602000
b1001001 aaaab
b1000101 aaaad

#443118782000
b1000101 aaaac
b1011000 aaaad

#443118783000
b1011000 aaaac
b1000011 aaaad

#450887840000
b1000101 aaaab
b1011000 aaaad

#450887841000
b1001001 aaaab
b1000101 aaaad

#450930021000
b1000011 aaaad

#459558760000
b1000101 aaaab
b1011000 aaaad

#459558761000
b1001001 aaaab
b1000101 aaaad

#459600941000
b1000011 aaaad

#465540341000
b1011000 aaaad
b1000101 aaaae

#465583881000
b1000101 aaaac
b1011000 aaaae

#465583882000
b1011000 aaaac
b1000011 aaaad

#465587181000
b1011000 aaaad
b1000101 aaaae

#465630721000
b1000101 aaaac
b1011000 aaaae

#465630722000
b1011000 aaaac
b1000011 aaaad

#465634021000
b1011000 aaaad
b1000101 aaaae

#465661112000
b1010010 aaaaf

#465677561000
b1010010 aaaac
b1011000 aaaae
b1000101 aaaaf

#465757681000
b1010010 aaaag

#465917921000
b1011000 aaaaf
b1000101 aaaag

#468229680000
b1010010 aaaab

#470044121000
b1000101 aaaab
b1011000 aaaag

#470044122000
b1001001 aaaab
b1000101 aaaad

#470086302000
b1000101 aaaac
b1011000 aaaad

#470086303000
b1011000 aaaac
b1000011 aaaad

#476900600000
b1000101 aaaab
b1011000 aaaad

#476900601000
b1001001 aaaab
b1000101 aaaad

#476942781000
b1000011 aaaad

#485571520000
b1000101 aaaab
b1011000 aaaad

#485571521000
b1001001 aaaab
b1000101 aaaad

#485613701000
b1000011 aaaad

#492507861000
b1011000 aaaad
b1000101 aaaae

#492551401000
b1000101 aaaac
b1011000 aaaae

#492551402000
b1011000 aaaac
b1000011 aaaad

#492554701000
b1011000 aaaad
b1000101 aaaae

#492598241000
b1000101 aaaac
b1011000 aaaae

#492598242000
b1011000 aaaac
b1000011 aaaad

#492601541000
b1011000 aaaad
b1000101 aaaae

#492628632000
b1010010 aaaaf

#492645081000
b1010010 aaaac
b1011000 aaaae
b1000101 aaaaf

#492725201000
b1010010 aaaag

#492885441000
b1011000 aaaaf
b1000101 aaaag

#494242440000
b1010010 aaaab

#497011641000
b1000101 aaaab
b1011000 aaaag

#497011642000
b1001001 aaaab
b1000101 aaaad

#497053822000
b1000101 aaaac
b1011000 aaaad

#497053823000
b1011000 aaaac
b1000011 aaaad

#502913360000
b1000101 aaaab
b1011000 aaaad

#502913361000
b1001001 aaaab
b1000101 aaaad

#502955541000
b1000011 aaaad

#511584280000
b1000101 aaaab
b1011000 aaaad

#511584281000
b1001001 aaaab
b1000101 aaaad

#511626461000
b1000011 aaaad

#519475381000
b1011000 aaaad
b1000101 aaaae

#519518921000
b1000101 aaaac
b1011000 aaaae

#519518922000
b1011000 aaaac
b1000011 aaaad

#519522221000
b1011000 aaaad
b1000101 aaaae

#519565761000
b1000101 aaaac
b1011000 aaaae

#519565762000
b1011000 aaaac
b1000011 aaaad

#519569061000
b1011000 aaaad
b1000101 aaaae

#519596152000
b1010010 aaaaf

#519612601000
b1010010 aaaac
b1011000 aaaae
b1000101 aaaaf

#519692721000
b1010010 aaaag

#519852961000
b1011000 aaaaf
b1000101 aaaag

#520255200000
b1010010 aaaab

#520255201000
b1000101 aaaaf
b1010010 aaaag

#520335321000
b1011000 aaaaf
b1000101 aaaag

#525434681000
b1000101 aaaab
b1011000 aaaag

#525434682000
b1001001 aaaab
b1000101 aaaad

#525476862000
b1000101 aaaac
b1011000 aaaad

#525476863000
b1011000 aaaac
b1000011 aaaad

#528926120000
b1000101 aaaab
b1011000 aaaad

#528926121000
b1001001 aaaab
b1000101 aaaad

#528968301000
b1000011 aaaad

#537597040000
b1000101 aaaab
b1011000 aaaad

#537597041000
b1001001 aaaab
b1000101 aaaad

#537639221000
b1000011 aaaad

#546267960000
b1000101 aaaab
b1011000 aaaad

#546267961000
b1001001 aaaab
b1000101 aaaad

#546310141000
b1000011 aaaad

#554938880000
b1000101 aaaab
b1011000 aaaad

#554938881000
b1001001 aaaab
b1000101 aaaad

#554981061000
b1000011 aaaad

#555147101000
b1011000 aaaad
b1000101 aaaae

#555190641000
b1000101 aaaac
b1011000 aaaae

#555190642000
b1011000 aaaac
b1000011 aaaad

#555193941000
b1011000 aaaad
b1000101 aaaae

#555237481000
b1000101 aaaac
b1011000 aaaae

#555237482000
b1011000 aaaac
b1000011 aaaad

#555240781000
b1011000 aaaad
b1000101 aaaae

#555284321000
b1000101 aaaac
b1011000 aaaae

#555284322000
b1011000 aaaac
b1000011 aaaad

#555287621000
b1011000 aaaad
b1000101 aaaae

#555314712000
b1010010 aaaaf

#555331161000
b1010010 aaaac
b1011000 aaaae
b1000101 aaaaf

#555411281000
b1010010 aaaag

#555651641000
b1011000 aaaaf
b1000101 aaaag

#561153241000
b1000101 aaaac
b1011000 aaaag

#561153242000
b1011000 aaaac
b1000011 aaaad

#563609800000
b1000101 aaaab
b1011000 aaaad

#563609801000
b1001001 aaaab
b1000101 aaaad

#563651981000
b1000011 aaaad

#572280720000
b1000101 aaaab
b1011000 aaaad

#572280721000
b1001001 aaaab
b1000101 aaaad

#572322901000
b1000011 aaaad

#580951640000
b1000101 aaaab
b1011000 aaaad

#580951641000
b1001001 aaaab
b1000101 aaaad

#580993821000
b1000011 aaaad

#589622560000
b1000101 aaaab
b1011000 aaaad

#589622561000
b1001001 aaaab
b1000101 aaaad

#589664741000
b1000011 aaaad

#590865661000
b1011000 aaaad
b1000101 aaaae

#590909201000
b1000101 aaaac
b1011000 aaaae

#590909202000
b1011000 aaaac
b1000011 aaaad

#590912501000
b1011000 aaaad
b1000101 aaaae

#590956041000
b1000101 aaaac
b1011000 aaaae

#590956042000
b1011000 aaaac
b1000011 aaaad

#590959341000
b1011000 aaaad
b1000101 aaaae

#591002881000
b1000101 aaaac
b1011000 aaaae

#591002882000
b1011000 aaaac
b1000011 aaaad

#591006181000
b1011000 aaaad
b1000101 aaaae

#591033272000
b1010010 aaaaf

#591049721000
b1010010 aaaac
b1011000 aaaae
b1000101 aaaaf

#591129841000
b1010010 aaaag

#591370201000
b1011000 aaaaf
b1000101 aaaag

#596871801000
b1000101 aaaac
b1011000 aaaag

#596871802000
b1011000 aaaac
b1000011 aaaad

#598293480000
b1000101 aaaab
b1011000 aaaad

#598293481000
b1001001 aaaab
b1000101 aaaad

#598335661000
b1000011 aaaad

#606964400000
b1000101 aaaab
b1011000 aaaad

#606964401000
b1001001 aaaab
b1000101 aaaad

#607006581000
b1000011 aaaad

#615635320000
b1000101 aaaab
b1011000 aaaad

#615635321000
b1001001 aaaab
b1000101 aaaad

#615677501000
b1000011 aaaad

#624306240000
b1000101 aaaab
b1011000 aaaad

#624306241000
b1001001 aaaab
b1000101 aaaad

#624348421000
b1000011 aaaad

#626584221000
b1011000 aaaad
b1000101 aaaae

#626627761000
b1000101 aaaac
b1011000 aaaae

#626627762000
b1011000 aaaac
b1000011 aaaad

#626631061000
b1011000 aaaad
b1000101 aaaae

#626674601000
b1000101 aaaac
b1011000 aaaae

#626674602000
b1011000 aaaac
b1000011 aaaad

#626677901000
b1011000 aaaad
b1000101 aaaae

#626721441000
b1000101 aaaac
b1011000 aaaae

#626721442000
b1011000 aaaac
b1000011 aaaad

#626724741000
b1011000 aaaad
b1000101 aaaae

#626751832000
b1010010 aaaaf

#626768281000
b1010010 aaaac
b1011000 aaaae
b1000101 aaaaf

#626848401000
b1010010 aaaag

#627088761000
b1011000 aaaaf
b1000101 aaaag

#632590361000
b1000101 aaaac
b1011000 aaaag

#632590362000
b1011000 aaaac
b1000011 aaaad

#632977160000
b1000101 aaaab
b1011000 aaaad

#632977161000
b1001001 aaaab
b1000101 aaaad

#633019341000
b1000011 aaaad

#641648080000
b1000101 aaaab
b1011000 aaaad

#641648081000
b1001001 aaaab
b1000101 aaaad

#641690261000
b1000011 aaaad

#650319000000
b1000101 aaaab
b1011000 aaaad

#650319001000
b1001001 aaaab
b1000101 aaaad

#650361181000
b1000011 aaaad

#658989920000
b1000101 aaaab
b1011000 aaaad

#658989921000
b1001001 aaaab
b1000101 aaaad

#659032101000
b1000011 aaaad

#662302781000
b1011000 aaaad
b1000101 aaaae

#662346321000
b1000101 aaaac
b1011000 aaaae

#662346322000
b1011000 aaaac
b1000011 aaaad

#662349621000
b1011000 aaaad
b1000101 aaaae

#662393161000
b1000101 aaaac
b1011000 aaaae

#662393162000
b1011000 aaaac
b1000011 aaaad

#662396461000
b1011000 aaaad
b1000101 aaaae

#662440001000
b1000101 aaaac
b1011000 aaaae

#662440002000
b1011000 aaaac
b1000011 aaaad

#662443301000
b1011000 aaaad
b1000101 aaaae

#662470392000
b1010010 aaaaf

#662486841000
b1010010 aaaac
b1011000 aaaae
b1000101 aaaaf

#662566961000
b1010010 aaaag

#662807321000
b1011000 aaaaf
b1000101 aaaag

#667660840000
b1010010 aaaab

#668308921000
b1000101 aaaab
b1011000 aaaag

#668308922000
b1001001 aaaab
b1000101 aaaad

#668351102000
b1000101 aaaac
b1011000 aaaad

#668351103000
b1011000 aaaac
b1000011 aaaad

#676331760000
b1000101 aaaab
b1011000 aaaad

#676331761000
b1001001 aaaab
b1000101 aaaad

#676373941000
b1000011 aaaad

#685002680000
b1000101 aaaab
b1011000 aaaad

#685002681000
b1001001 aaaab
b1000101 aaaad

#685044861000
b1000011 aaaad

#693673600000
b1000101 aaaab
b1011000 aaaad

