examples/VAD_INTEGRATION/rtos1_trace.vcd
$comment
File created by KisTA library.
 Author: F.Herrera
 Institution: KTH
 Date: 2013
	All rights reserved by the authors, till further definition of the license.
$end

$comment
Tracing options used include to trace Task State signals,  Scheduler signals 
$end

$date
     Jul 21, 2016       11:14:01
$end

$version
 SystemC 2.3.1-Accellera --- Mar 29 2016 16:10:40
$end

$timescale
     1 ps
$end

$scope module SystemC $end
$var wire    8  aaaaa  sched1 [7:0]  $end
$var wire    8  aaaab  BE1 [7:0]  $end
$var wire    8  aaaac  BE2 [7:0]  $end
$var wire    8  aaaad  D1_IN [7:0]  $end
$var wire    8  aaaae  D1_OUT [7:0]  $end
$var wire    8  aaaaf  T1 [7:0]  $end
$var wire    8  aaaag  T2 [7:0]  $end
$upscope $end
$enddefinitions  $end

$comment
All initial values are dumped below at time 0 sec = 0 timescale units.
$end

$dumpvars
b1001001 aaaaa
b1010010 aaaab
b1010010 aaaac
b1000101 aaaad
b1010010 aaaae
b1011000 aaaaf
b1011000 aaaag
$end

#1000
b1001001 aaaad
b1000101 aaaaf

#42181000
b1011000 aaaaf
b1000101 aaaag

#85721000
b1000101 aaaae
b1011000 aaaag

#85722000
b1000101 aaaab
b1011000 aaaae

#1085722000
b1010010 aaaab
b1000101 aaaac

#2085722000
b1000101 aaaab
b1010010 aaaac

#3085722000
b1010010 aaaab
b1000101 aaaac

#4085722000
b1000101 aaaab
b1010010 aaaac

#5085722000
b1010010 aaaab
b1000101 aaaac

#6085722000
b1000101 aaaab
b1010010 aaaac

#7085722000
b1010010 aaaab
b1000101 aaaac

#8085722000
b1000101 aaaab
b1010010 aaaac

#9000000000
b1010010 aaaab
b1000101 aaaad

#9000001000
b1001001 aaaad
b1000101 aaaaf

#9042181000
b1000101 aaaac
b1011000 aaaaf

#9400140348
b1010010 aaaac
b1000101 aaaag

#9443680348
b1000101 aaaae
b1011000 aaaag

#9443681348
b1000101 aaaab
b1011000 aaaae

#9529403348
b1010010 aaaab
b1000101 aaaac

#10171444000
b1000101 aaaab
b1010010 aaaac

#11171444000
b1010010 aaaab
b1000101 aaaac

#12171444000
b1000101 aaaab
b1010010 aaaac

#13171444000
b1010010 aaaab
b1000101 aaaac

#14171444000
b1000101 aaaab
b1010010 aaaac

#15171444000
b1010010 aaaab
b1000101 aaaac

#16171444000
b1000101 aaaab
b1010010 aaaac

#17171444000
b1010010 aaaab
b1000101 aaaac

#18000000000
b1010010 aaaac
b1000101 aaaad

#18000001000
b1001001 aaaad
b1000101 aaaaf

#18042181000
b1000101 aaaab
b1011000 aaaaf

#18400140348
b1010010 aaaab
b1000101 aaaag

#18443680348
b1000101 aaaae
b1011000 aaaag

#18443681348
b1000101 aaaac
b1011000 aaaae

#18615125348
b1000101 aaaab
b1010010 aaaac

#19257166000
b1010010 aaaab
b1000101 aaaac

#20257166000
b1000101 aaaab
b1010010 aaaac

#21257166000
b1010010 aaaab
b1000101 aaaac

#22257166000
b1000101 aaaab
b1010010 aaaac

#23257166000
b1010010 aaaab
b1000101 aaaac

#24257166000
b1000101 aaaab
b1010010 aaaac

#25257166000
b1010010 aaaab
b1000101 aaaac

#26257166000
b1000101 aaaab
b1010010 aaaac

#27000000000
b1010010 aaaab
b1000101 aaaad

#27000001000
b1001001 aaaad
b1000101 aaaaf

#27042181000
b1000101 aaaac
b1011000 aaaaf

#27400140348
b1010010 aaaac
b1000101 aaaag

#27443680348
b1000101 aaaae
b1011000 aaaag

#27443681348
b1000101 aaaab
b1011000 aaaae

#27700847348
b1010010 aaaab
b1000101 aaaac

#28342888000
b1000101 aaaab
b1010010 aaaac

#29342888000
b1010010 aaaab
b1000101 aaaac

#30342888000
b1000101 aaaab
b1010010 aaaac

#31342888000
b1010010 aaaab
b1000101 aaaac

#32342888000
b1000101 aaaab
b1010010 aaaac

#33342888000
b1010010 aaaab
b1000101 aaaac

#34342888000
b1000101 aaaab
b1010010 aaaac

#35342888000
b1010010 aaaab
b1000101 aaaac

#36000000000
b1010010 aaaac
b1000101 aaaad

#36000001000
b1001001 aaaad
b1000101 aaaaf

#36042181000
b1000101 aaaab
b1011000 aaaaf

#36400140348
b1010010 aaaab
b1000101 aaaag

#36443680348
b1000101 aaaae
b1011000 aaaag

#36443681348
b1000101 aaaac
b1011000 aaaae

#36786569348
b1000101 aaaab
b1010010 aaaac

#37428610000
b1010010 aaaab
b1000101 aaaac

#38428610000
b1000101 aaaab
b1010010 aaaac

#39428610000
b1010010 aaaab
b1000101 aaaac

#40428610000
b1000101 aaaab
b1010010 aaaac

#41428610000
b1010010 aaaab
b1000101 aaaac

#42428610000
b1000101 aaaab
b1010010 aaaac

#43428610000
b1010010 aaaab
b1000101 aaaac

#44428610000
b1000101 aaaab
b1010010 aaaac

#45000000000
b1010010 aaaab
b1000101 aaaad

#45000001000
b1001001 aaaad
b1000101 aaaaf

#45042181000
b1000101 aaaac
b1011000 aaaaf

#45400140348
b1010010 aaaac
b1000101 aaaag

#45443680348
b1000101 aaaae
b1011000 aaaag

#45443681348
b1000101 aaaab
b1011000 aaaae

#45872291348
b1010010 aaaab
b1000101 aaaac

#46514332000
b1000101 aaaab
b1010010 aaaac

#47514332000
b1010010 aaaab
b1000101 aaaac

#48514332000
b1000101 aaaab
b1010010 aaaac

#49514332000
b1010010 aaaab
b1000101 aaaac

#50514332000
b1000101 aaaab
b1010010 aaaac

#51514332000
b1010010 aaaab
b1000101 aaaac

#52514332000
b1000101 aaaab
b1010010 aaaac

#53514332000
b1010010 aaaab
b1000101 aaaac

#54000000000
b1010010 aaaac
b1000101 aaaad

#54000001000
b1001001 aaaad
b1000101 aaaaf

#54042181000
b1000101 aaaab
b1011000 aaaaf

#54400140348
b1010010 aaaab
b1000101 aaaag

#54443680348
b1000101 aaaae
b1011000 aaaag

#54443681348
b1000101 aaaac
b1011000 aaaae

#54958013348
b1000101 aaaab
b1010010 aaaac

#55600054000
b1010010 aaaab
b1000101 aaaac

#56600054000
b1000101 aaaab
b1010010 aaaac

#57600054000
b1010010 aaaab
b1000101 aaaac

#58600054000
b1000101 aaaab
b1010010 aaaac

#59600054000
b1010010 aaaab
b1000101 aaaac

#60600054000
b1000101 aaaab
b1010010 aaaac

#61600054000
b1010010 aaaab
b1000101 aaaac

#62600054000
b1000101 aaaab
b1010010 aaaac

#63000000000
b1010010 aaaab
b1000101 aaaad

#63000001000
b1001001 aaaad
b1000101 aaaaf

#63042181000
b1000101 aaaac
b1011000 aaaaf

#63400140348
b1010010 aaaac
b1000101 aaaag

#63443680348
b1000101 aaaae
b1011000 aaaag

#63443681348
b1000101 aaaab
b1011000 aaaae

#64043735348
b1010010 aaaab
b1000101 aaaac

#64685776000
b1000101 aaaab
b1010010 aaaac

#65685776000
b1010010 aaaab
b1000101 aaaac

#66685776000
b1000101 aaaab
b1010010 aaaac

#67685776000
b1010010 aaaab
b1000101 aaaac

#68685776000
b1000101 aaaab
b1010010 aaaac

#69685776000
b1010010 aaaab
b1000101 aaaac

#70685776000
b1000101 aaaab
b1010010 aaaac

#71685776000
b1010010 aaaab
b1000101 aaaac

#72000000000
b1010010 aaaac
b1000101 aaaad

#72000001000
b1001001 aaaad
b1000101 aaaaf

#72042181000
b1000101 aaaab
b1011000 aaaaf

#72400140348
b1010010 aaaab
b1000101 aaaag

#72443680348
b1000101 aaaae
b1011000 aaaag

#72443681348
b1000101 aaaac
b1011000 aaaae

#73129457348
b1000101 aaaab
b1010010 aaaac

#73771498000
b1010010 aaaab
b1000101 aaaac

#74771498000
b1000101 aaaab
b1010010 aaaac

#75771498000
b1010010 aaaab
b1000101 aaaac

#76771498000
b1000101 aaaab
b1010010 aaaac

#77771498000
b1010010 aaaab
b1000101 aaaac

#78771498000
b1000101 aaaab
b1010010 aaaac

#79771498000
b1010010 aaaab
b1000101 aaaac

#80771498000
b1000101 aaaab
b1010010 aaaac

#81000000000
b1010010 aaaab
b1000101 aaaad

#81000001000
b1001001 aaaad
b1000101 aaaaf

#81042181000
b1000101 aaaac
b1011000 aaaaf

#81400140348
b1010010 aaaac
b1000101 aaaag

#81443680348
b1000101 aaaae
b1011000 aaaag

#81443681348
b1000101 aaaab
b1011000 aaaae

#82215179348
b1010010 aaaab
b1000101 aaaac

#82857220000
b1000101 aaaab
b1010010 aaaac

#83857220000
b1010010 aaaab
b1000101 aaaac

#84857220000
b1000101 aaaab
b1010010 aaaac

#85857220000
b1010010 aaaab
b1000101 aaaac

#86857220000
b1000101 aaaab
b1010010 aaaac

#87857220000
b1010010 aaaab
b1000101 aaaac

#88857220000
b1000101 aaaab
b1010010 aaaac

#89857220000
b1010010 aaaab
b1000101 aaaac

#90000000000
b1010010 aaaac
b1000101 aaaad

#90000001000
b1001001 aaaad
b1000101 aaaaf

#90042181000
b1000101 aaaab
b1011000 aaaaf

#90400140348
b1010010 aaaab
b1000101 aaaag

#90443680348
b1000101 aaaae
b1011000 aaaag

#90443681348
b1000101 aaaac
b1011000 aaaae

#91300901348
b1000101 aaaab
b1010010 aaaac

#91942942000
b1010010 aaaab
b1000101 aaaac

#92942942000
b1000101 aaaab
b1010010 aaaac

#93942942000
b1010010 aaaab
b1000101 aaaac

#94942942000
b1000101 aaaab
b1010010 aaaac

#95942942000
b1010010 aaaab
b1000101 aaaac

#96942942000
b1000101 aaaab
b1010010 aaaac

#97942942000
b1010010 aaaab
b1000101 aaaac

#98942942000
b1000101 aaaab
b1010010 aaaac

#99000000000
b1010010 aaaab
b1000101 aaaad

#99000001000
b1001001 aaaad
b1000101 aaaaf

#99042181000
b1000101 aaaac
b1011000 aaaaf

#99400140348
b1010010 aaaac
b1000101 aaaag

#99443680348
b1000101 aaaae
b1011000 aaaag

#99443681348
b1000101 aaaab
b1011000 aaaae

#100386623348
b1010010 aaaab
b1000101 aaaac

#101028664000
b1000101 aaaab
b1010010 aaaac

#102028664000
b1010010 aaaab
b1000101 aaaac

#103028664000
b1000101 aaaab
b1010010 aaaac

#104028664000
b1010010 aaaab
b1000101 aaaac

#105028664000
b1000101 aaaab
b1010010 aaaac

#106028664000
b1010010 aaaab
b1000101 aaaac

#107028664000
b1000101 aaaab
b1010010 aaaac

#108000000000
b1010010 aaaab
b1000101 aaaad

#108000001000
b1001001 aaaad
b1000101 aaaaf

#108042181000
b1000101 aaaac
b1011000 aaaaf

#108400140348
b1010010 aaaac
b1000101 aaaag

#108443680348
b1000101 aaaae
b1011000 aaaag

#108443681348
b1000101 aaaab
b1011000 aaaae

#108472345348
b1010010 aaaab
b1000101 aaaac

#109114386000
b1000101 aaaab
b1010010 aaaac

#110114386000
b1010010 aaaab
b1000101 aaaac

#111114386000
b1000101 aaaab
b1010010 aaaac

#112114386000
b1010010 aaaab
b1000101 aaaac

#113114386000
b1000101 aaaab
b1010010 aaaac

#114114386000
b1010010 aaaab
b1000101 aaaac

#115114386000
b1000101 aaaab
b1010010 aaaac

#116114386000
b1010010 aaaab
b1000101 aaaac

#117000000000
b1010010 aaaac
b1000101 aaaad

#117000001000
b1001001 aaaad
b1000101 aaaaf

#117042181000
b1000101 aaaab
b1011000 aaaaf

#117400140348
b1010010 aaaab
b1000101 aaaag

#117443680348
b1000101 aaaae
b1011000 aaaag

#117443681348
b1000101 aaaac
b1011000 aaaae

#117558067348
b1000101 aaaab
b1010010 aaaac

#118200108000
b1010010 aaaab
b1000101 aaaac

#119200108000
b1000101 aaaab
b1010010 aaaac

#120200108000
b1010010 aaaab
b1000101 aaaac

#121200108000
b1000101 aaaab
b1010010 aaaac

#122200108000
b1010010 aaaab
b1000101 aaaac

#123200108000
b1000101 aaaab
b1010010 aaaac

#124200108000
b1010010 aaaab
b1000101 aaaac

#125200108000
b1000101 aaaab
b1010010 aaaac

#126000000000
b1010010 aaaab
b1000101 aaaad

#126000001000
b1001001 aaaad
b1000101 aaaaf

#126042181000
b1000101 aaaac
b1011000 aaaaf

#126400140348
b1010010 aaaac
b1000101 aaaag

#126443680348
b1000101 aaaae
b1011000 aaaag

#126443681348
b1000101 aaaab
b1011000 aaaae

#126643789348
b1010010 aaaab
b1000101 aaaac

#127285830000
b1000101 aaaab
b1010010 aaaac

#128285830000
b1010010 aaaab
b1000101 aaaac

#129285830000
b1000101 aaaab
b1010010 aaaac

#130285830000
b1010010 aaaab
b1000101 aaaac

#131285830000
b1000101 aaaab
b1010010 aaaac

#132285830000
b1010010 aaaab
b1000101 aaaac

#133285830000
b1000101 aaaab
b1010010 aaaac

#134285830000
b1010010 aaaab
b1000101 aaaac

#135000000000
b1010010 aaaac
b1000101 aaaad

#135000001000
b1001001 aaaad
b1000101 aaaaf

#135042181000
b1000101 aaaab
b1011000 aaaaf

#135400140348
b1010010 aaaab
b1000101 aaaag

#135443680348
b1000101 aaaae
b1011000 aaaag

#135443681348
b1000101 aaaac
b1011000 aaaae

#135729511348
b1000101 aaaab
b1010010 aaaac

#136371552000
b1010010 aaaab
b1000101 aaaac

#137371552000
b1000101 aaaab
b1010010 aaaac

#138371552000
b1010010 aaaab
b1000101 aaaac

#139371552000
b1000101 aaaab
b1010010 aaaac

#140371552000
b1010010 aaaab
b1000101 aaaac

#141371552000
b1000101 aaaab
b1010010 aaaac

#142371552000
b1010010 aaaab
b1000101 aaaac

#143371552000
b1000101 aaaab
b1010010 aaaac

#144000000000
b1010010 aaaab
b1000101 aaaad

#144000001000
b1001001 aaaad
b1000101 aaaaf

#144042181000
b1000101 aaaac
b1011000 aaaaf

#144400140348
b1010010 aaaac
b1000101 aaaag

#144443680348
b1000101 aaaae
b1011000 aaaag

#144443681348
b1000101 aaaab
b1011000 aaaae

#144815233348
b1010010 aaaab
b1000101 aaaac

#145457274000
b1000101 aaaab
b1010010 aaaac

#146457274000
b1010010 aaaab
b1000101 aaaac

#147457274000
b1000101 aaaab
b1010010 aaaac

#148457274000
b1010010 aaaab
b1000101 aaaac

#149457274000
b1000101 aaaab
b1010010 aaaac

#150457274000
b1010010 aaaab
b1000101 aaaac

#151457274000
b1000101 aaaab
b1010010 aaaac

#152457274000
b1010010 aaaab
b1000101 aaaac

#153000000000
b1010010 aaaac
b1000101 aaaad

#153000001000
b1001001 aaaad
b1000101 aaaaf

#153042181000
b1000101 aaaab
b1011000 aaaaf

#153400140348
b1010010 aaaab
b1000101 aaaag

#153443680348
b1000101 aaaae
b1011000 aaaag

#153443681348
b1000101 aaaac
b1011000 aaaae

#153900955348
b1000101 aaaab
b1010010 aaaac

#154542996000
b1010010 aaaab
b1000101 aaaac

#155542996000
b1000101 aaaab
b1010010 aaaac

#156542996000
b1010010 aaaab
b1000101 aaaac

#157542996000
b1000101 aaaab
b1010010 aaaac

#158542996000
b1010010 aaaab
b1000101 aaaac

#159542996000
b1000101 aaaab
b1010010 aaaac

#160542996000
b1010010 aaaab
b1000101 aaaac

#161542996000
b1000101 aaaab
b1010010 aaaac

#162000000000
b1010010 aaaab
b1000101 aaaad

#162000001000
b1001001 aaaad
b1000101 aaaaf

#162042181000
b1000101 aaaac
b1011000 aaaaf

#162400140348
b1010010 aaaac
b1000101 aaaag

#162443680348
b1000101 aaaae
b1011000 aaaag

#162443681348
b1000101 aaaab
b1011000 aaaae

#162986677348
b1010010 aaaab
b1000101 aaaac

#163628718000
b1000101 aaaab
b1010010 aaaac

#164628718000
b1010010 aaaab
b1000101 aaaac

#165628718000
b1000101 aaaab
b1010010 aaaac

#166628718000
b1010010 aaaab
b1000101 aaaac

#167628718000
b1000101 aaaab
b1010010 aaaac

#168628718000
b1010010 aaaab
b1000101 aaaac

#169628718000
b1000101 aaaab
b1010010 aaaac

#170628718000
b1010010 aaaab
b1000101 aaaac

#171000000000
b1010010 aaaac
b1000101 aaaad

#171000001000
b1001001 aaaad
b1000101 aaaaf

#171042181000
b1000101 aaaab
b1011000 aaaaf

#171400140348
b1010010 aaaab
b1000101 aaaag

#171443680348
b1000101 aaaae
b1011000 aaaag

#171443681348
b1000101 aaaac
b1011000 aaaae

#172072399348
b1000101 aaaab
b1010010 aaaac

#172714440000
b1010010 aaaab
b1000101 aaaac

#173714440000
b1000101 aaaab
b1010010 aaaac

#174714440000
b1010010 aaaab
b1000101 aaaac

#175714440000
b1000101 aaaab
b1010010 aaaac

#176714440000
b1010010 aaaab
b1000101 aaaac

#177714440000
b1000101 aaaab
b1010010 aaaac

#178714440000
b1010010 aaaab
b1000101 aaaac

#179714440000
b1000101 aaaab
b1010010 aaaac

#180000000000
b1010010 aaaab
b1000101 aaaad

#180000001000
b1001001 aaaad
b1000101 aaaaf

#180042181000
b1000101 aaaac
b1011000 aaaaf

#180400140348
b1010010 aaaac
b1000101 aaaag

#180443680348
b1000101 aaaae
b1011000 aaaag

#180443681348
b1000101 aaaab
b1011000 aaaae

#181158121348
b1010010 aaaab
b1000101 aaaac

#181800162000
b1000101 aaaab
b1010010 aaaac

#182800162000
b1010010 aaaab
b1000101 aaaac

#183800162000
b1000101 aaaab
b1010010 aaaac

#184800162000
b1010010 aaaab
b1000101 aaaac

#185800162000
b1000101 aaaab
b1010010 aaaac

#186800162000
b1010010 aaaab
b1000101 aaaac

#187800162000
b1000101 aaaab
b1010010 aaaac

#188800162000
b1010010 aaaab
b1000101 aaaac

#189000000000
b1010010 aaaac
b1000101 aaaad

#189000001000
b1001001 aaaad
b1000101 aaaaf

#189042181000
b1000101 aaaab
b1011000 aaaaf

#189400140348
b1010010 aaaab
b1000101 aaaag

#189443680348
b1000101 aaaae
b1011000 aaaag

#189443681348
b1000101 aaaac
b1011000 aaaae

#190243843348
b1000101 aaaab
b1010010 aaaac

#190885884000
b1010010 aaaab
b1000101 aaaac

#191885884000
b1000101 aaaab
b1010010 aaaac

#192885884000
b1010010 aaaab
b1000101 aaaac

#193885884000
b1000101 aaaab
b1010010 aaaac

#194885884000
b1010010 aaaab
b1000101 aaaac

#195885884000
b1000101 aaaab
b1010010 aaaac

#196885884000
b1010010 aaaab
b1000101 aaaac

#197885884000
b1000101 aaaab
b1010010 aaaac

#198000000000
b1010010 aaaab
b1000101 aaaad

#198000001000
b1001001 aaaad
b1000101 aaaaf

#198042181000
b1000101 aaaac
b1011000 aaaaf

#198400140348
b1010010 aaaac
b1000101 aaaag

#198443680348
b1000101 aaaae
b1011000 aaaag

#198443681348
b1000101 aaaab
b1011000 aaaae

#199329565348
b1010010 aaaab
b1000101 aaaac

#199971606000
b1000101 aaaab
b1010010 aaaac

#200971606000
b1010010 aaaab
b1000101 aaaac

#201971606000
b1000101 aaaab
b1010010 aaaac

#202971606000
b1010010 aaaab
b1000101 aaaac

#203971606000
b1000101 aaaab
b1010010 aaaac

#204971606000
b1010010 aaaab
b1000101 aaaac

#205971606000
b1000101 aaaab
b1010010 aaaac

#206971606000
b1010010 aaaab
b1000101 aaaac

#207000000000
b1010010 aaaac
b1000101 aaaad

#207000001000
b1001001 aaaad
b1000101 aaaaf

#207042181000
b1000101 aaaab
b1011000 aaaaf

#207400140348
b1010010 aaaab
b1000101 aaaag

#207443680348
b1000101 aaaae
b1011000 aaaag

#207443681348
b1000101 aaaac
b1011000 aaaae

#208415287348
b1000101 aaaab
b1010010 aaaac

#209057328000
b1010010 aaaab
b1000101 aaaac

#210057328000
b1000101 aaaab
b1010010 aaaac

#211057328000
b1010010 aaaab
b1000101 aaaac

#212057328000
b1000101 aaaab
b1010010 aaaac

#213057328000
b1010010 aaaab
b1000101 aaaac

#214057328000
b1000101 aaaab
b1010010 aaaac

#215057328000
b1010010 aaaab
b1000101 aaaac

#216000000000
b1010010 aaaac
b1000101 aaaad

#216000001000
b1001001 aaaad
b1000101 aaaaf

#216042181000
b1000101 aaaab
b1011000 aaaaf

#216400140348
b1010010 aaaab
b1000101 aaaag

#216443680348
b1000101 aaaae
b1011000 aaaag

#216443681348
b1000101 aaaac
b1011000 aaaae

#216501009348
b1000101 aaaab
b1010010 aaaac

#217143050000
b1010010 aaaab
b1000101 aaaac

#218143050000
b1000101 aaaab
b1010010 aaaac

#219143050000
b1010010 aaaab
b1000101 aaaac

#220143050000
b1000101 aaaab
b1010010 aaaac

#221143050000
b1010010 aaaab
b1000101 aaaac

#222143050000
b1000101 aaaab
b1010010 aaaac

#223143050000
b1010010 aaaab
b1000101 aaaac

#224143050000
b1000101 aaaab
b1010010 aaaac

#225000000000
b1010010 aaaab
b1000101 aaaad

#225000001000
b1001001 aaaad
b1000101 aaaaf

#225042181000
b1000101 aaaac
b1011000 aaaaf

#225400140348
b1010010 aaaac
b1000101 aaaag

#225443680348
b1000101 aaaae
b1011000 aaaag

#225443681348
b1000101 aaaab
b1011000 aaaae

#225586731348
b1010010 aaaab
b1000101 aaaac

#226228772000
b1000101 aaaab
b1010010 aaaac

#227228772000
b1010010 aaaab
b1000101 aaaac

#228228772000
b1000101 aaaab
b1010010 aaaac

#229228772000
b1010010 aaaab
b1000101 aaaac

#230228772000
b1000101 aaaab
b1010010 aaaac

#231228772000
b1010010 aaaab
b1000101 aaaac

#232228772000
b1000101 aaaab
b1010010 aaaac

#233228772000
b1010010 aaaab
b1000101 aaaac

#234000000000
b1010010 aaaac
b1000101 aaaad

#234000001000
b1001001 aaaad
b1000101 aaaaf

#234042181000
b1000101 aaaab
b1011000 aaaaf

#234400140348
b1010010 aaaab
b1000101 aaaag

#234443680348
b1000101 aaaae
b1011000 aaaag

#234443681348
b1000101 aaaac
b1011000 aaaae

#234672453348
b1000101 aaaab
b1010010 aaaac

#235314494000
b1010010 aaaab
b1000101 aaaac

#236314494000
b1000101 aaaab
b1010010 aaaac

#237314494000
b1010010 aaaab
b1000101 aaaac

#238314494000
b1000101 aaaab
b1010010 aaaac

#239314494000
b1010010 aaaab
b1000101 aaaac

#240314494000
b1000101 aaaab
b1010010 aaaac

#241314494000
b1010010 aaaab
b1000101 aaaac

#242314494000
b1000101 aaaab
b1010010 aaaac

#243000000000
b1010010 aaaab
b1000101 aaaad

#243000001000
b1001001 aaaad
b1000101 aaaaf

#243042181000
b1000101 aaaac
b1011000 aaaaf

#243400140348
b1010010 aaaac
b1000101 aaaag

#243443680348
b1000101 aaaae
b1011000 aaaag

#243443681348
b1000101 aaaab
b1011000 aaaae

#243758175348
b1010010 aaaab
b1000101 aaaac

#244400216000
b1000101 aaaab
b1010010 aaaac

#245400216000
b1010010 aaaab
b1000101 aaaac

#246400216000
b1000101 aaaab
b1010010 aaaac

#247400216000
b1010010 aaaab
b1000101 aaaac

#248400216000
b1000101 aaaab
b1010010 aaaac

#249400216000
b1010010 aaaab
b1000101 aaaac

#250400216000
b1000101 aaaab
b1010010 aaaac

#251400216000
b1010010 aaaab
b1000101 aaaac

#252000000000
b1010010 aaaac
b1000101 aaaad

#252000001000
b1001001 aaaad
b1000101 aaaaf

#252042181000
b1000101 aaaab
b1011000 aaaaf

#252400140348
b1010010 aaaab
b1000101 aaaag

#252443680348
b1000101 aaaae
b1011000 aaaag

#252443681348
b1000101 aaaac
b1011000 aaaae

#252843897348
b1000101 aaaab
b1010010 aaaac

#253485938000
b1010010 aaaab
b1000101 aaaac

#254485938000
b1000101 aaaab
b1010010 aaaac

#255485938000
b1010010 aaaab
b1000101 aaaac

#256485938000
b1000101 aaaab
b1010010 aaaac

#257485938000
b1010010 aaaab
b1000101 aaaac

#258485938000
b1000101 aaaab
b1010010 aaaac

#259485938000
b1010010 aaaab
b1000101 aaaac

#260485938000
b1000101 aaaab
b1010010 aaaac

#261000000000
b1010010 aaaab
b1000101 aaaad

#261000001000
b1001001 aaaad
b1000101 aaaaf

#261042181000
b1000101 aaaac
b1011000 aaaaf

#261400140348
b1010010 aaaac
b1000101 aaaag

#261443680348
b1000101 aaaae
b1011000 aaaag

#261443681348
b1000101 aaaab
b1011000 aaaae

#261929619348
b1010010 aaaab
b1000101 aaaac

#262571660000
b1000101 aaaab
b1010010 aaaac

#263571660000
b1010010 aaaab
b1000101 aaaac

#264571660000
b1000101 aaaab
b1010010 aaaac

#265571660000
b1010010 aaaab
b1000101 aaaac

#266571660000
b1000101 aaaab
b1010010 aaaac

#267571660000
b1010010 aaaab
b1000101 aaaac

#268571660000
b1000101 aaaab
b1010010 aaaac

#269571660000
b1010010 aaaab
b1000101 aaaac

#270000000000
b1010010 aaaac
b1000101 aaaad

#270000001000
b1001001 aaaad
b1000101 aaaaf

#270042181000
b1000101 aaaab
b1011000 aaaaf

#270400140348
b1010010 aaaab
b1000101 aaaag

#270443680348
b1000101 aaaae
b1011000 aaaag

#270443681348
b1000101 aaaac
b1011000 aaaae

#271015341348
b1000101 aaaab
b1010010 aaaac

#271657382000
b1010010 aaaab
b1000101 aaaac

#272657382000
b1000101 aaaab
b1010010 aaaac

#273657382000
b1010010 aaaab
b1000101 aaaac

#274657382000
b1000101 aaaab
b1010010 aaaac

#275657382000
b1010010 aaaab
b1000101 aaaac

#276657382000
b1000101 aaaab
b1010010 aaaac

#277657382000
b1010010 aaaab
b1000101 aaaac

#278657382000
b1000101 aaaab
b1010010 aaaac

#279000000000
b1010010 aaaab
b1000101 aaaad

#279000001000
b1001001 aaaad
b1000101 aaaaf

#279042181000
b1000101 aaaac
b1011000 aaaaf

#279400140348
b1010010 aaaac
b1000101 aaaag

#279443680348
b1000101 aaaae
b1011000 aaaag

#279443681348
b1000101 aaaab
b1011000 aaaae

#280101063348
b1010010 aaaab
b1000101 aaaac

#280743104000
b1000101 aaaab
b1010010 aaaac

#281743104000
b1010010 aaaab
b1000101 aaaac

#282743104000
b1000101 aaaab
b1010010 aaaac

#283743104000
b1010010 aaaab
b1000101 aaaac

#284743104000
b1000101 aaaab
b1010010 aaaac

#285743104000
b1010010 aaaab
b1000101 aaaac

#286743104000
b1000101 aaaab
b1010010 aaaac

#287743104000
b1010010 aaaab
b1000101 aaaac

#288000000000
b1010010 aaaac
b1000101 aaaad

#288000001000
b1001001 aaaad
b1000101 aaaaf

#288042181000
b1000101 aaaab
b1011000 aaaaf

#288400140348
b1010010 aaaab
b1000101 aaaag

#288443680348
b1000101 aaaae
b1011000 aaaag

#288443681348
b1000101 aaaac
b1011000 aaaae

#289186785348
b1000101 aaaab
b1010010 aaaac

#289828826000
b1010010 aaaab
b1000101 aaaac

#290828826000
b1000101 aaaab
b1010010 aaaac

#291828826000
b1010010 aaaab
b1000101 aaaac

#292828826000
b1000101 aaaab
b1010010 aaaac

#293828826000
b1010010 aaaab
b1000101 aaaac

#294828826000
b1000101 aaaab
b1010010 aaaac

#295828826000
b1010010 aaaab
b1000101 aaaac

#296828826000
b1000101 aaaab
b1010010 aaaac

#297000000000
b1010010 aaaab
b1000101 aaaad

#297000001000
b1001001 aaaad
b1000101 aaaaf

#297042181000
b1000101 aaaac
b1011000 aaaaf

#297400140348
b1010010 aaaac
b1000101 aaaag

#297443680348
b1000101 aaaae
b1011000 aaaag

#297443681348
b1000101 aaaab
b1011000 aaaae

#298272507348
b1010010 aaaab
b1000101 aaaac

#298914548000
b1000101 aaaab
b1010010 aaaac

#299914548000
b1010010 aaaab
b1000101 aaaac

#300914548000
b1000101 aaaab
b1010010 aaaac

#301914548000
b1010010 aaaab
b1000101 aaaac

#302914548000
b1000101 aaaab
b1010010 aaaac

#303914548000
b1010010 aaaab
b1000101 aaaac

#304914548000
b1000101 aaaab
b1010010 aaaac

#305914548000
b1010010 aaaab
b1000101 aaaac

#306000000000
b1010010 aaaac
b1000101 aaaad

#306000001000
b1001001 aaaad
b1000101 aaaaf

#306042181000
b1000101 aaaab
b1011000 aaaaf

#306400140348
b1010010 aaaab
b1000101 aaaag

#306443680348
b1000101 aaaae
b1011000 aaaag

#306443681348
b1000101 aaaac
b1011000 aaaae

#307358229348
b1000101 aaaab
b1010010 aaaac

#308000270000
b1010010 aaaab
b1000101 aaaac

#309000270000
b1000101 aaaab
b1010010 aaaac

#310000270000
b1010010 aaaab
b1000101 aaaac

#311000270000
b1000101 aaaab
b1010010 aaaac

#312000270000
b1010010 aaaab
b1000101 aaaac

#313000270000
b1000101 aaaab
b1010010 aaaac

#314000270000
b1010010 aaaab
b1000101 aaaac

#315000000000
b1010010 aaaac
b1000101 aaaad

#315000001000
b1001001 aaaad
b1000101 aaaaf

#315042181000
b1000101 aaaab
b1011000 aaaaf

#315400140348
b1010010 aaaab
b1000101 aaaag

#315443680348
b1000101 aaaae
b1011000 aaaag

#315443681348
b1000101 aaaac
b1011000 aaaae

#315443951348
b1000101 aaaab
b1010010 aaaac

#316085992000
b1010010 aaaab
b1000101 aaaac

#317085992000
b1000101 aaaab
b1010010 aaaac

#318085992000
b1010010 aaaab
b1000101 aaaac

#319085992000
b1000101 aaaab
b1010010 aaaac

#320085992000
b1010010 aaaab
b1000101 aaaac

#321085992000
b1000101 aaaab
b1010010 aaaac

#322085992000
b1010010 aaaab
b1000101 aaaac

#323085992000
b1000101 aaaab
b1010010 aaaac

#324000000000
b1010010 aaaab
b1000101 aaaad

#324000001000
b1001001 aaaad
b1000101 aaaaf

#324042181000
b1000101 aaaac
b1011000 aaaaf

#324400140348
b1010010 aaaac
b1000101 aaaag

#324443680348
b1000101 aaaae
b1011000 aaaag

#324443681348
b1000101 aaaab
b1011000 aaaae

#324529673348
b1010010 aaaab
b1000101 aaaac

#325171714000
b1000101 aaaab
b1010010 aaaac

#326171714000
b1010010 aaaab
b1000101 aaaac

#327171714000
b1000101 aaaab
b1010010 aaaac

#328171714000
b1010010 aaaab
b1000101 aaaac

#329171714000
b1000101 aaaab
b1010010 aaaac

#330171714000
b1010010 aaaab
b1000101 aaaac

#331171714000
b1000101 aaaab
b1010010 aaaac

#332171714000
b1010010 aaaab
b1000101 aaaac

#333000000000
b1010010 aaaac
b1000101 aaaad

#333000001000
b1001001 aaaad
b1000101 aaaaf

#333042181000
b1000101 aaaab
b1011000 aaaaf

#333400140348
b1010010 aaaab
b1000101 aaaag

#333443680348
b1000101 aaaae
b1011000 aaaag

