examples/VAD_INTEGRATION/rtos2_trace.vcd
$comment
File created by KisTA library.
 Author: F.Herrera
 Institution: KTH
 Date: 2013
	All rights reserved by the authors, till further definition of the license.
$end

$comment
Tracing options used include to trace Task State signals,  Scheduler signals 
$end

$date
     Aug 31, 2016       14:28:27
$end

$version
 SystemC 2.3.1-Accellera --- Mar 29 2016 16:10:40
$end

$timescale
     1 ps
$end

$scope module SystemC $end
$var wire    8  aaaaa  sched2 [7:0]  $end
$var wire    8  aaaab  BE1 [7:0]  $end
$var wire    8  aaaac  D2_IN [7:0]  $end
$var wire    8  aaaad  D2_OUT [7:0]  $end
$var wire    8  aaaae  T5 [7:0]  $end
$var wire    8  aaaaf  T6 [7:0]  $end
$upscope $end
$enddefinitions  $end

$comment
All initial values are dumped below at time 0 sec = 0 timescale units.
$end

$dumpvars
b1001001 aaaaa
b1010010 aaaab
b1000101 aaaac
b1010010 aaaad
b1011000 aaaae
b1011000 aaaaf
$end

#1000
b1000101 aaaab
b1001001 aaaac
b1011000 aaaad

#863791000
b1010010 aaaab
b1000101 aaaae

#1541241000
b1010010 aaaad

#8670920000
b1010010 aaaac

#9487871000
b1011000 aaaae
b1000101 aaaaf

#9534711000
b1000101 aaaac
b1011000 aaaaf

#9534712000
b1001001 aaaac
b1000101 aaaad

#9534713000
b1000101 aaaab
b1011000 aaaad

#10329231000
b1010010 aaaab
b1000101 aaaae

#11006681000
b1010010 aaaad

#17341840000
b1010010 aaaac

#18953311000
b1011000 aaaae
b1000101 aaaaf

#19000151000
b1000101 aaaac
b1011000 aaaaf

#19000152000
b1001001 aaaac
b1000101 aaaad

#19000153000
b1000101 aaaab
b1011000 aaaad

#19794671000
b1010010 aaaab
b1000101 aaaae

#20472121000
b1010010 aaaad

#26012760000
b1010010 aaaac

#28418751000
b1011000 aaaae
b1000101 aaaaf

#28465591000
b1000101 aaaac
b1011000 aaaaf

#28465592000
b1001001 aaaac
b1000101 aaaad

#28465593000
b1000101 aaaab
b1011000 aaaad

#29260111000
b1010010 aaaab
b1000101 aaaae

#29937561000
b1010010 aaaad

#34683680000
b1010010 aaaac

#37884191000
b1011000 aaaae
b1000101 aaaaf

#37931031000
b1000101 aaaac
b1011000 aaaaf

#37931032000
b1001001 aaaac
b1000101 aaaad

#37931033000
b1000101 aaaab
b1011000 aaaad

#38725551000
b1010010 aaaab
b1000101 aaaae

#39403001000
b1010010 aaaad

#43354600000
b1010010 aaaac

#47349631000
b1011000 aaaae
b1000101 aaaaf

#47396471000
b1000101 aaaac
b1011000 aaaaf

#47396472000
b1001001 aaaac
b1000101 aaaad

#47396473000
b1000101 aaaab
b1011000 aaaad

#48190991000
b1010010 aaaab
b1000101 aaaae

#48868441000
b1010010 aaaad

#52025520000
b1010010 aaaac

#56815071000
b1011000 aaaae
b1000101 aaaaf

#56861911000
b1000101 aaaac
b1011000 aaaaf

#56861912000
b1001001 aaaac
b1000101 aaaad

#56861913000
b1000101 aaaab
b1011000 aaaad

#57656431000
b1010010 aaaab
b1000101 aaaae

#58333881000
b1010010 aaaad

#60696440000
b1010010 aaaac

#66280511000
b1011000 aaaae
b1000101 aaaaf

#66327351000
b1000101 aaaac
b1011000 aaaaf

#66327352000
b1001001 aaaac
b1000101 aaaad

#66327353000
b1000101 aaaab
b1011000 aaaad

#67121871000
b1010010 aaaab
b1000101 aaaae

#67799321000
b1010010 aaaad

#69367360000
b1010010 aaaac

#75745951000
b1011000 aaaae
b1000101 aaaaf

#75792791000
b1000101 aaaac
b1011000 aaaaf

#75792792000
b1001001 aaaac
b1000101 aaaad

#75792793000
b1000101 aaaab
b1011000 aaaad

#76587311000
b1010010 aaaab
b1000101 aaaae

#77264761000
b1010010 aaaad

#78038280000
b1010010 aaaac

#85211391000
b1011000 aaaae
b1000101 aaaaf

#85258231000
b1000101 aaaac
b1011000 aaaaf

#85258232000
b1001001 aaaac
b1000101 aaaad

#85258233000
b1000101 aaaab
b1011000 aaaad

#86052751000
b1010010 aaaab
b1000101 aaaae

#86709200000
b1010010 aaaac

#86730201000
b1010010 aaaad

#94676831000
b1011000 aaaae
b1000101 aaaaf

#94723671000
b1000101 aaaac
b1011000 aaaaf

#94723672000
b1001001 aaaac
b1000101 aaaad

#94723673000
b1000101 aaaab
b1011000 aaaad

#95380120000
b1010010 aaaab
b1000101 aaaac

#95380121000
b1000101 aaaab
b1001001 aaaac

#95598311000
b1010010 aaaab
b1000101 aaaae

#96275761000
b1010010 aaaad

#104051040000
b1010010 aaaac

#104222391000
b1010010 aaaaf

#112846471000
b1011000 aaaae
b1000101 aaaaf

#112940151000
b1000101 aaaac
b1011000 aaaaf

#112940153000
b1001001 aaaac
b1000101 aaaad

#112940155000
b1000101 aaaab
b1011000 aaaad

#113814791000
b1010010 aaaab
b1000101 aaaae

#114492241000
b1010010 aaaad

#121392880000
b1010010 aaaac

#122438871000
b1010010 aaaaf

#131062951000
b1011000 aaaae
b1000101 aaaaf

#131156631000
b1000101 aaaac
b1011000 aaaaf

#131156633000
b1001001 aaaac
b1000101 aaaad

#131156635000
b1000101 aaaab
b1011000 aaaad

#132031271000
b1010010 aaaab
b1000101 aaaae

#132708721000
b1010010 aaaad

#138734720000
b1010010 aaaac

#140655351000
b1010010 aaaaf

#149279431000
b1011000 aaaae
b1000101 aaaaf

#149373111000
b1000101 aaaac
b1011000 aaaaf

#149373113000
b1001001 aaaac
b1000101 aaaad

#149373115000
b1000101 aaaab
b1011000 aaaad

#150247751000
b1010010 aaaab
b1000101 aaaae

#150925201000
b1010010 aaaad

#156076560000
b1010010 aaaac

#158871831000
b1010010 aaaaf

#167495911000
b1011000 aaaae
b1000101 aaaaf

#167589591000
b1000101 aaaac
b1011000 aaaaf

#167589593000
b1001001 aaaac
b1000101 aaaad

#167589595000
b1000101 aaaab
b1011000 aaaad

#168464231000
b1010010 aaaab
b1000101 aaaae

#169141681000
b1010010 aaaad

#173418400000
b1010010 aaaac

#177088311000
b1010010 aaaaf

#185712391000
b1011000 aaaae
b1000101 aaaaf

#185806071000
b1000101 aaaac
b1011000 aaaaf

#185806073000
b1001001 aaaac
b1000101 aaaad

#185806075000
b1000101 aaaab
b1011000 aaaad

#186680711000
b1010010 aaaab
b1000101 aaaae

#187358161000
b1010010 aaaad

#190760240000
b1010010 aaaac

#195304791000
b1010010 aaaaf

#203928871000
b1011000 aaaae
b1000101 aaaaf

#204022551000
b1000101 aaaac
b1011000 aaaaf

#204022553000
b1001001 aaaac
b1000101 aaaad

#204022555000
b1000101 aaaab
b1011000 aaaad

#204897191000
b1010010 aaaab
b1000101 aaaae

#205574641000
b1010010 aaaad

#208102080000
b1010010 aaaac

#213521271000
b1010010 aaaaf

#222145351000
b1011000 aaaae
b1000101 aaaaf

#222239031000
b1000101 aaaac
b1011000 aaaaf

#222239033000
b1001001 aaaac
b1000101 aaaad

#222239035000
b1000101 aaaab
b1011000 aaaad

#223113671000
b1010010 aaaab
b1000101 aaaae

#223791121000
b1010010 aaaad

#225443920000
b1010010 aaaac

#231737751000
b1010010 aaaaf

#240361831000
b1011000 aaaae
b1000101 aaaaf

#240455511000
b1000101 aaaac
b1011000 aaaaf

#240455513000
b1001001 aaaac
b1000101 aaaad

#240455515000
b1000101 aaaab
b1011000 aaaad

#241330151000
b1010010 aaaab
b1000101 aaaae

#242007601000
b1010010 aaaad

#242785760000
b1010010 aaaac

#249954231000
b1010010 aaaaf

#258578311000
b1011000 aaaae
b1000101 aaaaf

#258671991000
b1000101 aaaac
b1011000 aaaaf

#258671993000
b1001001 aaaac
b1000101 aaaad

#258671995000
b1000101 aaaab
b1011000 aaaad

#259546631000
b1010010 aaaab
b1000101 aaaae

#260127600000
b1010010 aaaac

#260224081000
b1010010 aaaad

#268170711000
b1010010 aaaaf

#276794791000
b1011000 aaaae
b1000101 aaaaf

#276888471000
b1000101 aaaac
b1011000 aaaaf

#276888473000
b1001001 aaaac
b1000101 aaaad

#276888475000
b1000101 aaaab
b1011000 aaaad

#277469440000
b1010010 aaaab
b1000101 aaaac

#277469441000
b1000101 aaaab
b1001001 aaaac

#277843231000
b1010010 aaaab
b1000101 aaaae

#278520681000
b1010010 aaaad

#286140360000
b1010010 aaaac

#286467311000
b1010010 aaaaf

#303715471000
b1011000 aaaae
b1000101 aaaaf

#303855991000
b1000101 aaaac
b1011000 aaaaf

#303855994000
b1001001 aaaac
b1000101 aaaad

#303855997000
b1000101 aaaab
b1011000 aaaad

#304810751000
b1010010 aaaab
b1000101 aaaae

#305488201000
b1010010 aaaad

#312153120000
b1010010 aaaac

#313434831000
b1010010 aaaaf

#330682991000
b1011000 aaaae
b1000101 aaaaf

#330823511000
b1000101 aaaac
b1011000 aaaaf

#330823514000
b1001001 aaaac
b1000101 aaaad

#330823517000
b1000101 aaaab
b1011000 aaaad

#331778271000
b1010010 aaaab
b1000101 aaaae

#332455721000
b1010010 aaaad

#338165880000
b1010010 aaaac

#340402351000
b1010010 aaaaf

#357650511000
b1011000 aaaae
b1000101 aaaaf

#357791031000
b1000101 aaaac
b1011000 aaaaf

#357791034000
b1001001 aaaac
b1000101 aaaad

#357791037000
b1000101 aaaab
b1011000 aaaad

#358745791000
b1010010 aaaab
b1000101 aaaae

#359423241000
b1010010 aaaad

#364178640000
b1010010 aaaac

#367369871000
b1010010 aaaaf

#384618031000
b1011000 aaaae
b1000101 aaaaf

#384758551000
b1000101 aaaac
b1011000 aaaaf

#384758554000
b1001001 aaaac
b1000101 aaaad

#384758557000
b1000101 aaaab
b1011000 aaaad

#385713311000
b1010010 aaaab
b1000101 aaaae

#386390761000
b1010010 aaaad

#390191400000
b1010010 aaaac

#394337391000
b1010010 aaaaf

#411585551000
b1011000 aaaae
b1000101 aaaaf

#411726071000
b1000101 aaaac
b1011000 aaaaf

#411726074000
b1001001 aaaac
b1000101 aaaad

#411726077000
b1000101 aaaab
b1011000 aaaad

#412680831000
b1010010 aaaab
b1000101 aaaae

#413358281000
b1010010 aaaad

#416204160000
b1010010 aaaac

#421304911000
b1010010 aaaaf

#438553071000
b1011000 aaaae
b1000101 aaaaf

#438693591000
b1000101 aaaac
b1011000 aaaaf

#438693594000
b1001001 aaaac
b1000101 aaaad

#438693597000
b1000101 aaaab
b1011000 aaaad

#439648351000
b1010010 aaaab
b1000101 aaaae

#440325801000
b1010010 aaaad

#442216920000
b1010010 aaaac

#448272431000
b1010010 aaaaf

#465520591000
b1011000 aaaae
b1000101 aaaaf

#465661111000
b1000101 aaaac
b1011000 aaaaf

#465661114000
b1001001 aaaac
b1000101 aaaad

#465661117000
b1000101 aaaab
b1011000 aaaad

#466615871000
b1010010 aaaab
b1000101 aaaae

#467293321000
b1010010 aaaad

#468229680000
b1010010 aaaac

#475239951000
b1010010 aaaaf

#492488111000
b1011000 aaaae
b1000101 aaaaf

#492628631000
b1000101 aaaac
b1011000 aaaaf

#492628634000
b1001001 aaaac
b1000101 aaaad

#492628637000
b1000101 aaaab
b1011000 aaaad

#493583391000
b1010010 aaaab
b1000101 aaaae

#494242440000
b1010010 aaaac

#494260841000
b1010010 aaaad

#502207471000
b1010010 aaaaf

#519455631000
b1011000 aaaae
b1000101 aaaaf

#519596151000
b1000101 aaaac
b1011000 aaaaf

#519596154000
b1001001 aaaac
b1000101 aaaad

#519596157000
b1000101 aaaab
b1011000 aaaad

#520255200000
b1010010 aaaab
b1000101 aaaac

#520255201000
b1000101 aaaab
b1001001 aaaac

#520631031000
b1010010 aaaab
b1000101 aaaae

#521308481000
b1010010 aaaad

#528926120000
b1010010 aaaac

#529255111000
b1010010 aaaaf

#555127351000
b1011000 aaaae
b1000101 aaaaf

#555314711000
b1000101 aaaac
b1011000 aaaaf

#555314715000
b1001001 aaaac
b1000101 aaaad

#555314719000
b1000101 aaaab
b1011000 aaaad

#556349591000
b1010010 aaaab
b1000101 aaaae

#557027041000
b1010010 aaaad

#563609800000
b1010010 aaaac

#564973671000
b1010010 aaaaf

#590845911000
b1011000 aaaae
b1000101 aaaaf

#591033271000
b1000101 aaaac
b1011000 aaaaf

#591033275000
b1001001 aaaac
b1000101 aaaad

#591033279000
b1000101 aaaab
b1011000 aaaad

#592068151000
b1010010 aaaab
b1000101 aaaae

#592745601000
b1010010 aaaad

#598293480000
b1010010 aaaac

#600692231000
b1010010 aaaaf

#626564471000
b1011000 aaaae
b1000101 aaaaf

#626751831000
b1000101 aaaac
b1011000 aaaaf

#626751835000
b1001001 aaaac
b1000101 aaaad

#626751839000
b1000101 aaaab
b1011000 aaaad

#627786711000
b1010010 aaaab
b1000101 aaaae

#628464161000
b1010010 aaaad

#632977160000
b1010010 aaaac

#636410791000
b1010010 aaaaf

#662283031000
b1011000 aaaae
b1000101 aaaaf

#662470391000
b1000101 aaaac
b1011000 aaaaf

#662470395000
b1001001 aaaac
b1000101 aaaad

#662470399000
b1000101 aaaab
b1011000 aaaad

#663505271000
b1010010 aaaab
b1000101 aaaae

#664182721000
b1010010 aaaad

#667660840000
b1010010 aaaac

#672129351000
b1010010 aaaaf

#698001591000
b1011000 aaaae
b1000101 aaaaf

#698188951000
b1000101 aaaac
b1011000 aaaaf

#698188955000
b1001001 aaaac
b1000101 aaaad

#698188959000
b1000101 aaaab
b1011000 aaaad

#699223831000
b1010010 aaaab
b1000101 aaaae

#699901281000
b1010010 aaaad

#702344520000
b1010010 aaaac

#707847911000
b1010010 aaaaf

#733720151000
b1011000 aaaae
b1000101 aaaaf

#733907511000
b1000101 aaaac
b1011000 aaaaf

#733907515000
b1001001 aaaac
b1000101 aaaad

#733907519000
b1000101 aaaab
b1011000 aaaad

#734942391000
b1010010 aaaab
b1000101 aaaae

#735619841000
b1010010 aaaad

#737028200000
b1010010 aaaac

#743566471000
b1010010 aaaaf

#769438711000
b1011000 aaaae
b1000101 aaaaf

#769626071000
b1000101 aaaac
b1011000 aaaaf

#769626075000
b1001001 aaaac
b1000101 aaaad

#769626079000
b1000101 aaaab
b1011000 aaaad

#770660951000
b1010010 aaaab
b1000101 aaaae

#771338401000
b1010010 aaaad

#771711880000
b1010010 aaaac

#779285031000
b1010010 aaaaf

#805157271000
b1011000 aaaae
b1000101 aaaaf

#805344631000
b1000101 aaaac
b1011000 aaaaf

#805344635000
b1001001 aaaac
b1000101 aaaad

#805344639000
b1000101 aaaab
b1011000 aaaad

#806379511000
b1010010 aaaab
b1000101 aaaae

#806395560000
b1010010 aaaac

#807056961000
b1010010 aaaad

#815003591000
b1010010 aaaaf

#840875831000
b1011000 aaaae
b1000101 aaaaf

#841063191000
b1000101 aaaac
b1011000 aaaaf

#841063195000
b1001001 aaaac
b1000101 aaaad

#841063199000
b1000101 aaaab
b1011000 aaaad

#841079240000
b1010010 aaaab
b1000101 aaaac

#841079241000
b1000101 aaaab
b1001001 aaaac

#842178191000
b1010010 aaaab
b1000101 aaaae

#842855641000
b1010010 aaaad

#849750160000
b1010010 aaaac

#850802271000
b1010010 aaaaf

#885298591000
b1011000 aaaae
b1000101 aaaaf

#885532791000
b1000101 aaaac
b1011000 aaaaf

#885532796000
b1001001 aaaac
b1000101 aaaad

#885532801000
b1000101 aaaab
b1011000 aaaad

#886647791000
b1010010 aaaab
b1000101 aaaae

#887325241000
b1010010 aaaad

#893104760000
b1010010 aaaac

#895271871000
b1010010 aaaaf

#929768191000
b1011000 aaaae
b1000101 aaaaf

#930002391000
b1000101 aaaac
b1011000 aaaaf

#930002396000
b1001001 aaaac
b1000101 aaaad

#930002401000
b1000101 aaaab
b1011000 aaaad

#931117391000
b1010010 aaaab
b1000101 aaaae

#931794841000
b1010010 aaaad

#936459360000
b1010010 aaaac

#939741471000
b1010010 aaaaf

#974237791000
b1011000 aaaae
b1000101 aaaaf

#974471991000
b1000101 aaaac
b1011000 aaaaf

#974471996000
b1001001 aaaac
b1000101 aaaad

#974472001000
b1000101 aaaab
b1011000 aaaad

#975586991000
b1010010 aaaab
b1000101 aaaae

#976264441000
b1010010 aaaad

#979813960000
b1010010 aaaac

#984211071000
b1010010 aaaaf

