examples/xml_if/basic_real_time/brt_ex5/sched1_trace.vcd
$comment
File created by KisTA library.
 Author: F.Herrera
 Institution: KTH
 Date: 2013
	All rights reserved by the authors, till further definition of the license.
$end

$comment
Tracing options used include to trace Task State signals,  Scheduler signals 
$end

$date
     Jul 06, 2016       15:58:05
$end

$version
 SystemC 2.3.1-Accellera --- Mar 29 2016 16:10:40
$end

$timescale
     1 ps
$end

$scope module SystemC $end
$var wire    8  aaaaa  sched1 [7:0]  $end
$var wire    8  aaaab  T1 [7:0]  $end
$var wire    8  aaaac  T1_5 [7:0]  $end
$var wire    8  aaaad  T2 [7:0]  $end
$var wire    8  aaaae  T3 [7:0]  $end
$upscope $end
$enddefinitions  $end

$comment
All initial values are dumped below at time 0 sec = 0 timescale units.
$end

$dumpvars
b1001001 aaaaa
b1010010 aaaab
b1010010 aaaac
b1010010 aaaad
b1000101 aaaae
$end

#300000000000
b1000101 aaaad
b1001001 aaaae

#500000000000
b1000101 aaaab
b1001001 aaaad

#600000000000
b1010010 aaaab
b1000101 aaaad

#800000000000
b1001001 aaaad
b1000101 aaaae

#1100000000000
b1000101 aaaab
b1001001 aaaae

#1200000000000
b1010010 aaaab
b1000101 aaaad

#1400000000000
b1000101 aaaab
b1001001 aaaad

#1600000000000
b1010010 aaaab
b1000101 aaaae

#1800000000000
b1010010 aaaad

#1900000000000
b1000101 aaaad
b1001001 aaaae

#2100000000000
b1000101 aaaab
b1001001 aaaad

#2400000000000
b1010010 aaaab
b1010010 aaaad
b1000101 aaaae

#2700000000000
b1000101 aaaad
b1001001 aaaae

#2900000000000
b1000101 aaaab
b1001001 aaaad

#3000000000000
b1010010 aaaab
b1000101 aaaad

#3200000000000
b1001001 aaaad
b1000101 aaaae

#3500000000000
b1000101 aaaab
b1001001 aaaae

#3600000000000
b1010010 aaaab
b1000101 aaaad

#3800000000000
b1000101 aaaab
b1001001 aaaad

#4000000000000
b1010010 aaaab
b1000101 aaaae

#4200000000000
b1010010 aaaad

#4300000000000
b1000101 aaaad
b1001001 aaaae

#4500000000000
b1000101 aaaab
b1001001 aaaad

#4800000000000
b1010010 aaaab
b1010010 aaaad
b1000101 aaaae

#5100000000000
b1000101 aaaad
b1001001 aaaae

#5300000000000
b1000101 aaaab
b1001001 aaaad

#5400000000000
b1010010 aaaab
b1000101 aaaad

#5600000000000
b1001001 aaaad
b1000101 aaaae

#5900000000000
b1000101 aaaab
b1001001 aaaae

#6000000000000
b1010010 aaaab
b1000101 aaaad

#6200000000000
b1000101 aaaab
b1001001 aaaad

#6400000000000
b1010010 aaaab
b1000101 aaaae

#6600000000000
b1010010 aaaad

#6700000000000
b1000101 aaaad
b1001001 aaaae

#6900000000000
b1000101 aaaab
b1001001 aaaad

#7200000000000
b1010010 aaaab
b1010010 aaaad
b1000101 aaaae

#7500000000000
b1000101 aaaad
b1001001 aaaae

#7700000000000
b1000101 aaaab
b1001001 aaaad

#7800000000000
b1010010 aaaab
b1000101 aaaad

#8000000000000
b1001001 aaaad
b1000101 aaaae

#8300000000000
b1000101 aaaab
b1001001 aaaae

#8400000000000
b1010010 aaaab
b1000101 aaaad

#8600000000000
b1000101 aaaab
b1001001 aaaad

#8800000000000
b1010010 aaaab
b1000101 aaaae

#9000000000000
b1010010 aaaad

#9100000000000
b1000101 aaaad
b1001001 aaaae

#9300000000000
b1000101 aaaab
b1001001 aaaad

#9600000000000
b1010010 aaaab
b1010010 aaaad
b1000101 aaaae

#9900000000000
b1000101 aaaad
b1001001 aaaae

#10100000000000
b1000101 aaaab
b1001001 aaaad

#10200000000000
b1010010 aaaab
b1000101 aaaad

#10400000000000
b1001001 aaaad
b1000101 aaaae

#10700000000000
b1000101 aaaab
b1001001 aaaae

#10800000000000
b1010010 aaaab
b1000101 aaaad

#11000000000000
b1000101 aaaab
b1001001 aaaad

#11200000000000
b1010010 aaaab
b1000101 aaaae

#11400000000000
b1010010 aaaad

#11500000000000
b1000101 aaaad
b1001001 aaaae

#11700000000000
b1000101 aaaab
b1001001 aaaad

#12000000000000
b1010010 aaaab
b1010010 aaaad
b1000101 aaaae

#12300000000000
b1000101 aaaad
b1001001 aaaae

#12500000000000
b1000101 aaaab
b1001001 aaaad

#12600000000000
b1010010 aaaab
b1000101 aaaad

#12800000000000
b1001001 aaaad
b1000101 aaaae

#13100000000000
b1000101 aaaab
b1001001 aaaae

#13200000000000
b1010010 aaaab
b1000101 aaaad

#13400000000000
b1000101 aaaab
b1001001 aaaad

#13600000000000
b1010010 aaaab
b1000101 aaaae

#13800000000000
b1010010 aaaad

#13900000000000
b1000101 aaaad
b1001001 aaaae

#14100000000000
b1000101 aaaab
b1001001 aaaad

#14400000000000
b1010010 aaaab
b1010010 aaaad
b1000101 aaaae

#14700000000000
b1000101 aaaad
b1001001 aaaae

#14900000000000
b1000101 aaaab
b1001001 aaaad

#15000000000000
b1010010 aaaab
b1000101 aaaad

#15200000000000
b1001001 aaaad
b1000101 aaaae

#15500000000000
b1000101 aaaab
b1001001 aaaae

#15600000000000
b1010010 aaaab
b1000101 aaaad

#15800000000000
b1000101 aaaab
b1001001 aaaad

#16000000000000
b1010010 aaaab
b1000101 aaaae

#16200000000000
b1010010 aaaad

#16300000000000
b1000101 aaaad
b1001001 aaaae

#16500000000000
b1000101 aaaab
b1001001 aaaad

#16800000000000
b1010010 aaaab
b1010010 aaaad
b1000101 aaaae

#17100000000000
b1000101 aaaad
b1001001 aaaae

#17300000000000
b1000101 aaaab
b1001001 aaaad

#17400000000000
b1010010 aaaab
b1000101 aaaad

#17600000000000
b1001001 aaaad
b1000101 aaaae

#17900000000000
b1000101 aaaab
b1001001 aaaae

#18000000000000
b1010010 aaaab
b1000101 aaaad

#18200000000000
b1000101 aaaab
b1001001 aaaad

#18400000000000
b1010010 aaaab
b1000101 aaaae

#18600000000000
b1010010 aaaad

#18700000000000
b1000101 aaaad
b1001001 aaaae

#18900000000000
b1000101 aaaab
b1001001 aaaad

#19200000000000
b1010010 aaaab
b1010010 aaaad
b1000101 aaaae

#19500000000000
b1000101 aaaad
b1001001 aaaae

#19700000000000
b1000101 aaaab
b1001001 aaaad

#19800000000000
b1010010 aaaab
b1000101 aaaad

#20000000000000
b1001001 aaaad
b1000101 aaaae

#20300000000000
b1000101 aaaab
b1001001 aaaae

#20400000000000
b1010010 aaaab
b1000101 aaaad

#20600000000000
b1000101 aaaab
b1001001 aaaad

#20800000000000
b1010010 aaaab
b1000101 aaaae

#21000000000000
b1010010 aaaad

#21100000000000
b1000101 aaaad
b1001001 aaaae

#21300000000000
b1000101 aaaab
b1001001 aaaad

#21600000000000
b1010010 aaaab
b1010010 aaaad
b1000101 aaaae

#21900000000000
b1000101 aaaad
b1001001 aaaae

#22100000000000
b1000101 aaaab
b1001001 aaaad

#22200000000000
b1010010 aaaab
b1000101 aaaad

