examples/VAD_attempt_cpp/rtos2_trace.vcd
$comment
File created by KisTA library.
 Author: F.Herrera
 Institution: KTH
 Date: 2013
	All rights reserved by the authors, till further definition of the license.
$end

$comment
Tracing options used include to trace Task State signals,  Scheduler signals 
$end

$date
     Jul 12, 2016       15:20:39
$end

$version
 SystemC 2.3.1-Accellera --- Mar 29 2016 16:10:40
$end

$timescale
     1 ps
$end

$scope module SystemC $end
$var wire    8  aaaaa  sched2 [7:0]  $end
$var wire    8  aaaab  T3 [7:0]  $end
$var wire    8  aaaac  T4 [7:0]  $end
$upscope $end
$enddefinitions  $end

$comment
All initial values are dumped below at time 0 sec = 0 timescale units.
$end

$dumpvars
b1001001 aaaaa
b1000101 aaaab
b1010010 aaaac
$end

#1123400000
b1011000 aaaab
b1000101 aaaac

#1766559348
b1000101 aaaab
b1010010 aaaac

#1829559348
b1011000 aaaab
b1000101 aaaac

#1871483627
b1000101 aaaab
b1010010 aaaac

#1933423627
b1011000 aaaab
b1000101 aaaac

#2565839348
b1000101 aaaab
b1010010 aaaac

#2689539348
b1011000 aaaab
b1000101 aaaac

#3226019348
b1000101 aaaab
b1010010 aaaac

#3349939348
b1011000 aaaab
b1000101 aaaac

#4829159348
b1000101 aaaab
b1010010 aaaac

#4955119348
b1011000 aaaab
b1000101 aaaac

#6366559348
b1000101 aaaab
b1010010 aaaac

#6492599348
b1011000 aaaab
b1000101 aaaac

#7894459348
b1000101 aaaab
b1010010 aaaac

#7958939348
b1011000 aaaab
b1000101 aaaac

#7976343627
b1000101 aaaab
b1010010 aaaac

#8039323627
b1011000 aaaab
b1000101 aaaac

#9447539348
b1000101 aaaab
b1010010 aaaac

#9553219348
b1011000 aaaab
b1000101 aaaac

#9629903627
b1000101 aaaab
b1010010 aaaac

#9692403627
b1011000 aaaab
b1000101 aaaac

#11015759348
b1000101 aaaab
b1010010 aaaac

#11101319348
b1011000 aaaab
b1000101 aaaac

#11177563627
b1000101 aaaab
b1010010 aaaac

#11242003627
b1011000 aaaab
b1000101 aaaac

#12544539348
b1000101 aaaab
b1010010 aaaac

#12630799348
b1011000 aaaab
b1000101 aaaac

#12707603627
b1000101 aaaab
b1010010 aaaac

#12768283627
b1011000 aaaab
b1000101 aaaac

#14084259348
b1000101 aaaab
b1010010 aaaac

#14169799348
b1011000 aaaab
b1000101 aaaac

#14246683627
b1000101 aaaab
b1010010 aaaac

#14309403627
b1011000 aaaab
b1000101 aaaac

#15585439348
b1000101 aaaab
b1010010 aaaac

#15708919348
b1011000 aaaab
b1000101 aaaac

#17083899348
b1000101 aaaab
b1010010 aaaac

#17208359348
b1011000 aaaab
b1000101 aaaac

#17824659348
b1000101 aaaab
b1010010 aaaac

#17948839348
b1011000 aaaab
b1000101 aaaac

#18806899348
b1000101 aaaab
b1010010 aaaac

#18931919348
b1011000 aaaab
b1000101 aaaac

#19575499348
b1000101 aaaab
b1010010 aaaac

#19699139348
b1011000 aaaab
b1000101 aaaac

#20566579348
b1000101 aaaab
b1010010 aaaac

#20692219348
b1011000 aaaab
b1000101 aaaac

#21436679348
b1000101 aaaab
b1010010 aaaac

#21560639348
b1011000 aaaab
b1000101 aaaac

#22198979348
b1000101 aaaab
b1010010 aaaac

#22261859348
b1011000 aaaab
b1000101 aaaac

#22308863627
b1000101 aaaab
b1010010 aaaac

#22371043627
b1011000 aaaab
b1000101 aaaac

#23020299348
b1000101 aaaab
b1010010 aaaac

#23082939348
b1011000 aaaab
b1000101 aaaac

#23130743627
b1000101 aaaab
b1010010 aaaac

#23192643627
b1011000 aaaab
b1000101 aaaac

#24612279348
b1000101 aaaab
b1010010 aaaac

#24673699348
b1011000 aaaab
b1000101 aaaac

#24718663627
b1000101 aaaab
b1010010 aaaac

#24780703627
b1011000 aaaab
b1000101 aaaac

#26147919348
b1000101 aaaab
b1010010 aaaac

#26210039348
b1011000 aaaab
b1000101 aaaac

#26255443627
b1000101 aaaab
b1010010 aaaac

#26314643627
b1011000 aaaab
b1000101 aaaac

#27681819348
b1000101 aaaab
b1010010 aaaac

#27744339348
b1011000 aaaab
b1000101 aaaac

#27791583627
b1000101 aaaab
b1010010 aaaac

#27854343627
b1011000 aaaab
b1000101 aaaac

#29213399348
b1000101 aaaab
b1010010 aaaac

#29274939348
b1011000 aaaab
b1000101 aaaac

#29322623627
b1000101 aaaab
b1010010 aaaac

#29384643627
b1011000 aaaab
b1000101 aaaac

#30746259348
b1000101 aaaab
b1010010 aaaac

#30808819348
b1011000 aaaab
b1000101 aaaac

#30856303627
b1000101 aaaab
b1010010 aaaac

#30917923627
b1011000 aaaab
b1000101 aaaac

#32265379348
b1000101 aaaab
b1010010 aaaac

#32327979348
b1011000 aaaab
b1000101 aaaac

#32375503627
b1000101 aaaab
b1010010 aaaac

#32437043627
b1011000 aaaab
b1000101 aaaac

#33813259348
b1000101 aaaab
b1010010 aaaac

#33914979348
b1011000 aaaab
b1000101 aaaac

#33991823627
b1000101 aaaab
b1010010 aaaac

#34054743627
b1011000 aaaab
b1000101 aaaac

#35376779348
b1000101 aaaab
b1010010 aaaac

#35481899348
b1011000 aaaab
b1000101 aaaac

#35557703627
b1000101 aaaab
b1010010 aaaac

#35617983627
b1011000 aaaab
b1000101 aaaac

#36933419348
b1000101 aaaab
b1010010 aaaac

#37036959348
b1011000 aaaab
b1000101 aaaac

#37116183627
b1000101 aaaab
b1010010 aaaac

#37179783627
b1011000 aaaab
b1000101 aaaac

#38509879348
b1000101 aaaab
b1010010 aaaac

#38593759348
b1011000 aaaab
b1000101 aaaac

#38672983627
b1000101 aaaab
b1010010 aaaac

#38735003627
b1011000 aaaab
b1000101 aaaac

#40047319348
b1000101 aaaab
b1010010 aaaac

#40151959348
b1011000 aaaab
b1000101 aaaac

#40231263627
b1000101 aaaab
b1010010 aaaac

#40292563627
b1011000 aaaab
b1000101 aaaac

#41605739348
b1000101 aaaab
b1010010 aaaac

#41711139348
b1011000 aaaab
b1000101 aaaac

#41790123627
b1000101 aaaab
b1010010 aaaac

#41853023627
b1011000 aaaab
b1000101 aaaac

#43149519348
b1000101 aaaab
b1010010 aaaac

#43254259348
b1011000 aaaab
b1000101 aaaac

#43333603627
b1000101 aaaab
b1010010 aaaac

#43397483627
b1011000 aaaab
b1000101 aaaac

#44696539348
b1000101 aaaab
b1010010 aaaac

#44760259348
b1011000 aaaab
b1000101 aaaac

#44839643627
b1000101 aaaab
b1010010 aaaac

#44901283627
b1011000 aaaab
b1000101 aaaac

#46221559348
b1000101 aaaab
b1010010 aaaac

#46327839348
b1011000 aaaab
b1000101 aaaac

#46404203627
b1000101 aaaab
b1010010 aaaac

#46468443627
b1011000 aaaab
b1000101 aaaac

#47780139348
b1000101 aaaab
b1010010 aaaac

#47865579348
b1011000 aaaab
b1000101 aaaac

#47944483627
b1000101 aaaab
b1010010 aaaac

#48007263627
b1011000 aaaab
b1000101 aaaac

#49335119348
b1000101 aaaab
b1010010 aaaac

#49438979348
b1011000 aaaab
b1000101 aaaac

#49517823627
b1000101 aaaab
b1010010 aaaac

#49579723627
b1011000 aaaab
b1000101 aaaac

#50848699348
b1000101 aaaab
b1010010 aaaac

#50973839348
b1011000 aaaab
b1000101 aaaac

#52377599348
b1000101 aaaab
b1010010 aaaac

#52502699348
b1011000 aaaab
b1000101 aaaac

#53939019348
b1000101 aaaab
b1010010 aaaac

#54063019348
b1011000 aaaab
b1000101 aaaac

#55470139348
b1000101 aaaab
b1010010 aaaac

#55596419348
b1011000 aaaab
b1000101 aaaac

#56206119348
b1000101 aaaab
b1010010 aaaac

#56329639348
b1011000 aaaab
b1000101 aaaac

#57004739348
b1000101 aaaab
b1010010 aaaac

#57129599348
b1011000 aaaab
b1000101 aaaac

#58032919348
b1000101 aaaab
b1010010 aaaac

#58157859348
b1011000 aaaab
b1000101 aaaac

#58860439348
b1000101 aaaab
b1010010 aaaac

#58984859348
b1011000 aaaab
b1000101 aaaac

#59621059348
b1000101 aaaab
b1010010 aaaac

#59683299348
b1011000 aaaab
b1000101 aaaac

#59729983627
b1000101 aaaab
b1010010 aaaac

#59790223627
b1011000 aaaab
b1000101 aaaac

#60440599348
b1000101 aaaab
b1010010 aaaac

#60502839348
b1011000 aaaab
b1000101 aaaac

#60550403627
b1000101 aaaab
b1010010 aaaac

#60612723627
b1011000 aaaab
b1000101 aaaac

#62044659348
b1000101 aaaab
b1010010 aaaac

#62106839348
b1011000 aaaab
b1000101 aaaac

#62152083627
b1000101 aaaab
b1010010 aaaac

#62214023627
b1011000 aaaab
b1000101 aaaac

#63567679348
b1000101 aaaab
b1010010 aaaac

#63630559348
b1011000 aaaab
b1000101 aaaac

#63675523627
b1000101 aaaab
b1010010 aaaac

#63736823627
b1011000 aaaab
b1000101 aaaac

#65101879348
b1000101 aaaab
b1010010 aaaac

#65164279348
b1011000 aaaab
b1000101 aaaac

#65210923627
b1000101 aaaab
b1010010 aaaac

#65272263627
b1011000 aaaab
b1000101 aaaac

#66631659348
b1000101 aaaab
b1010010 aaaac

#66692559348
b1011000 aaaab
b1000101 aaaac

#66739523627
b1000101 aaaab
b1010010 aaaac

#66801843627
b1011000 aaaab
b1000101 aaaac

#68159099348
b1000101 aaaab
b1010010 aaaac

#68220779348
b1011000 aaaab
b1000101 aaaac

#68267863627
b1000101 aaaab
b1010010 aaaac

#68327983627
b1011000 aaaab
b1000101 aaaac

#69690319348
b1000101 aaaab
b1010010 aaaac

#69753279348
b1011000 aaaab
b1000101 aaaac

#69800243627
b1000101 aaaab
b1010010 aaaac

#69863603627
b1011000 aaaab
b1000101 aaaac

#71257599348
b1000101 aaaab
b1010010 aaaac

#71359479348
b1011000 aaaab
b1000101 aaaac

#71431263627
b1000101 aaaab
b1010010 aaaac

#71492443627
b1011000 aaaab
b1000101 aaaac

#72816039348
b1000101 aaaab
b1010010 aaaac

#72878599348
b1011000 aaaab
b1000101 aaaac

#72950063627
b1000101 aaaab
b1010010 aaaac

#73011283627
b1011000 aaaab
b1000101 aaaac

#74312699348
b1000101 aaaab
b1010010 aaaac

#74376059348
b1011000 aaaab
b1000101 aaaac

#74447323627
b1000101 aaaab
b1010010 aaaac

#74510183627
b1011000 aaaab
b1000101 aaaac

#75831559348
b1000101 aaaab
b1010010 aaaac

#75936779348
b1011000 aaaab
b1000101 aaaac

#76016363627
b1000101 aaaab
b1010010 aaaac

#76080843627
b1011000 aaaab
b1000101 aaaac

#77368919348
b1000101 aaaab
b1010010 aaaac

#77475439348
b1011000 aaaab
b1000101 aaaac

#77554783627
b1000101 aaaab
b1010010 aaaac

#77616983627
b1011000 aaaab
b1000101 aaaac

#78930019348
b1000101 aaaab
b1010010 aaaac

#79036539348
b1011000 aaaab
b1000101 aaaac

#79115363627
b1000101 aaaab
b1010010 aaaac

#79179843627
b1011000 aaaab
b1000101 aaaac

#80492059348
b1000101 aaaab
b1010010 aaaac

#80555399348
b1011000 aaaab
b1000101 aaaac

#80634823627
b1000101 aaaab
b1010010 aaaac

#80698163627
b1011000 aaaab
b1000101 aaaac

#82011719348
b1000101 aaaab
b1010010 aaaac

#82118239348
b1011000 aaaab
b1000101 aaaac

#82189463627
b1000101 aaaab
b1010010 aaaac

#82252803627
b1011000 aaaab
b1000101 aaaac

#83558719348
b1000101 aaaab
b1010010 aaaac

#83622879348
b1011000 aaaab
b1000101 aaaac

#83694183627
b1000101 aaaab
b1010010 aaaac

#83756243627
b1011000 aaaab
b1000101 aaaac

#85058879348
b1000101 aaaab
b1010010 aaaac

#85162699348
b1011000 aaaab
b1000101 aaaac

#85239543627
b1000101 aaaab
b1010010 aaaac

#85301743627
b1011000 aaaab
b1000101 aaaac

#86617799348
b1000101 aaaab
b1010010 aaaac

#86739999348
b1011000 aaaab
b1000101 aaaac

#88114759348
b1000101 aaaab
b1010010 aaaac

#88239919348
b1011000 aaaab
b1000101 aaaac

#88861179348
b1000101 aaaab
b1010010 aaaac

#88983939348
b1011000 aaaab
b1000101 aaaac

#89662659348
b1000101 aaaab
b1010010 aaaac

#89786359348
b1011000 aaaab
b1000101 aaaac

#90473099348
b1000101 aaaab
b1010010 aaaac

#90597839348
b1011000 aaaab
b1000101 aaaac

#91266719348
b1000101 aaaab
b1010010 aaaac

#91392459348
b1011000 aaaab
b1000101 aaaac

#92078379348
b1000101 aaaab
b1010010 aaaac

#92202939348
b1011000 aaaab
b1000101 aaaac

#92894959348
b1000101 aaaab
b1010010 aaaac

#92957719348
b1011000 aaaab
b1000101 aaaac

#93005323627
b1000101 aaaab
b1010010 aaaac

#93067803627
b1011000 aaaab
b1000101 aaaac

#93894439348
b1000101 aaaab
b1010010 aaaac

#93955619348
b1011000 aaaab
b1000101 aaaac

#94000303627
b1000101 aaaab
b1010010 aaaac

#94062043627
b1011000 aaaab
b1000101 aaaac

#94652379348
b1000101 aaaab
b1010010 aaaac

#94715819348
b1011000 aaaab
b1000101 aaaac

#94762903627
b1000101 aaaab
b1010010 aaaac

#94825003627
b1011000 aaaab
b1000101 aaaac

#96230059348
b1000101 aaaab
b1010010 aaaac

#96293299348
b1011000 aaaab
b1000101 aaaac

#96338263627
b1000101 aaaab
b1010010 aaaac

#96399323627
b1011000 aaaab
b1000101 aaaac

#97783259348
b1000101 aaaab
b1010010 aaaac

#97844879348
b1011000 aaaab
b1000101 aaaac

#97892163627
b1000101 aaaab
b1010010 aaaac

#97955443627
b1011000 aaaab
b1000101 aaaac

#99287119348
b1000101 aaaab
b1010010 aaaac

#99350879348
b1011000 aaaab
b1000101 aaaac

#99398123627
b1000101 aaaab
b1010010 aaaac

#99458883627
b1011000 aaaab
b1000101 aaaac

#100815899348
b1000101 aaaab
b1010010 aaaac

#100879259348
b1011000 aaaab
b1000101 aaaac

#100926223627
b1000101 aaaab
b1010010 aaaac

#100989423627
b1011000 aaaab
b1000101 aaaac

#102336159348
b1000101 aaaab
b1010010 aaaac

#102398419348
b1011000 aaaab
b1000101 aaaac

#102445543627
b1000101 aaaab
b1010010 aaaac

#102507283627
b1011000 aaaab
b1000101 aaaac

#103858159348
b1000101 aaaab
b1010010 aaaac

#103920439348
b1011000 aaaab
b1000101 aaaac

#103992103627
b1000101 aaaab
b1010010 aaaac

#104053723627
b1011000 aaaab
b1000101 aaaac

#105400199348
b1000101 aaaab
b1010010 aaaac

#105462759348
b1011000 aaaab
b1000101 aaaac

#105512363627
b1000101 aaaab
b1010010 aaaac

#105573263627
b1011000 aaaab
b1000101 aaaac

#106923879348
b1000101 aaaab
b1010010 aaaac

#107027219348
b1011000 aaaab
b1000101 aaaac

#107106643627
b1000101 aaaab
b1010010 aaaac

#107170043627
b1011000 aaaab
b1000101 aaaac

#108483939348
b1000101 aaaab
b1010010 aaaac

#108590179348
b1011000 aaaab
b1000101 aaaac

#108668763627
b1000101 aaaab
b1010010 aaaac

#108731003627
b1011000 aaaab
b1000101 aaaac

#110029239348
b1000101 aaaab
b1010010 aaaac

#110135799348
b1011000 aaaab
b1000101 aaaac

#110180463627
b1000101 aaaab
b1010010 aaaac

#110244303627
b1011000 aaaab
b1000101 aaaac

#111554119348
b1000101 aaaab
b1010010 aaaac

#111677879348
b1011000 aaaab
b1000101 aaaac

#112685279348
b1000101 aaaab
b1010010 aaaac

#112748639348
b1011000 aaaab
b1000101 aaaac

#112793763627
b1000101 aaaab
b1010010 aaaac

#112856303627
b1011000 aaaab
b1000101 aaaac

#113813199348
b1000101 aaaab
b1010010 aaaac

#113876879348
b1011000 aaaab
b1000101 aaaac

#113923843627
b1000101 aaaab
b1010010 aaaac

#113986583627
b1011000 aaaab
b1000101 aaaac

#115119619348
b1000101 aaaab
b1010010 aaaac

#115182519348
b1011000 aaaab
b1000101 aaaac

#115227363627
b1000101 aaaab
b1010010 aaaac

#115291243627
b1011000 aaaab
b1000101 aaaac

#116648199348
b1000101 aaaab
b1010010 aaaac

#116772999348
b1011000 aaaab
b1000101 aaaac

#118162719348
b1000101 aaaab
b1010010 aaaac

#118289559348
b1011000 aaaab
b1000101 aaaac

#119678919348
b1000101 aaaab
b1010010 aaaac

#119803839348
b1011000 aaaab
b1000101 aaaac

#120805759348
b1000101 aaaab
b1010010 aaaac

#120931139348
b1011000 aaaab
b1000101 aaaac

#121574399348
b1000101 aaaab
b1010010 aaaac

#121698859348
b1011000 aaaab
b1000101 aaaac

#122382739348
b1000101 aaaab
b1010010 aaaac

#122506839348
b1011000 aaaab
b1000101 aaaac

#123184919348
b1000101 aaaab
b1010010 aaaac

#123308599348
b1011000 aaaab
b1000101 aaaac

#124151839348
b1000101 aaaab
b1010010 aaaac

#124276679348
b1011000 aaaab
b1000101 aaaac

#124912259348
b1000101 aaaab
b1010010 aaaac

#125035059348
b1011000 aaaab
b1000101 aaaac

#125826299348
b1000101 aaaab
b1010010 aaaac

#125888339348
b1011000 aaaab
b1000101 aaaac

#125933743627
b1000101 aaaab
b1010010 aaaac

#125995283627
b1011000 aaaab
b1000101 aaaac

#126601019348
b1000101 aaaab
b1010010 aaaac

#126663779348
b1011000 aaaab
b1000101 aaaac

#126711183627
b1000101 aaaab
b1010010 aaaac

#126772723627
b1011000 aaaab
b1000101 aaaac

#127796539348
b1000101 aaaab
b1010010 aaaac

#127921439348
b1011000 aaaab
b1000101 aaaac

#129318959348
b1000101 aaaab
b1010010 aaaac

#129382519348
b1011000 aaaab
b1000101 aaaac

#129427643627
b1000101 aaaab
b1010010 aaaac

#129488883627
b1011000 aaaab
b1000101 aaaac

#130843679348
b1000101 aaaab
b1010010 aaaac

#130907239348
b1011000 aaaab
b1000101 aaaac

#130952483627
b1000101 aaaab
b1010010 aaaac

#131015763627
b1011000 aaaab
b1000101 aaaac

#132378639348
b1000101 aaaab
b1010010 aaaac

#132440219348
b1011000 aaaab
b1000101 aaaac

#132487463627
b1000101 aaaab
b1010010 aaaac

#132549203627
b1011000 aaaab
b1000101 aaaac

#133873339348
b1000101 aaaab
b1010010 aaaac

#133935819348
b1011000 aaaab
b1000101 aaaac

#133983103627
b1000101 aaaab
b1010010 aaaac

#134044683627
b1011000 aaaab
b1000101 aaaac

#135388659348
b1000101 aaaab
b1010010 aaaac

#135451379348
b1011000 aaaab
b1000101 aaaac

#135498063627
b1000101 aaaab
b1010010 aaaac

#135560083627
b1011000 aaaab
b1000101 aaaac

#136883379348
b1000101 aaaab
b1010010 aaaac

#136945079348
b1011000 aaaab
b1000101 aaaac

#136992603627
b1000101 aaaab
b1010010 aaaac

#137055163627
b1011000 aaaab
b1000101 aaaac

#138437119348
b1000101 aaaab
b1010010 aaaac

#138499519348
b1011000 aaaab
b1000101 aaaac

#138556883627
b1000101 aaaab
b1010010 aaaac

#138617843627
b1011000 aaaab
b1000101 aaaac

#139960779348
b1000101 aaaab
b1010010 aaaac

#140064759348
b1011000 aaaab
b1000101 aaaac

#140144503627
b1000101 aaaab
b1010010 aaaac

#140208503627
b1011000 aaaab
b1000101 aaaac

#141526139348
b1000101 aaaab
b1010010 aaaac

#141629139348
b1011000 aaaab
b1000101 aaaac

#141708203627
b1000101 aaaab
b1010010 aaaac

#141771223627
b1011000 aaaab
b1000101 aaaac

#143079479348
b1000101 aaaab
b1010010 aaaac

#143142439348
b1011000 aaaab
b1000101 aaaac

#143192703627
b1000101 aaaab
b1010010 aaaac

#143254643627
b1011000 aaaab
b1000101 aaaac

#144604379348
b1000101 aaaab
b1010010 aaaac

#144667779348
b1011000 aaaab
b1000101 aaaac

#144747043627
b1000101 aaaab
b1010010 aaaac

#144810063627
b1011000 aaaab
b1000101 aaaac

#146137219348
b1000101 aaaab
b1010010 aaaac

#146242039348
b1011000 aaaab
b1000101 aaaac

#146312943627
b1000101 aaaab
b1010010 aaaac

#146376383627
b1011000 aaaab
b1000101 aaaac

#147726899348
b1000101 aaaab
b1010010 aaaac

#147812879348
b1011000 aaaab
b1000101 aaaac

#147892463627
b1000101 aaaab
b1010010 aaaac

#147952903627
b1011000 aaaab
b1000101 aaaac

#149277019348
b1000101 aaaab
b1010010 aaaac

#149362439348
b1011000 aaaab
b1000101 aaaac

#149442303627
b1000101 aaaab
b1010010 aaaac

#149505503627
b1011000 aaaab
b1000101 aaaac

#150795199348
b1000101 aaaab
b1010010 aaaac

#150898539348
b1011000 aaaab
b1000101 aaaac

#150975063627
b1000101 aaaab
b1010010 aaaac

#151037163627
b1011000 aaaab
b1000101 aaaac

#152358179348
b1000101 aaaab
b1010010 aaaac

#152462479348
b1011000 aaaab
b1000101 aaaac

#152538363627
b1000101 aaaab
b1010010 aaaac

#152600943627
b1011000 aaaab
b1000101 aaaac

#153943059348
b1000101 aaaab
b1010010 aaaac

#154107899348
b1011000 aaaab
b1000101 aaaac

#155454719348
b1000101 aaaab
b1010010 aaaac

#155580699348
b1011000 aaaab
b1000101 aaaac

#156994439348
b1000101 aaaab
b1010010 aaaac

#157118799348
b1011000 aaaab
b1000101 aaaac

#158520319348
b1000101 aaaab
b1010010 aaaac

#158647119348
b1011000 aaaab
b1000101 aaaac

#159356419348
b1000101 aaaab
b1010010 aaaac

#159479779348
b1011000 aaaab
b1000101 aaaac

#160123399348
b1000101 aaaab
b1010010 aaaac

#160186439348
b1011000 aaaab
b1000101 aaaac

#160233603627
b1000101 aaaab
b1010010 aaaac

#160295183627
b1011000 aaaab
b1000101 aaaac

#161041739348
b1000101 aaaab
b1010010 aaaac

#161104939348
b1011000 aaaab
b1000101 aaaac

#161150443627
b1000101 aaaab
b1010010 aaaac

#161211503627
b1011000 aaaab
b1000101 aaaac

#162195699348
b1000101 aaaab
b1010010 aaaac

#162320359348
b1011000 aaaab
b1000101 aaaac

#163776699348
b1000101 aaaab
b1010010 aaaac

#163901539348
b1011000 aaaab
b1000101 aaaac

#165273659348
b1000101 aaaab
b1010010 aaaac

#165336779348
b1011000 aaaab
b1000101 aaaac

#165381623627
b1000101 aaaab
b1010010 aaaac

#165444743627
b1011000 aaaab
b1000101 aaaac

#166030219348
b1000101 aaaab
b1010010 aaaac

#166091239348
b1011000 aaaab
b1000101 aaaac

#166138523627
b1000101 aaaab
b1010010 aaaac

#166200063627
b1011000 aaaab
b1000101 aaaac

#167606319348
b1000101 aaaab
b1010010 aaaac

#167668879348
b1011000 aaaab
b1000101 aaaac

#167713403627
b1000101 aaaab
b1010010 aaaac

#167775423627
b1011000 aaaab
b1000101 aaaac

#169105639348
b1000101 aaaab
b1010010 aaaac

#169169159348
b1011000 aaaab
b1000101 aaaac

#169215963627
b1000101 aaaab
b1010010 aaaac

#169278023627
b1011000 aaaab
b1000101 aaaac

#170638279348
b1000101 aaaab
b1010010 aaaac

#170699859348
b1011000 aaaab
b1000101 aaaac

#170745143627
b1000101 aaaab
b1010010 aaaac

#170808183627
b1011000 aaaab
b1000101 aaaac

#172191339348
b1000101 aaaab
b1010010 aaaac

#172253899348
b1011000 aaaab
b1000101 aaaac

#172301463627
b1000101 aaaab
b1010010 aaaac

#172362023627
b1011000 aaaab
b1000101 aaaac

#173721579348
b1000101 aaaab
b1010010 aaaac

#173784739348
b1011000 aaaab
b1000101 aaaac

#173829583627
b1000101 aaaab
b1010010 aaaac

#173893103627
b1011000 aaaab
b1000101 aaaac

#175252699348
b1000101 aaaab
b1010010 aaaac

#175315519348
b1011000 aaaab
b1000101 aaaac

#175362883627
b1000101 aaaab
b1010010 aaaac

#175423103627
b1011000 aaaab
b1000101 aaaac

#176778839348
b1000101 aaaab
b1010010 aaaac

#176841359348
b1011000 aaaab
b1000101 aaaac

#176888363627
b1000101 aaaab
b1010010 aaaac

#176950543627
b1011000 aaaab
b1000101 aaaac

#178295279348
b1000101 aaaab
b1010010 aaaac

#178358159348
b1011000 aaaab
b1000101 aaaac

#178405163627
b1000101 aaaab
b1010010 aaaac

#178467663627
b1011000 aaaab
b1000101 aaaac

#179815319348
b1000101 aaaab
b1010010 aaaac

#179878019348
b1011000 aaaab
b1000101 aaaac

#179925583627
b1000101 aaaab
b1010010 aaaac

#179989903627
b1011000 aaaab
b1000101 aaaac

#181387719348
b1000101 aaaab
b1010010 aaaac

#181451679348
b1011000 aaaab
b1000101 aaaac

#181522983627
b1000101 aaaab
b1010010 aaaac

#181584903627
b1011000 aaaab
b1000101 aaaac

#182894719348
b1000101 aaaab
b1010010 aaaac

#182958359348
b1011000 aaaab
b1000101 aaaac

#183029983627
b1000101 aaaab
b1010010 aaaac

#183093503627
b1011000 aaaab
b1000101 aaaac

#184423199348
b1000101 aaaab
b1010010 aaaac

#184485059348
b1011000 aaaab
b1000101 aaaac

#184556523627
b1000101 aaaab
b1010010 aaaac

#184618903627
b1011000 aaaab
b1000101 aaaac

#185970739348
b1000101 aaaab
b1010010 aaaac

#186076219348
b1011000 aaaab
b1000101 aaaac

#186156023627
b1000101 aaaab
b1010010 aaaac

#186218363627
b1011000 aaaab
b1000101 aaaac

#187493959348
b1000101 aaaab
b1010010 aaaac

#187579859348
b1011000 aaaab
b1000101 aaaac

#187656503627
b1000101 aaaab
b1010010 aaaac

#187719803627
b1011000 aaaab
b1000101 aaaac

#189026599348
b1000101 aaaab
b1010010 aaaac

#189176359348
b1011000 aaaab
b1000101 aaaac

#190539299348
b1000101 aaaab
b1010010 aaaac

#190663499348
b1011000 aaaab
b1000101 aaaac

#192081879348
b1000101 aaaab
b1010010 aaaac

#192206839348
b1011000 aaaab
b1000101 aaaac

#193613059348
b1000101 aaaab
b1010010 aaaac

#193735499348
b1011000 aaaab
b1000101 aaaac

#194361439348
b1000101 aaaab
b1010010 aaaac

#194486379348
b1011000 aaaab
b1000101 aaaac

#195414619348
b1000101 aaaab
b1010010 aaaac

#195476819348
b1011000 aaaab
b1000101 aaaac

#195524023627
b1000101 aaaab
b1010010 aaaac

#195585483627
b1011000 aaaab
b1000101 aaaac

#196311819348
b1000101 aaaab
b1010010 aaaac

#196435999348
b1011000 aaaab
b1000101 aaaac

#197254879348
b1000101 aaaab
b1010010 aaaac

#197377399348
b1011000 aaaab
b1000101 aaaac

#198275259348
b1000101 aaaab
b1010010 aaaac

#198400419348
b1011000 aaaab
b1000101 aaaac

#199056299348
b1000101 aaaab
b1010010 aaaac

#199118839348
b1011000 aaaab
b1000101 aaaac

#199166123627
b1000101 aaaab
b1010010 aaaac

#199227343627
b1011000 aaaab
b1000101 aaaac

#200260799348
b1000101 aaaab
b1010010 aaaac

#200323599348
b1011000 aaaab
b1000101 aaaac

#200368923627
b1000101 aaaab
b1010010 aaaac

#200430183627
b1011000 aaaab
b1000101 aaaac

#201823499348
b1000101 aaaab
b1010010 aaaac

#201886219348
b1011000 aaaab
b1000101 aaaac

#201931183627
b1000101 aaaab
b1010010 aaaac

#201992563627
b1011000 aaaab
b1000101 aaaac

#203375179348
b1000101 aaaab
b1010010 aaaac

#203436719348
b1011000 aaaab
b1000101 aaaac

#203481963627
b1000101 aaaab
b1010010 aaaac

#203544803627
b1011000 aaaab
b1000101 aaaac

#204890599348
b1000101 aaaab
b1010010 aaaac

#204953959348
b1011000 aaaab
b1000101 aaaac

#205001163627
b1000101 aaaab
b1010010 aaaac

#205062443627
b1011000 aaaab
b1000101 aaaac

#206407739348
b1000101 aaaab
b1010010 aaaac

#206470259348
b1011000 aaaab
b1000101 aaaac

#206517503627
b1000101 aaaab
b1010010 aaaac

#206579743627
b1011000 aaaab
b1000101 aaaac

#207909439348
b1000101 aaaab
b1010010 aaaac

#207969979348
b1011000 aaaab
b1000101 aaaac

#208017503627
b1000101 aaaab
b1010010 aaaac

#208078603627
b1011000 aaaab
b1000101 aaaac

#209412339348
b1000101 aaaab
b1010010 aaaac

#209474819348
b1011000 aaaab
b1000101 aaaac

#209521903627
b1000101 aaaab
b1010010 aaaac

#209582763627
b1011000 aaaab
b1000101 aaaac

#210958779348
b1000101 aaaab
b1010010 aaaac

#211020979348
b1011000 aaaab
b1000101 aaaac

#211040283627
b1000101 aaaab
b1010010 aaaac

#211101623627
b1011000 aaaab
b1000101 aaaac

#212449339348
b1000101 aaaab
b1010010 aaaac

#212511079348
b1011000 aaaab
b1000101 aaaac

#212555643627
b1000101 aaaab
b1010010 aaaac

#212618963627
b1011000 aaaab
b1000101 aaaac

#213954699348
b1000101 aaaab
b1010010 aaaac

#214079259348
b1011000 aaaab
b1000101 aaaac

#215453419348
b1000101 aaaab
b1010010 aaaac

#215579499348
b1011000 aaaab
b1000101 aaaac

#216954199348
b1000101 aaaab
b1010010 aaaac

#217076879348
b1011000 aaaab
b1000101 aaaac

#218454699348
b1000101 aaaab
b1010010 aaaac

#218580959348
b1011000 aaaab
b1000101 aaaac

#219998879348
b1000101 aaaab
b1010010 aaaac

#220166979348
b1011000 aaaab
b1000101 aaaac

#221548459348
b1000101 aaaab
b1010010 aaaac

#221712899348
b1011000 aaaab
b1000101 aaaac

#223084239348
b1000101 aaaab
b1010010 aaaac

#223250799348
b1011000 aaaab
b1000101 aaaac

#224621939348
b1000101 aaaab
b1010010 aaaac

#224790419348
b1011000 aaaab
b1000101 aaaac

#226139579348
b1000101 aaaab
b1010010 aaaac

#226285879348
b1011000 aaaab
b1000101 aaaac

#227679319348
b1000101 aaaab
b1010010 aaaac

#227826599348
b1011000 aaaab
b1000101 aaaac

#229218379348
b1000101 aaaab
b1010010 aaaac

#229383499348
b1011000 aaaab
b1000101 aaaac

#230773559348
b1000101 aaaab
b1010010 aaaac

#230856959348
b1011000 aaaab
b1000101 aaaac

#230859663627
b1000101 aaaab
b1010010 aaaac

#230922783627
b1011000 aaaab
b1000101 aaaac

#232291819348
b1000101 aaaab
b1010010 aaaac

#232437199348
b1011000 aaaab
b1000101 aaaac

#233807959348
b1000101 aaaab
b1010010 aaaac

#233933839348
b1011000 aaaab
b1000101 aaaac

#235333139348
b1000101 aaaab
b1010010 aaaac

#235457099348
b1011000 aaaab
b1000101 aaaac

#236824939348
b1000101 aaaab
b1010010 aaaac

