examples/VAD_attempt_cpp/rtos3_trace.vcd
$comment
File created by KisTA library.
 Author: F.Herrera
 Institution: KTH
 Date: 2013
	All rights reserved by the authors, till further definition of the license.
$end

$comment
Tracing options used include to trace Task State signals,  Scheduler signals 
$end

$date
     Jul 12, 2016       15:20:39
$end

$version
 SystemC 2.3.1-Accellera --- Mar 29 2016 16:10:40
$end

$timescale
     1 ps
$end

$scope module SystemC $end
$var wire    8  aaaaa  sched3 [7:0]  $end
$var wire    8  aaaab  T5 [7:0]  $end
$var wire    8  aaaac  T6 [7:0]  $end
$upscope $end
$enddefinitions  $end

$comment
All initial values are dumped below at time 0 sec = 0 timescale units.
$end

$dumpvars
b1001001 aaaaa
b1000011 aaaab
b1011000 aaaac
$end

#1399159674
b1000101 aaaab

#1699659674
b1010010 aaaac

#1728559674
b1011000 aaaab
b1000101 aaaac

#1733039674
b1000011 aaaab
b1011000 aaaac

#1769763953
b1011000 aaaab
b1000101 aaaac

#1837243953
b1000011 aaaab
b1011000 aaaac

#2067379674
b1000101 aaaab

#2432599674
b1010010 aaaac

#2523279674
b1011000 aaaab
b1000101 aaaac

#2531219674
b1000011 aaaab
b1011000 aaaac

#2569043953
b1011000 aaaab
b1000101 aaaac

#2583223953
b1000011 aaaab
b1011000 aaaac

#2734359674
b1000101 aaaab

#3093779674
b1010010 aaaac

#3181559674
b1011000 aaaab
b1000101 aaaac

#3191779674
b1000011 aaaab
b1011000 aaaac

#3229223953
b1011000 aaaab
b1000101 aaaac

#3244803953
b1000011 aaaab
b1011000 aaaac

#3840339674
b1000101 aaaab

#4671339674
b1010010 aaaac

#4784319674
b1011000 aaaab
b1000101 aaaac

#4794539674
b1000011 aaaab
b1011000 aaaac

#4832363953
b1011000 aaaab
b1000101 aaaac

#4847943953
b1000011 aaaab
b1011000 aaaac

#5383119674
b1000101 aaaab

#6198719674
b1010010 aaaac

#6321719674
b1011000 aaaab
b1000101 aaaac

#6331939674
b1000011 aaaab
b1011000 aaaac

#6369763953
b1011000 aaaab
b1000101 aaaac

#6385343953
b1000011 aaaab
b1011000 aaaac

#6905939674
b1000101 aaaab

#7730359674
b1010010 aaaac

#7850119674
b1011000 aaaab
b1000101 aaaac

#7860339674
b1000011 aaaab
b1011000 aaaac

#7897663953
b1011000 aaaab
b1000101 aaaac

#7942523953
b1000011 aaaab
b1011000 aaaac

#8430179674
b1000101 aaaab

#9251439674
b1010010 aaaac

#9374099674
b1011000 aaaab
b1000101 aaaac

#9413599674
b1000011 aaaab
b1011000 aaaac

#9450743953
b1011000 aaaab
b1000101 aaaac

#9595923953
b1000011 aaaab
b1011000 aaaac

#10001439674
b1000101 aaaab

#10818759674
b1010010 aaaac

#10941759674
b1011000 aaaab
b1000101 aaaac

#10981259674
b1000011 aaaab
b1011000 aaaac

#11018963953
b1011000 aaaab
b1000101 aaaac

#11144023953
b1000011 aaaab
b1011000 aaaac

#11539119674
b1000101 aaaab

#12349219674
b1010010 aaaac

#12471219674
b1011000 aaaab
b1000101 aaaac

#12510719674
b1000011 aaaab
b1011000 aaaac

#12547743953
b1011000 aaaab
b1000101 aaaac

#12673503953
b1000011 aaaab
b1011000 aaaac

#13081799674
b1000101 aaaab

#13893539674
b1010010 aaaac

#14011379674
b1011000 aaaab
b1000101 aaaac

#14050879674
b1000011 aaaab
b1011000 aaaac

#14087463953
b1011000 aaaab
b1000101 aaaac

#14212503953
b1000011 aaaab
b1011000 aaaac

#14622739674
b1000101 aaaab

#15439699674
b1010010 aaaac

#15543359674
b1011000 aaaab
b1000101 aaaac

#15551299674
b1000011 aaaab
b1011000 aaaac

#15588643953
b1011000 aaaab
b1000101 aaaac

#15601803953
b1000011 aaaab
b1011000 aaaac

#16143419674
b1000101 aaaab

#16939859674
b1010010 aaaac

#17041979674
b1011000 aaaab
b1000101 aaaac

#17049919674
b1000011 aaaab
b1011000 aaaac

#17087103953
b1011000 aaaab
b1000101 aaaac

#17100403953
b1000011 aaaab
b1011000 aaaac

#17286099674
b1000101 aaaab

#17700939674
b1010010 aaaac

#17783059674
b1011000 aaaab
b1000101 aaaac

#17790999674
b1000011 aaaab
b1011000 aaaac

#17827863953
b1011000 aaaab
b1000101 aaaac

#17843443953
b1000011 aaaab
b1011000 aaaac

#18092779674
b1000101 aaaab

#18652019674
b1010010 aaaac

#18763179674
b1011000 aaaab
b1000101 aaaac

#18773399674
b1000011 aaaab
b1011000 aaaac

#18810103953
b1011000 aaaab
b1000101 aaaac

#18823403953
b1000011 aaaab
b1011000 aaaac

#19033119674
b1000101 aaaab

#19457999674
b1010010 aaaac

#19534319674
b1011000 aaaab
b1000101 aaaac

#19542359674
b1000011 aaaab
b1011000 aaaac

#19578703953
b1011000 aaaab
b1000101 aaaac

#19592003953
b1000011 aaaab
b1011000 aaaac

#19841279674
b1000101 aaaab

#20399899674
b1010010 aaaac

#20525339674
b1011000 aaaab
b1000101 aaaac

#20533279674
b1000011 aaaab
b1011000 aaaac

#20569783953
b1011000 aaaab
b1000101 aaaac

#20583183953
b1000011 aaaab
b1011000 aaaac

#20850979674
b1000101 aaaab

#21316099674
b1010010 aaaac

#21395279674
b1011000 aaaab
b1000101 aaaac

#21403219674
b1000011 aaaab
b1011000 aaaac

#21439883953
b1011000 aaaab
b1000101 aaaac

#21453183953
b1000011 aaaab
b1011000 aaaac

#21653599674
b1000101 aaaab

#22072399674
b1010010 aaaac

#22154379674
b1011000 aaaab
b1000101 aaaac

#22164599674
b1000011 aaaab
b1011000 aaaac

#22202183953
b1011000 aaaab
b1000101 aaaac

#22275283953
b1000011 aaaab
b1011000 aaaac

#22462979674
b1000101 aaaab

#22888479674
b1010010 aaaac

#22976259674
b1011000 aaaab
b1000101 aaaac

#22986479674
b1000011 aaaab
b1011000 aaaac

#23023503953
b1011000 aaaab
b1000101 aaaac

#23096363953
b1000011 aaaab
b1011000 aaaac

#23622779674
b1000101 aaaab

#24451119674
b1010010 aaaac

#24571079674
b1011000 aaaab
b1000101 aaaac

#24579019674
b1000011 aaaab
b1011000 aaaac

#24615483953
b1011000 aaaab
b1000101 aaaac

#24684843953
b1000011 aaaab
b1011000 aaaac

#25172359674
b1000101 aaaab

#25991199674
b1010010 aaaac

#26106159674
b1011000 aaaab
b1000101 aaaac

#26114099674
b1000011 aaaab
b1011000 aaaac

#26151123953
b1011000 aaaab
b1000101 aaaac

#26221183953
b1000011 aaaab
b1011000 aaaac

#26690199674
b1000101 aaaab

#27513899674
b1010010 aaaac

#27637219674
b1011000 aaaab
b1000101 aaaac

#27647439674
b1000011 aaaab
b1011000 aaaac

#27685023953
b1011000 aaaab
b1000101 aaaac

#27757763953
b1000011 aaaab
b1011000 aaaac

#28232339674
b1000101 aaaab

#29052679674
b1010010 aaaac

#29169279674
b1011000 aaaab
b1000101 aaaac

#29179499674
b1000011 aaaab
b1011000 aaaac

#29216603953
b1011000 aaaab
b1000101 aaaac

#29288363953
b1000011 aaaab
b1011000 aaaac

#29757999674
b1000101 aaaab

#30582459674
b1010010 aaaac

#30702659674
b1011000 aaaab
b1000101 aaaac

#30712879674
b1000011 aaaab
b1011000 aaaac

#30749463953
b1011000 aaaab
b1000101 aaaac

#30822243953
b1000011 aaaab
b1011000 aaaac

#31289299674
b1000101 aaaab

#32109419674
b1010010 aaaac

#32221379674
b1011000 aaaab
b1000101 aaaac

#32231599674
b1000011 aaaab
b1011000 aaaac

#32268583953
b1011000 aaaab
b1000101 aaaac

#32341403953
b1000011 aaaab
b1011000 aaaac

#32806339674
b1000101 aaaab

#33622959674
b1010010 aaaac

#33739899674
b1011000 aaaab
b1000101 aaaac

#33779399674
b1000011 aaaab
b1011000 aaaac

#33816463953
b1011000 aaaab
b1000101 aaaac

#33957683953
b1000011 aaaab
b1011000 aaaac

#34367039674
b1000101 aaaab

#35184979674
b1010010 aaaac

#35303659674
b1011000 aaaab
b1000101 aaaac

#35343159674
b1000011 aaaab
b1011000 aaaac

#35379983953
b1011000 aaaab
b1000101 aaaac

#35524603953
b1000011 aaaab
b1011000 aaaac

#35935979674
b1000101 aaaab

#36746459674
b1010010 aaaac

#36860099674
b1011000 aaaab
b1000101 aaaac

#36899599674
b1000011 aaaab
b1011000 aaaac

#36936623953
b1011000 aaaab
b1000101 aaaac

#37082683953
b1000011 aaaab
b1011000 aaaac

#37500239674
b1000101 aaaab

#38310119674
b1010010 aaaac

#38430879674
b1011000 aaaab
b1000101 aaaac

#38475779674
b1000011 aaaab
b1011000 aaaac

#38513083953
b1011000 aaaab
b1000101 aaaac

#38638963953
b1000011 aaaab
b1011000 aaaac

#39036619674
b1000101 aaaab

#39849179674
b1010010 aaaac

#39971619674
b1011000 aaaab
b1000101 aaaac

#40013619674
b1000011 aaaab
b1011000 aaaac

#40050523953
b1011000 aaaab
b1000101 aaaac

#40197163953
b1000011 aaaab
b1011000 aaaac

#40588299674
b1000101 aaaab

#41408279674
b1010010 aaaac

#41529719674
b1011000 aaaab
b1000101 aaaac

#41571719674
b1000011 aaaab
b1011000 aaaac

#41608943953
b1011000 aaaab
b1000101 aaaac

#41756343953
b1000011 aaaab
b1011000 aaaac

#42144919674
b1000101 aaaab

#42952399674
b1010010 aaaac

#43073899674
b1011000 aaaab
b1000101 aaaac

#43115899674
b1000011 aaaab
b1011000 aaaac

#43152723953
b1011000 aaaab
b1000101 aaaac

#43299463953
b1000011 aaaab
b1011000 aaaac

#43701099674
b1000101 aaaab

#44511219674
b1010010 aaaac

#44628559674
b1011000 aaaab
b1000101 aaaac

#44662839674
b1000011 aaaab
b1011000 aaaac

#44699743953
b1011000 aaaab
b1000101 aaaac

#44805463953
b1000011 aaaab
b1011000 aaaac

#45210019674
b1000101 aaaab

#46028319674
b1010010 aaaac

#46145779674
b1011000 aaaab
b1000101 aaaac

#46187779674
b1000011 aaaab
b1011000 aaaac

#46224763953
b1011000 aaaab
b1000101 aaaac

#46370543953
b1000011 aaaab
b1011000 aaaac

#46775959674
b1000101 aaaab

#47582099674
b1010010 aaaac

#47704599674
b1011000 aaaab
b1000101 aaaac

#47746599674
b1000011 aaaab
b1011000 aaaac

#47783343953
b1011000 aaaab
b1000101 aaaac

#47910783953
b1000011 aaaab
b1011000 aaaac

#48316519674
b1000101 aaaab

#49134399674
b1010010 aaaac

#49258079674
b1011000 aaaab
b1000101 aaaac

#49300639674
b1000011 aaaab
b1011000 aaaac

#49338323953
b1011000 aaaab
b1000101 aaaac

#49483463953
b1000011 aaaab
b1011000 aaaac

#49882799674
b1000101 aaaab

#50691579674
b1010010 aaaac

#50807019674
b1011000 aaaab
b1000101 aaaac

#50814959674
b1000011 aaaab
b1011000 aaaac

#50851903953
b1011000 aaaab
b1000101 aaaac

#50866083953
b1000011 aaaab
b1011000 aaaac

#51418959674
b1000101 aaaab

#52228879674
b1010010 aaaac

#52332959674
b1011000 aaaab
b1000101 aaaac

#52343179674
b1000011 aaaab
b1011000 aaaac

#52380803953
b1011000 aaaab
b1000101 aaaac

#52396383953
b1000011 aaaab
b1011000 aaaac

#52961299674
b1000101 aaaab

#53778299674
b1010010 aaaac

#53897399674
b1011000 aaaab
b1000101 aaaac

#53905339674
b1000011 aaaab
b1011000 aaaac

#53942223953
b1011000 aaaab
b1000101 aaaac

#53955523953
b1000011 aaaab
b1011000 aaaac

#54487559674
b1000101 aaaab

#55307679674
b1010010 aaaac

#55428339674
b1011000 aaaab
b1000101 aaaac

#55436279674
b1000011 aaaab
b1011000 aaaac

#55473343953
b1011000 aaaab
b1000101 aaaac

#55486643953
b1000011 aaaab
b1011000 aaaac

#55668139674
b1000101 aaaab

#56085239674
b1010010 aaaac

#56164319674
b1011000 aaaab
b1000101 aaaac

#56172259674
b1000011 aaaab
b1011000 aaaac

#56209323953
b1011000 aaaab
b1000101 aaaac

#56224903953
b1000011 aaaab
b1011000 aaaac

#56470559674
b1000101 aaaab

#56884599674
b1010010 aaaac

#56960779674
b1011000 aaaab
b1000101 aaaac

#56970999674
b1000011 aaaab
b1011000 aaaac

#57007943953
b1011000 aaaab
b1000101 aaaac

#57023523953
b1000011 aaaab
b1011000 aaaac

#57333219674
b1000101 aaaab

#57869199674
b1010010 aaaac

#57991239674
b1011000 aaaab
b1000101 aaaac

#57999179674
b1000011 aaaab
b1011000 aaaac

#58036123953
b1011000 aaaab
b1000101 aaaac

#58049423953
b1000011 aaaab
b1011000 aaaac

#58212279674
b1000101 aaaab

#58699519674
b1010010 aaaac

#58819079674
b1011000 aaaab
b1000101 aaaac

#58827019674
b1000011 aaaab
b1011000 aaaac

#58863643953
b1011000 aaaab
b1000101 aaaac

#58876943953
b1000011 aaaab
b1011000 aaaac

#59079619674
b1000101 aaaab

#59496999674
b1010010 aaaac

#59578979674
b1011000 aaaab
b1000101 aaaac

#59586919674
b1000011 aaaab
b1011000 aaaac

#59624263953
b1011000 aaaab
b1000101 aaaac

#59696723953
b1000011 aaaab
b1011000 aaaac

#59885839674
b1000101 aaaab

#60308499674
b1010010 aaaac

#60396279674
b1011000 aaaab
b1000101 aaaac

#60406499674
b1000011 aaaab
b1011000 aaaac

#60443803953
b1011000 aaaab
b1000101 aaaac

#60516263953
b1000011 aaaab
b1011000 aaaac

#61052459674
b1000101 aaaab

#61882219674
b1010010 aaaac

#62003219674
b1011000 aaaab
b1000101 aaaac

#62011159674
b1000011 aaaab
b1011000 aaaac

#62047863953
b1011000 aaaab
b1000101 aaaac

#62117983953
b1000011 aaaab
b1011000 aaaac

#62583179674
b1000101 aaaab

#63405879674
b1010010 aaaac

#63526159674
b1011000 aaaab
b1000101 aaaac

#63534099674
b1000011 aaaab
b1011000 aaaac

#63570883953
b1011000 aaaab
b1000101 aaaac

#63641703953
b1000011 aaaab
b1011000 aaaac

#64114919674
b1000101 aaaab

#64937979674
b1010010 aaaac

#65058119674
b1011000 aaaab
b1000101 aaaac

#65068339674
b1000011 aaaab
b1011000 aaaac

#65105083953
b1011000 aaaab
b1000101 aaaac

#65177703953
b1000011 aaaab
b1011000 aaaac

#65659819674
b1000101 aaaab

#66472299674
b1010010 aaaac

#66587619674
b1011000 aaaab
b1000101 aaaac

#66597839674
b1000011 aaaab
b1011000 aaaac

#66634863953
b1011000 aaaab
b1000101 aaaac

#66705983953
b1000011 aaaab
b1011000 aaaac

#67175679674
b1000101 aaaab

#67996239674
b1010010 aaaac

#68114699674
b1011000 aaaab
b1000101 aaaac

#68124919674
b1000011 aaaab
b1011000 aaaac

#68162303953
b1011000 aaaab
b1000101 aaaac

#68234203953
b1000011 aaaab
b1011000 aaaac

#68700299674
b1000101 aaaab

#69526339674
b1010010 aaaac

#69646279674
b1011000 aaaab
b1000101 aaaac

#69656499674
b1000011 aaaab
b1011000 aaaac

#69693523953
b1011000 aaaab
b1000101 aaaac

#69766703953
b1000011 aaaab
b1011000 aaaac

#70246279674
b1000101 aaaab

#71061719674
b1010010 aaaac

#71181859674
b1011000 aaaab
b1000101 aaaac

#71223859674
b1000011 aaaab
b1011000 aaaac

#71260803953
b1011000 aaaab
b1000101 aaaac

#71396963953
b1000011 aaaab
b1011000 aaaac

#71807719674
b1000101 aaaab

#72624279674
b1010010 aaaac

#72747819674
b1011000 aaaab
b1000101 aaaac

#72782099674
b1000011 aaaab
b1011000 aaaac

#72819243953
b1011000 aaaab
b1000101 aaaac

#72916083953
b1000011 aaaab
b1011000 aaaac

#73302959674
b1000101 aaaab

#74124739674
b1010010 aaaac

#74244359674
b1011000 aaaab
b1000101 aaaac

#74278639674
b1000011 aaaab
b1011000 aaaac

#74315903953
b1011000 aaaab
b1000101 aaaac

#74413543953
b1000011 aaaab
b1011000 aaaac

#74823859674
b1000101 aaaab

#75634779674
b1010010 aaaac

#75755699674
b1011000 aaaab
b1000101 aaaac

#75797699674
b1000011 aaaab
b1011000 aaaac

#75834763953
b1011000 aaaab
b1000101 aaaac

#75982543953
b1000011 aaaab
b1011000 aaaac

#76377679674
b1000101 aaaab

#77177419674
b1010010 aaaac

#77293219674
b1011000 aaaab
b1000101 aaaac

#77335219674
b1000011 aaaab
b1011000 aaaac

#77372123953
b1011000 aaaab
b1000101 aaaac

#77520643953
b1000011 aaaab
b1011000 aaaac

#77919639674
b1000101 aaaab

#78732599674
b1010010 aaaac

#78853559674
b1011000 aaaab
b1000101 aaaac

#78896119674
b1000011 aaaab
b1011000 aaaac

#78933223953
b1011000 aaaab
b1000101 aaaac

#79081743953
b1000011 aaaab
b1011000 aaaac

#79492679674
b1000101 aaaab

#80305079674
b1010010 aaaac

#80424199674
b1011000 aaaab
b1000101 aaaac

#80458479674
b1000011 aaaab
b1011000 aaaac

#80495263953
b1011000 aaaab
b1000101 aaaac

#80600603953
b1000011 aaaab
b1011000 aaaac

#80999599674
b1000101 aaaab

#81819979674
b1010010 aaaac

#81935019674
b1011000 aaaab
b1000101 aaaac

#81977579674
b1000011 aaaab
b1011000 aaaac

#82014923953
b1011000 aaaab
b1000101 aaaac

#82155723953
b1000011 aaaab
b1011000 aaaac

#82569379674
b1000101 aaaab

#83370559674
b1010010 aaaac

#83490299674
b1011000 aaaab
b1000101 aaaac

#83524579674
b1000011 aaaab
b1011000 aaaac

#83561923953
b1011000 aaaab
b1000101 aaaac

#83660363953
b1000011 aaaab
b1011000 aaaac

#84073619674
b1000101 aaaab

#84883159674
b1010010 aaaac

#84985799674
b1011000 aaaab
b1000101 aaaac

#85025299674
b1000011 aaaab
b1011000 aaaac

#85062083953
b1011000 aaaab
b1000101 aaaac

#85205403953
b1000011 aaaab
b1011000 aaaac

#85618919674
b1000101 aaaab

#86454599674
b1010010 aaaac

#86575919674
b1011000 aaaab
b1000101 aaaac

#86583859674
b1000011 aaaab
b1011000 aaaac

#86621003953
b1011000 aaaab
b1000101 aaaac

#86636583953
b1000011 aaaab
b1011000 aaaac

#87169179674
b1000101 aaaab

#87967159674
b1010010 aaaac

#88072999674
b1011000 aaaab
b1000101 aaaac

#88080939674
b1000011 aaaab
b1011000 aaaac

#88117963953
b1011000 aaaab
b1000101 aaaac

#88133543953
b1000011 aaaab
b1011000 aaaac

#88325859674
b1000101 aaaab

#88743099674
b1010010 aaaac

#88819419674
b1011000 aaaab
b1000101 aaaac

#88827359674
b1000011 aaaab
b1011000 aaaac

#88864383953
b1011000 aaaab
b1000101 aaaac

#88877683953
b1000011 aaaab
b1011000 aaaac

#89124679674
b1000101 aaaab

#89538919674
b1010010 aaaac

#89620899674
b1011000 aaaab
b1000101 aaaac

#89628839674
b1000011 aaaab
b1011000 aaaac

#89665863953
b1011000 aaaab
b1000101 aaaac

#89679263953
b1000011 aaaab
b1011000 aaaac

#89926919674
b1000101 aaaab

#90346819674
b1010010 aaaac

#90431839674
b1011000 aaaab
b1000101 aaaac

#90439779674
b1000011 aaaab
b1011000 aaaac

#90476303953
b1011000 aaaab
b1000101 aaaac

#90489703953
b1000011 aaaab
b1011000 aaaac

#90727299674
b1000101 aaaab

#91148539674
b1010010 aaaac

#91224859674
b1011000 aaaab
b1000101 aaaac

#91232899674
b1000011 aaaab
b1011000 aaaac

#91269923953
b1011000 aaaab
b1000101 aaaac

#91283323953
b1000011 aaaab
b1011000 aaaac

#91537819674
b1000101 aaaab

#91960939674
b1010010 aaaac

#92037119674
b1011000 aaaab
b1000101 aaaac

#92045059674
b1000011 aaaab
b1011000 aaaac

#92081583953
b1011000 aaaab
b1000101 aaaac

#92094883953
b1000011 aaaab
b1011000 aaaac

#92347199674
b1000101 aaaab

#92761299674
b1010010 aaaac

#92850599674
b1011000 aaaab
b1000101 aaaac

#92860819674
b1000011 aaaab
b1011000 aaaac

#92898163953
b1011000 aaaab
b1000101 aaaac

#92971143953
b1000011 aaaab
b1011000 aaaac

#93220159674
b1000101 aaaab

#93741419674
b1010010 aaaac

#93852879674
b1011000 aaaab
b1000101 aaaac

#93860819674
b1000011 aaaab
b1011000 aaaac

#93897643953
b1011000 aaaab
b1000101 aaaac

#93966763953
b1000011 aaaab
b1011000 aaaac

#94090399674
b1000101 aaaab

#94522559674
b1010010 aaaac

#94610339674
b1011000 aaaab
b1000101 aaaac

#94618279674
b1000011 aaaab
b1011000 aaaac

#94655583953
b1011000 aaaab
b1000101 aaaac

#94729243953
b1000011 aaaab
b1011000 aaaac

#95258519674
b1000101 aaaab

#96065919674
b1010010 aaaac

#96188419674
b1011000 aaaab
b1000101 aaaac

#96196359674
b1000011 aaaab
b1011000 aaaac

#96233263953
b1011000 aaaab
b1000101 aaaac

#96304443953
b1000011 aaaab
b1011000 aaaac

#96795759674
b1000101 aaaab

#97624579674
b1010010 aaaac

#97742059674
b1011000 aaaab
b1000101 aaaac

#97749999674
b1000011 aaaab
b1011000 aaaac

#97786463953
b1011000 aaaab
b1000101 aaaac

#97858303953
b1000011 aaaab
b1011000 aaaac

#98311479674
b1000101 aaaab

#99123239674
b1010010 aaaac

#99242919674
b1011000 aaaab
b1000101 aaaac

#99253139674
b1000011 aaaab
b1011000 aaaac

#99290323953
b1011000 aaaab
b1000101 aaaac

#99364303953
b1000011 aaaab
b1011000 aaaac

#99821419674
b1000101 aaaab

#100645179674
b1010010 aaaac

#100771579674
b1011000 aaaab
b1000101 aaaac

#100781799674
b1000011 aaaab
b1011000 aaaac

#100819103953
b1011000 aaaab
b1000101 aaaac

#100892683953
b1000011 aaaab
b1011000 aaaac

#101346759674
b1000101 aaaab

#102173059674
b1010010 aaaac

#102291839674
b1011000 aaaab
b1000101 aaaac

#102302059674
b1000011 aaaab
b1011000 aaaac

#102339363953
b1011000 aaaab
b1000101 aaaac

#102411843953
b1000011 aaaab
b1011000 aaaac

#102888139674
b1000101 aaaab

#103697099674
b1010010 aaaac

#103814199674
b1011000 aaaab
b1000101 aaaac

#103824419674
b1000011 aaaab
b1011000 aaaac

#103861363953
b1011000 aaaab
b1000101 aaaac

#103957923953
b1000011 aaaab
b1011000 aaaac

#104389159674
b1000101 aaaab

#105209219674
b1010010 aaaac

#105332019674
b1011000 aaaab
b1000101 aaaac

#105366299674
b1000011 aaaab
b1011000 aaaac

#105403403953
b1011000 aaaab
b1000101 aaaac

#105478143953
b1000011 aaaab
b1011000 aaaac

#105915819674
b1000101 aaaab

#106724799674
b1010010 aaaac

#106847339674
b1011000 aaaab
b1000101 aaaac

#106889899674
b1000011 aaaab
b1011000 aaaac

#106927083953
b1011000 aaaab
b1000101 aaaac

#107072423953
b1000011 aaaab
b1011000 aaaac

#107467419674
b1000101 aaaab

#108286539674
b1010010 aaaac

#108407199674
b1011000 aaaab
b1000101 aaaac

#108449759674
b1000011 aaaab
b1011000 aaaac

#108487143953
b1011000 aaaab
b1000101 aaaac

#108635383953
b1000011 aaaab
b1011000 aaaac

#109024999674
b1000101 aaaab

#109843139674
b1010010 aaaac

#109953239674
b1011000 aaaab
b1000101 aaaac

#109995799674
b1000011 aaaab
b1011000 aaaac

#110032443953
b1011000 aaaab
b1000101 aaaac

#110146943953
b1000011 aaaab
b1011000 aaaac

#110602059674
b1000101 aaaab

#111407579674
b1010010 aaaac

#111512279674
b1011000 aaaab
b1000101 aaaac

#111520219674
b1000011 aaaab
b1011000 aaaac

#111557323953
b1011000 aaaab
b1000101 aaaac

#111569223953
b1000011 aaaab
b1011000 aaaac

#112123019674
b1000101 aaaab

#112564639674
b1010010 aaaac

#112643679674
b1011000 aaaab
b1000101 aaaac

#112651619674
b1000011 aaaab
b1011000 aaaac

#112688483953
b1011000 aaaab
b1000101 aaaac

#112759783953
b1000011 aaaab
b1011000 aaaac

#113062419674
b1000101 aaaab

#113657579674
b1010010 aaaac

#113771759674
b1011000 aaaab
b1000101 aaaac

#113779699674
b1000011 aaaab
b1011000 aaaac

#113816403953
b1011000 aaaab
b1000101 aaaac

#113890303953
b1000011 aaaab
b1011000 aaaac

#114127559674
b1000101 aaaab

#114957259674
b1010010 aaaac

#115075419674
b1011000 aaaab
b1000101 aaaac

#115085639674
b1000011 aaaab
b1011000 aaaac

#115122823953
b1011000 aaaab
b1000101 aaaac

#115193663953
b1000011 aaaab
b1011000 aaaac

#115670099674
b1000101 aaaab

#116495219674
b1010010 aaaac

#116606719674
b1011000 aaaab
b1000101 aaaac

#116614659674
b1000011 aaaab
b1011000 aaaac

#116651403953
b1011000 aaaab
b1000101 aaaac

#116665583953
b1000011 aaaab
b1011000 aaaac

#117203039674
b1000101 aaaab

#117993399674
b1010010 aaaac

#118118719674
b1011000 aaaab
b1000101 aaaac

#118128939674
b1000011 aaaab
b1011000 aaaac

#118165923953
b1011000 aaaab
b1000101 aaaac

#118179223953
b1000011 aaaab
b1011000 aaaac

#118699899674
b1000101 aaaab

#119534659674
b1010010 aaaac

#119637279674
b1011000 aaaab
b1000101 aaaac

#119645219674
b1000011 aaaab
b1011000 aaaac

#119682123953
b1011000 aaaab
b1000101 aaaac

#119695423953
b1000011 aaaab
b1011000 aaaac

#120227579674
b1000101 aaaab

#120687839674
b1010010 aaaac

#120764279674
b1011000 aaaab
b1000101 aaaac

#120772219674
b1000011 aaaab
b1011000 aaaac

#120808963953
b1011000 aaaab
b1000101 aaaac

#120822363953
b1000011 aaaab
b1011000 aaaac

#121036519674
b1000101 aaaab

#121450839674
b1010010 aaaac

#121532959674
b1011000 aaaab
b1000101 aaaac

#121540899674
b1000011 aaaab
b1011000 aaaac

#121577603953
b1011000 aaaab
b1000101 aaaac

#121593183953
b1000011 aaaab
b1011000 aaaac

#121836759674
b1000101 aaaab

#122250719674
b1010010 aaaac

#122338579674
b1011000 aaaab
b1000101 aaaac

#122348799674
b1000011 aaaab
b1011000 aaaac

#122385943953
b1011000 aaaab
b1000101 aaaac

#122401523953
b1000011 aaaab
b1011000 aaaac

#122636499674
b1000101 aaaab

#123066839674
b1010010 aaaac

#123143159674
b1011000 aaaab
b1000101 aaaac

#123151099674
b1000011 aaaab
b1011000 aaaac

#123188123953
b1011000 aaaab
b1000101 aaaac

#123201423953
b1000011 aaaab
b1011000 aaaac

#123563619674
b1000101 aaaab

#124033499674
b1010010 aaaac

#124110199674
b1011000 aaaab
b1000101 aaaac

#124118139674
b1000011 aaaab
b1011000 aaaac

#124155043953
b1011000 aaaab
b1000101 aaaac

#124168343953
b1000011 aaaab
b1011000 aaaac

#124378219674
b1000101 aaaab

#124792179674
b1010010 aaaac

#124868499674
b1011000 aaaab
b1000101 aaaac

#124878719674
b1000011 aaaab
b1011000 aaaac

#124915463953
b1011000 aaaab
b1000101 aaaac

#124931043953
b1000011 aaaab
b1011000 aaaac

#125182219674
b1000101 aaaab

#125668759674
b1010010 aaaac

#125781599674
b1011000 aaaab
b1000101 aaaac

#125791819674
b1000011 aaaab
b1011000 aaaac

#125829503953
b1011000 aaaab
b1000101 aaaac

#125899483953
b1000011 aaaab
b1011000 aaaac

#126051039674
b1000101 aaaab

#126474219674
b1010010 aaaac

#126559099674
b1011000 aaaab
b1000101 aaaac

#126567039674
b1000011 aaaab
b1011000 aaaac

#126604223953
b1011000 aaaab
b1000101 aaaac

#126677203953
b1000011 aaaab
b1011000 aaaac

#126853799674
b1000101 aaaab

#127632139674
b1010010 aaaac

#127752499674
b1011000 aaaab
b1000101 aaaac

#127762719674
b1000011 aaaab
b1011000 aaaac

#127799743953
b1011000 aaaab
b1000101 aaaac

#127813043953
b1000011 aaaab
b1011000 aaaac

#128365059674
b1000101 aaaab

#129166379674
b1010010 aaaac

#129277199674
b1011000 aaaab
b1000101 aaaac

#129285139674
b1000011 aaaab
b1011000 aaaac

#129322163953
b1011000 aaaab
b1000101 aaaac

#129393663953
b1000011 aaaab
b1011000 aaaac

#129873139674
b1000101 aaaab

#130683439674
b1010010 aaaac

#130801919674
b1011000 aaaab
b1000101 aaaac

#130809859674
b1000011 aaaab
b1011000 aaaac

#130846883953
b1011000 aaaab
b1000101 aaaac

#130918383953
b1000011 aaaab
b1011000 aaaac

#131391519674
b1000101 aaaab

#132210879674
b1010010 aaaac

#132334599674
b1011000 aaaab
b1000101 aaaac

#132344819674
b1000011 aaaab
b1011000 aaaac

#132381843953
b1011000 aaaab
b1000101 aaaac

#132453643953
b1000011 aaaab
b1011000 aaaac

#132906579674
b1000101 aaaab

#133710819674
b1010010 aaaac

#133829579674
b1011000 aaaab
b1000101 aaaac

#133839799674
b1000011 aaaab
b1011000 aaaac

#133876543953
b1011000 aaaab
b1000101 aaaac

#133949243953
b1000011 aaaab
b1011000 aaaac

#134405719674
b1000101 aaaab

#135218879674
b1010010 aaaac

#135344459674
b1011000 aaaab
b1000101 aaaac

#135354679674
b1000011 aaaab
b1011000 aaaac

#135391863953
b1011000 aaaab
b1000101 aaaac

#135464803953
b1000011 aaaab
b1011000 aaaac

#135908499674
b1000101 aaaab

#136722539674
b1010010 aaaac

#136839459674
b1011000 aaaab
b1000101 aaaac

#136849679674
b1000011 aaaab
b1011000 aaaac

#136886583953
b1011000 aaaab
b1000101 aaaac

#136958503953
b1000011 aaaab
b1011000 aaaac

#137430959674
b1000101 aaaab

#138249219674
b1010010 aaaac

#138368899674
b1011000 aaaab
b1000101 aaaac

#138403179674
b1000011 aaaab
b1011000 aaaac

#138440323953
b1011000 aaaab
b1000101 aaaac

#138523343953
b1000011 aaaab
b1011000 aaaac

#138952039674
b1000101 aaaab

#139765199674
b1010010 aaaac

#139884679674
b1011000 aaaab
b1000101 aaaac

#139926679674
b1000011 aaaab
b1011000 aaaac

#139963983953
b1011000 aaaab
b1000101 aaaac

#140110523953
b1000011 aaaab
b1011000 aaaac

#140508039674
b1000101 aaaab

#141333139674
b1010010 aaaac

#141449879674
b1011000 aaaab
b1000101 aaaac

#141491879674
b1000011 aaaab
b1011000 aaaac

#141529343953
b1011000 aaaab
b1000101 aaaac

#141674343953
b1000011 aaaab
b1011000 aaaac

#142076059674
b1000101 aaaab

#142892859674
b1010010 aaaac

#143011379674
b1011000 aaaab
b1000101 aaaac

