examples/VAD/rtos1_trace.vcd
$comment
File created by KisTA library.
 Author: F.Herrera
 Institution: KTH
 Date: 2013
	All rights reserved by the authors, till further definition of the license.
$end

$comment
Tracing options used include to trace Task State signals,  Scheduler signals 
$end

$date
     Sep 27, 2016       12:25:09
$end

$version
 SystemC 2.3.1-Accellera --- Mar 29 2016 16:10:40
$end

$timescale
     1 ps
$end

$scope module SystemC $end
$var wire    8  aaaaa  sched1 [7:0]  $end
$var wire    8  aaaab  T1 [7:0]  $end
$var wire    8  aaaac  T2 [7:0]  $end
$upscope $end
$enddefinitions  $end

$comment
All initial values are dumped below at time 0 sec = 0 timescale units.
$end

$dumpvars
b1001001 aaaaa
b1000101 aaaab
b1010010 aaaac
$end

#42180000
b1010010 aaaab
b1000101 aaaac

#85720000
b1000101 aaaab
b1010010 aaaac

#127900000
b1010010 aaaab
b1000011 aaaac

#9446979348
b1000101 aaaac

#9490519348
b1000101 aaaab
b1010010 aaaac

#9532699348
b1010010 aaaab
b1000011 aaaac

#18117899348
b1000101 aaaac

#18161439348
b1000101 aaaab
b1010010 aaaac

#18203619348
b1010010 aaaab
b1000011 aaaac

#26788819348
b1000101 aaaac

#26832359348
b1000101 aaaab
b1010010 aaaac

#26874539348
b1010010 aaaab
b1000011 aaaac

#35459739348
b1000101 aaaac

#35503279348
b1000101 aaaab
b1010010 aaaac

#35545459348
b1010010 aaaab
b1000011 aaaac

#44130659348
b1000101 aaaac

#44174199348
b1000101 aaaab
b1010010 aaaac

#44216379348
b1010010 aaaab
b1000011 aaaac

#52801579348
b1000101 aaaac

#52845119348
b1000101 aaaab
b1010010 aaaac

#52887299348
b1010010 aaaab
b1000011 aaaac

#61472499348
b1000101 aaaac

#61516039348
b1000101 aaaab
b1010010 aaaac

#61558219348
b1010010 aaaab
b1000011 aaaac

#70143419348
b1000101 aaaac

#70186959348
b1000101 aaaab
b1010010 aaaac

#70229139348
b1010010 aaaab
b1000011 aaaac

#78814339348
b1000101 aaaac

#78857879348
b1000101 aaaab
b1010010 aaaac

#78900059348
b1010010 aaaab
b1000011 aaaac

#87485259348
b1000101 aaaac

#87528799348
b1000101 aaaab
b1010010 aaaac

#87570979348
b1010010 aaaab
b1000011 aaaac

#96156179348
b1000101 aaaac

#96199719348
b1000101 aaaab
b1010010 aaaac

#96241899348
b1010010 aaaab
b1000011 aaaac

#104827099348
b1000101 aaaac

#104870639348
b1000101 aaaab
b1010010 aaaac

#104912819348
b1010010 aaaab
b1000011 aaaac

#113498019348
b1000101 aaaac

#113541559348
b1000101 aaaab
b1010010 aaaac

#113583739348
b1010010 aaaab
b1000011 aaaac

#122168939348
b1000101 aaaac

#122212479348
b1000101 aaaab
b1010010 aaaac

#122254659348
b1010010 aaaab
b1000011 aaaac

#130839859348
b1000101 aaaac

#130883399348
b1000101 aaaab
b1010010 aaaac

#130925579348
b1010010 aaaab
b1000011 aaaac

#139510779348
b1000101 aaaac

#139554319348
b1000101 aaaab
b1010010 aaaac

#139596499348
b1010010 aaaab
b1000011 aaaac

#148181699348
b1000101 aaaac

#148225239348
b1000101 aaaab
b1010010 aaaac

#148267419348
b1010010 aaaab
b1000011 aaaac

#156852619348
b1000101 aaaac

#156896159348
b1000101 aaaab
b1010010 aaaac

#156938339348
b1010010 aaaab
b1000011 aaaac

#165523539348
b1000101 aaaac

#165567079348
b1000101 aaaab
b1010010 aaaac

#165609259348
b1010010 aaaab
b1000011 aaaac

#174194459348
b1000101 aaaac

#174237999348
b1000101 aaaab
b1010010 aaaac

#174280179348
b1010010 aaaab
b1000011 aaaac

#182865379348
b1000101 aaaac

#182908919348
b1000101 aaaab
b1010010 aaaac

#182951099348
b1010010 aaaab
b1000011 aaaac

#191536299348
b1000101 aaaac

#191579839348
b1000101 aaaab
b1010010 aaaac

#191622019348
b1010010 aaaab
b1000011 aaaac

#200207219348
b1000101 aaaac

#200250759348
b1000101 aaaab
b1010010 aaaac

#200292939348
b1010010 aaaab
b1000011 aaaac

#208878139348
b1000101 aaaac

#208921679348
b1000101 aaaab
b1010010 aaaac

#208963859348
b1010010 aaaab
b1000011 aaaac

#217549059348
b1000101 aaaac

#217592599348
b1000101 aaaab
b1010010 aaaac

#217634779348
b1010010 aaaab
b1000011 aaaac

#226219979348
b1000101 aaaac

#226263519348
b1000101 aaaab
b1010010 aaaac

#226305699348
b1010010 aaaab
b1000011 aaaac

#234890899348
b1000101 aaaac

#234934439348
b1000101 aaaab
b1010010 aaaac

#234976619348
b1010010 aaaab
b1000011 aaaac

#243561819348
b1000101 aaaac

#243605359348
b1000101 aaaab
b1010010 aaaac

#243647539348
b1010010 aaaab
b1000011 aaaac

#252232739348
b1000101 aaaac

#252276279348
b1000101 aaaab
b1010010 aaaac

#252318459348
b1010010 aaaab
b1000011 aaaac

#260903659348
b1000101 aaaac

#260947199348
b1000101 aaaab
b1010010 aaaac

#260989379348
b1010010 aaaab
b1000011 aaaac

#269574579348
b1000101 aaaac

#269618119348
b1000101 aaaab
b1010010 aaaac

#269660299348
b1010010 aaaab
b1000011 aaaac

#278245499348
b1000101 aaaac

#278289039348
b1000101 aaaab
b1010010 aaaac

#278331219348
b1010010 aaaab
b1000011 aaaac

#286916419348
b1000101 aaaac

#286959959348
b1000101 aaaab
b1010010 aaaac

#287002139348
b1010010 aaaab
b1000011 aaaac

#295587339348
b1000101 aaaac

#295630879348
b1000101 aaaab
b1010010 aaaac

#295673059348
b1010010 aaaab
b1000011 aaaac

#304258259348
b1000101 aaaac

#304301799348
b1000101 aaaab
b1010010 aaaac

#304343979348
b1010010 aaaab
b1000011 aaaac

#312929179348
b1000101 aaaac

#312972719348
b1000101 aaaab
b1010010 aaaac

#313014899348
b1010010 aaaab
b1000011 aaaac

#321600099348
b1000101 aaaac

#321643639348
b1000101 aaaab
b1010010 aaaac

#321685819348
b1010010 aaaab
b1000011 aaaac

#330271019348
b1000101 aaaac

#330314559348
b1000101 aaaab
b1010010 aaaac

#330356739348
b1010010 aaaab
b1000011 aaaac

#338941939348
b1000101 aaaac

#338985479348
b1000101 aaaab
b1010010 aaaac

#339027659348
b1010010 aaaab
b1000011 aaaac

#347612859348
b1000101 aaaac

#347656399348
b1000101 aaaab
b1010010 aaaac

#347698579348
b1010010 aaaab
b1000011 aaaac

#356283779348
b1000101 aaaac

#356327319348
b1000101 aaaab
b1010010 aaaac

#356369499348
b1010010 aaaab
b1000011 aaaac

#364954699348
b1000101 aaaac

#364998239348
b1000101 aaaab
b1010010 aaaac

#365040419348
b1010010 aaaab
b1000011 aaaac

#373625619348
b1000101 aaaac

#373669159348
b1000101 aaaab
b1010010 aaaac

#373711339348
b1010010 aaaab
b1000011 aaaac

#382296539348
b1000101 aaaac

#382340079348
b1000101 aaaab
b1010010 aaaac

#382382259348
b1010010 aaaab
b1000011 aaaac

#390967459348
b1000101 aaaac

#391010999348
b1000101 aaaab
b1010010 aaaac

#391053179348
b1010010 aaaab
b1000011 aaaac

#399638379348
b1000101 aaaac

#399681919348
b1000101 aaaab
b1010010 aaaac

#399724099348
b1010010 aaaab
b1000011 aaaac

#408309299348
b1000101 aaaac

#408352839348
b1000101 aaaab
b1010010 aaaac

#408395019348
b1010010 aaaab
b1000011 aaaac

#416980219348
b1000101 aaaac

#417023759348
b1000101 aaaab
b1010010 aaaac

#417065939348
b1010010 aaaab
b1000011 aaaac

#425651139348
b1000101 aaaac

#425694679348
b1000101 aaaab
b1010010 aaaac

#425736859348
b1010010 aaaab
b1000011 aaaac

#434322059348
b1000101 aaaac

#434365599348
b1000101 aaaab
b1010010 aaaac

#434407779348
b1010010 aaaab
b1000011 aaaac

#442992979348
b1000101 aaaac

#443036519348
b1000101 aaaab
b1010010 aaaac

#443078699348
b1010010 aaaab
b1000011 aaaac

#451663899348
b1000101 aaaac

#451707439348
b1000101 aaaab
b1010010 aaaac

#451749619348
b1010010 aaaab
b1000011 aaaac

#460334819348
b1000101 aaaac

#460378359348
b1000101 aaaab
b1010010 aaaac

#460420539348
b1010010 aaaab
b1000011 aaaac

#469005739348
b1000101 aaaac

#469049279348
b1000101 aaaab
b1010010 aaaac

#469091459348
b1010010 aaaab
b1000011 aaaac

#477676659348
b1000101 aaaac

#477720199348
b1000101 aaaab
b1010010 aaaac

#477762379348
b1010010 aaaab
b1000011 aaaac

#486347579348
b1000101 aaaac

#486391119348
b1000101 aaaab
b1010010 aaaac

#486433299348
b1010010 aaaab
b1000011 aaaac

#495018499348
b1000101 aaaac

#495062039348
b1000101 aaaab
b1010010 aaaac

#495104219348
b1010010 aaaab
b1000011 aaaac

#503689419348
b1000101 aaaac

#503732959348
b1000101 aaaab
b1010010 aaaac

#503775139348
b1010010 aaaab
b1000011 aaaac

#512360339348
b1000101 aaaac

#512403879348
b1000101 aaaab
b1010010 aaaac

#512446059348
b1010010 aaaab
b1000011 aaaac

#521031259348
b1000101 aaaac

#521074799348
b1000101 aaaab
b1010010 aaaac

#521116979348
b1010010 aaaab
b1000011 aaaac

#529702179348
b1000101 aaaac

#529745719348
b1000101 aaaab
b1010010 aaaac

#529787899348
b1010010 aaaab
b1000011 aaaac

#538373099348
b1000101 aaaac

#538416639348
b1000101 aaaab
b1010010 aaaac

#538458819348
b1010010 aaaab
b1000011 aaaac

#547044019348
b1000101 aaaac

#547087559348
b1000101 aaaab
b1010010 aaaac

#547129739348
b1010010 aaaab
b1000011 aaaac

#555714939348
b1000101 aaaac

#555758479348
b1000101 aaaab
b1010010 aaaac

#555800659348
b1010010 aaaab
b1000011 aaaac

#564385859348
b1000101 aaaac

#564429399348
b1000101 aaaab
b1010010 aaaac

#564471579348
b1010010 aaaab
b1000011 aaaac

#573056779348
b1000101 aaaac

#573100319348
b1000101 aaaab
b1010010 aaaac

#573142499348
b1010010 aaaab
b1000011 aaaac

#581727699348
b1000101 aaaac

#581771239348
b1000101 aaaab
b1010010 aaaac

#581813419348
b1010010 aaaab
b1000011 aaaac

#590398619348
b1000101 aaaac

#590442159348
b1000101 aaaab
b1010010 aaaac

#590484339348
b1010010 aaaab
b1000011 aaaac

#599069539348
b1000101 aaaac

#599113079348
b1000101 aaaab
b1010010 aaaac

#599155259348
b1010010 aaaab
b1000011 aaaac

#607740459348
b1000101 aaaac

#607783999348
b1000101 aaaab
b1010010 aaaac

#607826179348
b1010010 aaaab
b1000011 aaaac

#616411379348
b1000101 aaaac

#616454919348
b1000101 aaaab
b1010010 aaaac

#616497099348
b1010010 aaaab
b1000011 aaaac

#625082299348
b1000101 aaaac

#625125839348
b1000101 aaaab
b1010010 aaaac

#625168019348
b1010010 aaaab
b1000011 aaaac

#633753219348
b1000101 aaaac

#633796759348
b1000101 aaaab
b1010010 aaaac

#633838939348
b1010010 aaaab
b1000011 aaaac

#642424139348
b1000101 aaaac

#642467679348
b1000101 aaaab
b1010010 aaaac

#642509859348
b1010010 aaaab
b1000011 aaaac

#651095059348
b1000101 aaaac

#651138599348
b1000101 aaaab
b1010010 aaaac

#651180779348
b1010010 aaaab
b1000011 aaaac

#659765979348
b1000101 aaaac

#659809519348
b1000101 aaaab
b1010010 aaaac

#659851699348
b1010010 aaaab
b1000011 aaaac

#668436899348
b1000101 aaaac

#668480439348
b1000101 aaaab
b1010010 aaaac

#668522619348
b1010010 aaaab
b1000011 aaaac

#677107819348
b1000101 aaaac

#677151359348
b1000101 aaaab
b1010010 aaaac

#677193539348
b1010010 aaaab
b1000011 aaaac

#685778739348
b1000101 aaaac

#685822279348
b1000101 aaaab
b1010010 aaaac

#685864459348
b1010010 aaaab
b1000011 aaaac

#694449659348
b1000101 aaaac

#694493199348
b1000101 aaaab
b1010010 aaaac

#694535379348
b1010010 aaaab
b1000011 aaaac

#703120579348
b1000101 aaaac

#703164119348
b1000101 aaaab
b1010010 aaaac

#703206299348
b1010010 aaaab
b1000011 aaaac

#711791499348
b1000101 aaaac

#711835039348
b1000101 aaaab
b1010010 aaaac

#711877219348
b1010010 aaaab
b1000011 aaaac

#720462419348
b1000101 aaaac

#720505959348
b1000101 aaaab
b1010010 aaaac

#720548139348
b1010010 aaaab
b1000011 aaaac

#729133339348
b1000101 aaaac

#729176879348
b1000101 aaaab
b1010010 aaaac

#729219059348
b1010010 aaaab
b1000011 aaaac

#737804259348
b1000101 aaaac

#737847799348
b1000101 aaaab
b1010010 aaaac

#737889979348
b1010010 aaaab
b1000011 aaaac

#746475179348
b1000101 aaaac

#746518719348
b1000101 aaaab
b1010010 aaaac

#746560899348
b1010010 aaaab
b1000011 aaaac

#755146099348
b1000101 aaaac

#755189639348
b1000101 aaaab
b1010010 aaaac

#755231819348
b1010010 aaaab
b1000011 aaaac

#763817019348
b1000101 aaaac

#763860559348
b1000101 aaaab
b1010010 aaaac

#763902739348
b1010010 aaaab
b1000011 aaaac

#772487939348
b1000101 aaaac

#772531479348
b1000101 aaaab
b1010010 aaaac

#772573659348
b1010010 aaaab
b1000011 aaaac

#781158859348
b1000101 aaaac

#781202399348
b1000101 aaaab
b1010010 aaaac

#781244579348
b1010010 aaaab
b1000011 aaaac

#789829779348
b1000101 aaaac

#789873319348
b1000101 aaaab
b1010010 aaaac

#789915499348
b1010010 aaaab
b1000011 aaaac

#798500699348
b1000101 aaaac

#798544239348
b1000101 aaaab
b1010010 aaaac

#798586419348
b1010010 aaaab
b1000011 aaaac

#807171619348
b1000101 aaaac

#807215159348
b1000101 aaaab
b1010010 aaaac

#807257339348
b1010010 aaaab
b1000011 aaaac

#815842539348
b1000101 aaaac

#815886079348
b1000101 aaaab
b1010010 aaaac

#815928259348
b1010010 aaaab
b1000011 aaaac

#824513459348
b1000101 aaaac

#824556999348
b1000101 aaaab
b1010010 aaaac

#824599179348
b1010010 aaaab
b1000011 aaaac

#833184379348
b1000101 aaaac

#833227919348
b1000101 aaaab
b1010010 aaaac

#833270099348
b1010010 aaaab
b1000011 aaaac

#841855299348
b1000101 aaaac

#841898839348
b1000101 aaaab
b1010010 aaaac

#841941019348
b1010010 aaaab
b1000011 aaaac

#850526219348
b1000101 aaaac

#850569759348
b1000101 aaaab
b1010010 aaaac

#850611939348
b1010010 aaaab
b1000011 aaaac

#859197139348
b1000101 aaaac

#859240679348
b1000101 aaaab
b1010010 aaaac

#859282859348
b1010010 aaaab
b1000011 aaaac

#867868059348
b1000101 aaaac

#867911599348
b1000101 aaaab
b1010010 aaaac

#867953779348
b1010010 aaaab
b1000011 aaaac

#876538979348
b1000101 aaaac

#876582519348
b1000101 aaaab
b1010010 aaaac

#876624699348
b1010010 aaaab
b1000011 aaaac

#885209899348
b1000101 aaaac

#885253439348
b1000101 aaaab
b1010010 aaaac

#885295619348
b1010010 aaaab
b1000011 aaaac

#893880819348
b1000101 aaaac

#893924359348
b1000101 aaaab
b1010010 aaaac

#893966539348
b1010010 aaaab
b1000011 aaaac

#902551739348
b1000101 aaaac

#902595279348
b1000101 aaaab
b1010010 aaaac

#902637459348
b1010010 aaaab
b1000011 aaaac

#911222659348
b1000101 aaaac

#911266199348
b1000101 aaaab
b1010010 aaaac

#911308379348
b1010010 aaaab
b1000011 aaaac

#919893579348
b1000101 aaaac

#919937119348
b1000101 aaaab
b1010010 aaaac

#919979299348
b1010010 aaaab
b1000011 aaaac

#928564499348
b1000101 aaaac

#928608039348
b1000101 aaaab
b1010010 aaaac

#928650219348
b1010010 aaaab
b1000011 aaaac

#937235419348
b1000101 aaaac

#937278959348
b1000101 aaaab
b1010010 aaaac

#937321139348
b1010010 aaaab
b1000011 aaaac

#945906339348
b1000101 aaaac

#945949879348
b1000101 aaaab
b1010010 aaaac

#945992059348
b1010010 aaaab
b1000011 aaaac

#954577259348
b1000101 aaaac

#954620799348
b1000101 aaaab
b1010010 aaaac

#954662979348
b1010010 aaaab
b1000011 aaaac

#963248179348
b1000101 aaaac

#963291719348
b1000101 aaaab
b1010010 aaaac

#963333899348
b1010010 aaaab
b1000011 aaaac

#971919099348
b1000101 aaaac

#971962639348
b1000101 aaaab
b1010010 aaaac

#972004819348
b1010010 aaaab
b1000011 aaaac

#980590019348
b1000101 aaaac

#980633559348
b1000101 aaaab
b1010010 aaaac

#980675739348
b1010010 aaaab
b1000011 aaaac

#989260939348
b1000101 aaaac

#989304479348
b1000101 aaaab
b1010010 aaaac

#989346659348
b1010010 aaaab
b1000011 aaaac

#997931859348
b1000101 aaaac

#997975399348
b1000101 aaaab
b1010010 aaaac

#998017579348
b1010010 aaaab
b1000011 aaaac

