examples/VAD/rtos2_trace.vcd
$comment
File created by KisTA library.
 Author: F.Herrera
 Institution: KTH
 Date: 2013
	All rights reserved by the authors, till further definition of the license.
$end

$comment
Tracing options used include to trace Task State signals,  Scheduler signals 
$end

$date
     Jul 27, 2016       17:48:51
$end

$version
 SystemC 2.3.1-Accellera --- Mar 29 2016 16:10:40
$end

$timescale
     1 ps
$end

$scope module SystemC $end
$var wire    8  aaaaa  sched2 [7:0]  $end
$var wire    8  aaaab  T3 [7:0]  $end
$var wire    8  aaaac  T4 [7:0]  $end
$upscope $end
$enddefinitions  $end

$comment
All initial values are dumped below at time 0 sec = 0 timescale units.
$end

$dumpvars
b1001001 aaaaa
b1000101 aaaab
b1010010 aaaac
$end

#80120000
b1010010 aaaab
b1000101 aaaac

#767820000
b1000101 aaaab
b1010010 aaaac

#847940000
b1010010 aaaab
b1000101 aaaac

#1535640000
b1000101 aaaab
b1010010 aaaac

#1615760000
b1010010 aaaab
b1000101 aaaac

#2303460000
b1000101 aaaab
b1010010 aaaac

#2383580000
b1010010 aaaab
b1000101 aaaac

#3071280000
b1000101 aaaab
b1010010 aaaac

#3151400000
b1010010 aaaab
b1000101 aaaac

#3839100000
b1000101 aaaab
b1010010 aaaac

#3919220000
b1010010 aaaab
b1000101 aaaac

#4606920000
b1000101 aaaab
b1010010 aaaac

#4687040000
b1010010 aaaab
b1000101 aaaac

#5374740000
b1000101 aaaab
b1010010 aaaac

#5454860000
b1010010 aaaab
b1000101 aaaac

#6142560000
b1000101 aaaab
b1010010 aaaac

#6222680000
b1010010 aaaab
b1000101 aaaac

#6910380000
b1000101 aaaab
b1010010 aaaac

#6990500000
b1010010 aaaab
b1000101 aaaac

#7678200000
b1000101 aaaab
b1010010 aaaac

#7758320000
b1010010 aaaab
b1000101 aaaac

#8446020000
b1000101 aaaab
b1010010 aaaac

#8526140000
b1010010 aaaab
b1000101 aaaac

#9213840000
b1000101 aaaab
b1010010 aaaac

#9293960000
b1010010 aaaab
b1000101 aaaac

#9981660000
b1000101 aaaab
b1010010 aaaac

#10061780000
b1010010 aaaab
b1000101 aaaac

#10749480000
b1000101 aaaab
b1010010 aaaac

#10829600000
b1010010 aaaab
b1000101 aaaac

#11517300000
b1000101 aaaab
b1010010 aaaac

#11597420000
b1010010 aaaab
b1000101 aaaac

#12285120000
b1000101 aaaab
b1010010 aaaac

#12365240000
b1010010 aaaab
b1000101 aaaac

#13052940000
b1000101 aaaab
b1010010 aaaac

#13133060000
b1010010 aaaab
b1000101 aaaac

#13820760000
b1000011 aaaac

#18066939674
b1000101 aaaab
b1010010 aaaac

#18147059674
b1010010 aaaab
b1000101 aaaac

#18834759674
b1000011 aaaac

#26737859674
b1000101 aaaab
b1010010 aaaac

#26817979674
b1010010 aaaab
b1000101 aaaac

#27505679674
b1000011 aaaac

#35408779674
b1000101 aaaab
b1010010 aaaac

#35488899674
b1010010 aaaab
b1000101 aaaac

#36176599674
b1000011 aaaac

#44079699674
b1000101 aaaab
b1010010 aaaac

#44159819674
b1010010 aaaab
b1000101 aaaac

#44847519674
b1000011 aaaac

#52750619674
b1000101 aaaab
b1010010 aaaac

#52830739674
b1010010 aaaab
b1000101 aaaac

#53518439674
b1000011 aaaac

#61421539674
b1000101 aaaab
b1010010 aaaac

#61501659674
b1010010 aaaab
b1000101 aaaac

#62189359674
b1000011 aaaac

#70092459674
b1000101 aaaab
b1010010 aaaac

#70172579674
b1010010 aaaab
b1000101 aaaac

#70860279674
b1000011 aaaac

#78763379674
b1000101 aaaab
b1010010 aaaac

#78843499674
b1010010 aaaab
b1000101 aaaac

#79531199674
b1000011 aaaac

#87434299674
b1000101 aaaab
b1010010 aaaac

#87514419674
b1010010 aaaab
b1000101 aaaac

#88202119674
b1000011 aaaac

#96105219674
b1000101 aaaab
b1010010 aaaac

#96185339674
b1010010 aaaab
b1000101 aaaac

#96873039674
b1000011 aaaac

#104776139674
b1000101 aaaab
b1010010 aaaac

#104856259674
b1010010 aaaab
b1000101 aaaac

#105543959674
b1000011 aaaac

#113447059674
b1000101 aaaab
b1010010 aaaac

#113527179674
b1010010 aaaab
b1000101 aaaac

#114214879674
b1000011 aaaac

#122117979674
b1000101 aaaab
b1010010 aaaac

#122198099674
b1010010 aaaab
b1000101 aaaac

#122885799674
b1000011 aaaac

#130788899674
b1000101 aaaab
b1010010 aaaac

#130869019674
b1010010 aaaab
b1000101 aaaac

#131556719674
b1000011 aaaac

#139459819674
b1000101 aaaab
b1010010 aaaac

#139539939674
b1010010 aaaab
b1000101 aaaac

#140227639674
b1000011 aaaac

#148130739674
b1000101 aaaab
b1010010 aaaac

#148210859674
b1010010 aaaab
b1000101 aaaac

#148898559674
b1000011 aaaac

#156801659674
b1000101 aaaab
b1010010 aaaac

#156881779674
b1010010 aaaab
b1000101 aaaac

#157569479674
b1000011 aaaac

#165472579674
b1000101 aaaab
b1010010 aaaac

#165552699674
b1010010 aaaab
b1000101 aaaac

#166240399674
b1000011 aaaac

#174143499674
b1000101 aaaab
b1010010 aaaac

#174223619674
b1010010 aaaab
b1000101 aaaac

#174911319674
b1000011 aaaac

#182814419674
b1000101 aaaab
b1010010 aaaac

#182894539674
b1010010 aaaab
b1000101 aaaac

#183582239674
b1000011 aaaac

#191485339674
b1000101 aaaab
b1010010 aaaac

#191565459674
b1010010 aaaab
b1000101 aaaac

#192253159674
b1000011 aaaac

#200156259674
b1000101 aaaab
b1010010 aaaac

#200236379674
b1010010 aaaab
b1000101 aaaac

#200924079674
b1000011 aaaac

#208827179674
b1000101 aaaab
b1010010 aaaac

#208907299674
b1010010 aaaab
b1000101 aaaac

#209594999674
b1000011 aaaac

#217498099674
b1000101 aaaab
b1010010 aaaac

#217578219674
b1010010 aaaab
b1000101 aaaac

#218265919674
b1000011 aaaac

#226169019674
b1000101 aaaab
b1010010 aaaac

#226249139674
b1010010 aaaab
b1000101 aaaac

#226936839674
b1000011 aaaac

#234839939674
b1000101 aaaab
b1010010 aaaac

#234920059674
b1010010 aaaab
b1000101 aaaac

#235607759674
b1000011 aaaac

#243510859674
b1000101 aaaab
b1010010 aaaac

#243590979674
b1010010 aaaab
b1000101 aaaac

#244278679674
b1000011 aaaac

#252181779674
b1000101 aaaab
b1010010 aaaac

#252261899674
b1010010 aaaab
b1000101 aaaac

#252949599674
b1000011 aaaac

#260852699674
b1000101 aaaab
b1010010 aaaac

#260932819674
b1010010 aaaab
b1000101 aaaac

#261620519674
b1000011 aaaac

#269523619674
b1000101 aaaab
b1010010 aaaac

#269603739674
b1010010 aaaab
b1000101 aaaac

#270291439674
b1000011 aaaac

#278194539674
b1000101 aaaab
b1010010 aaaac

#278274659674
b1010010 aaaab
b1000101 aaaac

#278962359674
b1000011 aaaac

#286865459674
b1000101 aaaab
b1010010 aaaac

#286945579674
b1010010 aaaab
b1000101 aaaac

#287633279674
b1000011 aaaac

#295536379674
b1000101 aaaab
b1010010 aaaac

#295616499674
b1010010 aaaab
b1000101 aaaac

#296304199674
b1000011 aaaac

#304207299674
b1000101 aaaab
b1010010 aaaac

#304287419674
b1010010 aaaab
b1000101 aaaac

#304975119674
b1000011 aaaac

#312878219674
b1000101 aaaab
b1010010 aaaac

#312958339674
b1010010 aaaab
b1000101 aaaac

#313646039674
b1000011 aaaac

#321549139674
b1000101 aaaab
b1010010 aaaac

#321629259674
b1010010 aaaab
b1000101 aaaac

#322316959674
b1000011 aaaac

#330220059674
b1000101 aaaab
b1010010 aaaac

#330300179674
b1010010 aaaab
b1000101 aaaac

#330987879674
b1000011 aaaac

#338890979674
b1000101 aaaab
b1010010 aaaac

#338971099674
b1010010 aaaab
b1000101 aaaac

#339658799674
b1000011 aaaac

#347561899674
b1000101 aaaab
b1010010 aaaac

#347642019674
b1010010 aaaab
b1000101 aaaac

#348329719674
b1000011 aaaac

#356232819674
b1000101 aaaab
b1010010 aaaac

#356312939674
b1010010 aaaab
b1000101 aaaac

#357000639674
b1000011 aaaac

#364903739674
b1000101 aaaab
b1010010 aaaac

#364983859674
b1010010 aaaab
b1000101 aaaac

#365671559674
b1000011 aaaac

#373574659674
b1000101 aaaab
b1010010 aaaac

#373654779674
b1010010 aaaab
b1000101 aaaac

#374342479674
b1000011 aaaac

#382245579674
b1000101 aaaab
b1010010 aaaac

#382325699674
b1010010 aaaab
b1000101 aaaac

#383013399674
b1000011 aaaac

#390916499674
b1000101 aaaab
b1010010 aaaac

#390996619674
b1010010 aaaab
b1000101 aaaac

#391684319674
b1000011 aaaac

#399587419674
b1000101 aaaab
b1010010 aaaac

#399667539674
b1010010 aaaab
b1000101 aaaac

#400355239674
b1000011 aaaac

#408258339674
b1000101 aaaab
b1010010 aaaac

#408338459674
b1010010 aaaab
b1000101 aaaac

#409026159674
b1000011 aaaac

#416929259674
b1000101 aaaab
b1010010 aaaac

#417009379674
b1010010 aaaab
b1000101 aaaac

#417697079674
b1000011 aaaac

#425600179674
b1000101 aaaab
b1010010 aaaac

#425680299674
b1010010 aaaab
b1000101 aaaac

#426367999674
b1000011 aaaac

#434271099674
b1000101 aaaab
b1010010 aaaac

#434351219674
b1010010 aaaab
b1000101 aaaac

#435038919674
b1000011 aaaac

#442942019674
b1000101 aaaab
b1010010 aaaac

#443022139674
b1010010 aaaab
b1000101 aaaac

#443709839674
b1000011 aaaac

#451612939674
b1000101 aaaab
b1010010 aaaac

#451693059674
b1010010 aaaab
b1000101 aaaac

#452380759674
b1000011 aaaac

#460283859674
b1000101 aaaab
b1010010 aaaac

#460363979674
b1010010 aaaab
b1000101 aaaac

#461051679674
b1000011 aaaac

#468954779674
b1000101 aaaab
b1010010 aaaac

#469034899674
b1010010 aaaab
b1000101 aaaac

#469722599674
b1000011 aaaac

#477625699674
b1000101 aaaab
b1010010 aaaac

#477705819674
b1010010 aaaab
b1000101 aaaac

#478393519674
b1000011 aaaac

#486296619674
b1000101 aaaab
b1010010 aaaac

#486376739674
b1010010 aaaab
b1000101 aaaac

#487064439674
b1000011 aaaac

#494967539674
b1000101 aaaab
b1010010 aaaac

#495047659674
b1010010 aaaab
b1000101 aaaac

#495735359674
b1000011 aaaac

#503638459674
b1000101 aaaab
b1010010 aaaac

#503718579674
b1010010 aaaab
b1000101 aaaac

#504406279674
b1000011 aaaac

#512309379674
b1000101 aaaab
b1010010 aaaac

#512389499674
b1010010 aaaab
b1000101 aaaac

#513077199674
b1000011 aaaac

#520980299674
b1000101 aaaab
b1010010 aaaac

#521060419674
b1010010 aaaab
b1000101 aaaac

#521748119674
b1000011 aaaac

#529651219674
b1000101 aaaab
b1010010 aaaac

#529731339674
b1010010 aaaab
b1000101 aaaac

#530419039674
b1000011 aaaac

#538322139674
b1000101 aaaab
b1010010 aaaac

#538402259674
b1010010 aaaab
b1000101 aaaac

#539089959674
b1000011 aaaac

#546993059674
b1000101 aaaab
b1010010 aaaac

#547073179674
b1010010 aaaab
b1000101 aaaac

#547760879674
b1000011 aaaac

#555663979674
b1000101 aaaab
b1010010 aaaac

#555744099674
b1010010 aaaab
b1000101 aaaac

#556431799674
b1000011 aaaac

#564334899674
b1000101 aaaab
b1010010 aaaac

#564415019674
b1010010 aaaab
b1000101 aaaac

#565102719674
b1000011 aaaac

#573005819674
b1000101 aaaab
b1010010 aaaac

#573085939674
b1010010 aaaab
b1000101 aaaac

#573773639674
b1000011 aaaac

#581676739674
b1000101 aaaab
b1010010 aaaac

#581756859674
b1010010 aaaab
b1000101 aaaac

#582444559674
b1000011 aaaac

#590347659674
b1000101 aaaab
b1010010 aaaac

#590427779674
b1010010 aaaab
b1000101 aaaac

#591115479674
b1000011 aaaac

#599018579674
b1000101 aaaab
b1010010 aaaac

#599098699674
b1010010 aaaab
b1000101 aaaac

#599786399674
b1000011 aaaac

#607689499674
b1000101 aaaab
b1010010 aaaac

#607769619674
b1010010 aaaab
b1000101 aaaac

#608457319674
b1000011 aaaac

#616360419674
b1000101 aaaab
b1010010 aaaac

#616440539674
b1010010 aaaab
b1000101 aaaac

#617128239674
b1000011 aaaac

#625031339674
b1000101 aaaab
b1010010 aaaac

#625111459674
b1010010 aaaab
b1000101 aaaac

#625799159674
b1000011 aaaac

#633702259674
b1000101 aaaab
b1010010 aaaac

#633782379674
b1010010 aaaab
b1000101 aaaac

#634470079674
b1000011 aaaac

#642373179674
b1000101 aaaab
b1010010 aaaac

#642453299674
b1010010 aaaab
b1000101 aaaac

#643140999674
b1000011 aaaac

#651044099674
b1000101 aaaab
b1010010 aaaac

#651124219674
b1010010 aaaab
b1000101 aaaac

#651811919674
b1000011 aaaac

#659715019674
b1000101 aaaab
b1010010 aaaac

#659795139674
b1010010 aaaab
b1000101 aaaac

#660482839674
b1000011 aaaac

#668385939674
b1000101 aaaab
b1010010 aaaac

#668466059674
b1010010 aaaab
b1000101 aaaac

#669153759674
b1000011 aaaac

#677056859674
b1000101 aaaab
b1010010 aaaac

#677136979674
b1010010 aaaab
b1000101 aaaac

#677824679674
b1000011 aaaac

#685727779674
b1000101 aaaab
b1010010 aaaac

#685807899674
b1010010 aaaab
b1000101 aaaac

#686495599674
b1000011 aaaac

#694398699674
b1000101 aaaab
b1010010 aaaac

#694478819674
b1010010 aaaab
b1000101 aaaac

#695166519674
b1000011 aaaac

#703069619674
b1000101 aaaab
b1010010 aaaac

#703149739674
b1010010 aaaab
b1000101 aaaac

#703837439674
b1000011 aaaac

#711740539674
b1000101 aaaab
b1010010 aaaac

#711820659674
b1010010 aaaab
b1000101 aaaac

#712508359674
b1000011 aaaac

#720411459674
b1000101 aaaab
b1010010 aaaac

#720491579674
b1010010 aaaab
b1000101 aaaac

#721179279674
b1000011 aaaac

#729082379674
b1000101 aaaab
b1010010 aaaac

#729162499674
b1010010 aaaab
b1000101 aaaac

#729850199674
b1000011 aaaac

#737753299674
b1000101 aaaab
b1010010 aaaac

#737833419674
b1010010 aaaab
b1000101 aaaac

#738521119674
b1000011 aaaac

#746424219674
b1000101 aaaab
b1010010 aaaac

#746504339674
b1010010 aaaab
b1000101 aaaac

#747192039674
b1000011 aaaac

#755095139674
b1000101 aaaab
b1010010 aaaac

#755175259674
b1010010 aaaab
b1000101 aaaac

#755862959674
b1000011 aaaac

#763766059674
b1000101 aaaab
b1010010 aaaac

#763846179674
b1010010 aaaab
b1000101 aaaac

#764533879674
b1000011 aaaac

#772436979674
b1000101 aaaab
b1010010 aaaac

#772517099674
b1010010 aaaab
b1000101 aaaac

#773204799674
b1000011 aaaac

#781107899674
b1000101 aaaab
b1010010 aaaac

#781188019674
b1010010 aaaab
b1000101 aaaac

#781875719674
b1000011 aaaac

#789778819674
b1000101 aaaab
b1010010 aaaac

#789858939674
b1010010 aaaab
b1000101 aaaac

#790546639674
b1000011 aaaac

#798449739674
b1000101 aaaab
b1010010 aaaac

#798529859674
b1010010 aaaab
b1000101 aaaac

#799217559674
b1000011 aaaac

#807120659674
b1000101 aaaab
b1010010 aaaac

#807200779674
b1010010 aaaab
b1000101 aaaac

#807888479674
b1000011 aaaac

#815791579674
b1000101 aaaab
b1010010 aaaac

#815871699674
b1010010 aaaab
b1000101 aaaac

#816559399674
b1000011 aaaac

#824462499674
b1000101 aaaab
b1010010 aaaac

#824542619674
b1010010 aaaab
b1000101 aaaac

#825230319674
b1000011 aaaac

#833133419674
b1000101 aaaab
b1010010 aaaac

#833213539674
b1010010 aaaab
b1000101 aaaac

#833901239674
b1000011 aaaac

#841804339674
b1000101 aaaab
b1010010 aaaac

#841884459674
b1010010 aaaab
b1000101 aaaac

#842572159674
b1000011 aaaac

#850475259674
b1000101 aaaab
b1010010 aaaac

#850555379674
b1010010 aaaab
b1000101 aaaac

#851243079674
b1000011 aaaac

#859146179674
b1000101 aaaab
b1010010 aaaac

#859226299674
b1010010 aaaab
b1000101 aaaac

#859913999674
b1000011 aaaac

#867817099674
b1000101 aaaab
b1010010 aaaac

#867897219674
b1010010 aaaab
b1000101 aaaac

#868584919674
b1000011 aaaac

#876488019674
b1000101 aaaab
b1010010 aaaac

#876568139674
b1010010 aaaab
b1000101 aaaac

#877255839674
b1000011 aaaac

#885158939674
b1000101 aaaab
b1010010 aaaac

#885239059674
b1010010 aaaab
b1000101 aaaac

#885926759674
b1000011 aaaac

#893829859674
b1000101 aaaab
b1010010 aaaac

#893909979674
b1010010 aaaab
b1000101 aaaac

#894597679674
b1000011 aaaac

#902500779674
b1000101 aaaab
b1010010 aaaac

#902580899674
b1010010 aaaab
b1000101 aaaac

#903268599674
b1000011 aaaac

#911171699674
b1000101 aaaab
b1010010 aaaac

#911251819674
b1010010 aaaab
b1000101 aaaac

#911939519674
b1000011 aaaac

#919842619674
b1000101 aaaab
b1010010 aaaac

#919922739674
b1010010 aaaab
b1000101 aaaac

#920610439674
b1000011 aaaac

#928513539674
b1000101 aaaab
b1010010 aaaac

#928593659674
b1010010 aaaab
b1000101 aaaac

#929281359674
b1000011 aaaac

#937184459674
b1000101 aaaab
b1010010 aaaac

#937264579674
b1010010 aaaab
b1000101 aaaac

#937952279674
b1000011 aaaac

#945855379674
b1000101 aaaab
b1010010 aaaac

#945935499674
b1010010 aaaab
b1000101 aaaac

#946623199674
b1000011 aaaac

#954526299674
b1000101 aaaab
b1010010 aaaac

#954606419674
b1010010 aaaab
b1000101 aaaac

#955294119674
b1000011 aaaac

#963197219674
b1000101 aaaab
b1010010 aaaac

#963277339674
b1010010 aaaab
b1000101 aaaac

#963965039674
b1000011 aaaac

#971868139674
b1000101 aaaab
b1010010 aaaac

#971948259674
b1010010 aaaab
b1000101 aaaac

#972635959674
b1000011 aaaac

#980539059674
b1000101 aaaab
b1010010 aaaac

#980619179674
b1010010 aaaab
b1000101 aaaac

#981306879674
b1000011 aaaac

#989209979674
b1000101 aaaab
b1010010 aaaac

#989290099674
b1010010 aaaab
b1000101 aaaac

#989977799674
b1000011 aaaac

#997880899674
b1000101 aaaab
b1010010 aaaac

#997961019674
b1010010 aaaab
b1000101 aaaac

#998648719674
b1000011 aaaac

