examples/energy_power/brt_ex6_energ_power/scheduler1_trace.vcd
$comment
File created by KisTA library.
 Author: F.Herrera
 Institution: KTH
 Date: 2013
	All rights reserved by the authors, till further definition of the license.
$end

$comment
Tracing options used include to trace Task State signals,  Scheduler signals 
$end

$date
     Mar 22, 2016       10:35:20
$end

$version
              SystemC 2.3.0-ASI --- Nov 27 2012 23:10:59
$end

$timescale
     1 ps
$end

$scope module SystemC $end
$var wire    8  aaa  scheduler1 [7:0]  $end
$var wire    8  aab  task1 [7:0]  $end
$var wire    8  aac  task2 [7:0]  $end
$var wire    8  aad  task3 [7:0]  $end
$var wire    8  aae  task4 [7:0]  $end
$var wire    8  aaf  task5 [7:0]  $end
$upscope $end
$enddefinitions  $end

$comment
All initial values are dumped below at time 0 sec = 0 timescale units.
$end

$dumpvars
b1001001 aaa
b1010010 aab
b1000101 aac
b1010010 aad
b1010010 aae
b1010010 aaf
$end

#200000000000
b1010010 aac
b1000101 aaf

#700000000000
b1000101 aae
b1010010 aaf

#1100000000000
b1000101 aab
b1010010 aae

#1200000000000
b1010010 aab
b1000101 aac

#1400000000000
b1000101 aab
b1010010 aac

#1500000000000
b1010010 aab
b1000101 aad

#1800000000000
b1000101 aac
b1010010 aad

#2000000000000
b1010010 aac
b1000101 aaf

#2500000000000
b1000101 aae
b1010010 aaf

#2900000000000
b1000101 aab
b1010010 aae

#3000000000000
b1010010 aab
b1000101 aac

#3200000000000
b1000101 aab
b1010010 aac

#3300000000000
b1010010 aab
b1000101 aad

#3600000000000
b1000101 aac
b1010010 aad

#3800000000000
b1010010 aac
b1000101 aaf

#4300000000000
b1000101 aae
b1010010 aaf

#4700000000000
b1000101 aab
b1010010 aae

#4800000000000
b1010010 aab
b1000101 aac

#5000000000000
b1000101 aab
b1010010 aac

#5100000000000
b1010010 aab
b1000101 aad

#5400000000000
b1000101 aac
b1010010 aad

#5600000000000
b1010010 aac
b1000101 aaf

#6100000000000
b1000101 aae
b1010010 aaf

#6500000000000
b1000101 aab
b1010010 aae

#6600000000000
b1010010 aab
b1000101 aac

#6800000000000
b1000101 aab
b1010010 aac

#6900000000000
b1010010 aab
b1000101 aad

#7200000000000
b1000101 aac
b1010010 aad

#7400000000000
b1010010 aac
b1000101 aaf

#7900000000000
b1000101 aae
b1010010 aaf

#8300000000000
b1000101 aab
b1010010 aae

#8400000000000
b1010010 aab
b1000101 aac

#8600000000000
b1000101 aab
b1010010 aac

#8700000000000
b1010010 aab
b1000101 aad

#9000000000000
b1000101 aac
b1010010 aad

#9200000000000
b1010010 aac
b1000101 aaf

#9700000000000
b1000101 aae
b1010010 aaf

#10100000000000
b1000101 aab
b1010010 aae

#10200000000000
b1010010 aab
b1000101 aac

#10400000000000
b1000101 aab
b1010010 aac

#10500000000000
b1010010 aab
b1000101 aad

#10800000000000
b1000101 aac
b1010010 aad

#11000000000000
b1010010 aac
b1000101 aaf

#11500000000000
b1000101 aae
b1010010 aaf

#11900000000000
b1000101 aab
b1010010 aae

#12000000000000
b1010010 aab
b1000101 aac

#12200000000000
b1000101 aab
b1010010 aac

#12300000000000
b1010010 aab
b1000101 aad

#12600000000000
b1000101 aac
b1010010 aad

#12800000000000
b1010010 aac
b1000101 aaf

#13300000000000
b1000101 aae
b1010010 aaf

#13700000000000
b1000101 aab
b1010010 aae

#13800000000000
b1010010 aab
b1000101 aac

#14000000000000
b1000101 aab
b1010010 aac

#14100000000000
b1010010 aab
b1000101 aad

#14400000000000
b1000101 aac
b1010010 aad

#14600000000000
b1010010 aac
b1000101 aaf

#15100000000000
b1000101 aae
b1010010 aaf

#15500000000000
b1000101 aab
b1010010 aae

#15600000000000
b1010010 aab
b1000101 aac

#15800000000000
b1000101 aab
b1010010 aac

#15900000000000
b1010010 aab
b1000101 aad

#16200000000000
b1000101 aac
b1010010 aad

#16400000000000
b1010010 aac
b1000101 aaf

#16900000000000
b1000101 aae
b1010010 aaf

#17300000000000
b1000101 aab
b1010010 aae

#17400000000000
b1010010 aab
b1000101 aac

#17600000000000
b1000101 aab
b1010010 aac

#17700000000000
b1010010 aab
b1000101 aad

#18000000000000
b1000101 aac
b1010010 aad

#18200000000000
b1010010 aac
b1000101 aaf

#18700000000000
b1000101 aae
b1010010 aaf

#19100000000000
b1000101 aab
b1010010 aae

#19200000000000
b1010010 aab
b1000101 aac

#19400000000000
b1000101 aab
b1010010 aac

#19500000000000
b1010010 aab
b1000101 aad

#19800000000000
b1000101 aac
b1010010 aad

#20000000000000
b1010010 aac
b1000101 aaf

#20500000000000
b1000101 aae
b1010010 aaf

#20900000000000
b1000101 aab
b1010010 aae

#21000000000000
b1010010 aab
b1000101 aac

#21200000000000
b1000101 aab
b1010010 aac

#21300000000000
b1010010 aab
b1000101 aad

#21600000000000
b1000101 aac
b1010010 aad

#21800000000000
b1010010 aac
b1000101 aaf

#22300000000000
b1000101 aae
b1010010 aaf

#22700000000000
b1000101 aab
b1010010 aae

#22800000000000
b1010010 aab
b1000101 aac

#23000000000000
b1000101 aab
b1010010 aac

#23100000000000
b1010010 aab
b1000101 aad

#23400000000000
b1000101 aac
b1010010 aad

#23600000000000
b1010010 aac
b1000101 aaf

#24100000000000
b1000101 aae
b1010010 aaf

#24500000000000
b1000101 aab
b1010010 aae

#24600000000000
b1010010 aab
b1000101 aac

#24800000000000
b1000101 aab
b1010010 aac

#24900000000000
b1010010 aab
b1000101 aad

#25200000000000
b1000101 aac
b1010010 aad

#25400000000000
b1010010 aac
b1000101 aaf

#25900000000000
b1000101 aae
b1010010 aaf

#26300000000000
b1000101 aab
b1010010 aae

#26400000000000
b1010010 aab
b1000101 aac

#26600000000000
b1000101 aab
b1010010 aac

#26700000000000
b1010010 aab
b1000101 aad

#27000000000000
b1000101 aac
b1010010 aad

#27200000000000
b1010010 aac
b1000101 aaf

#27700000000000
b1000101 aae
b1010010 aaf

#28100000000000
b1000101 aab
b1010010 aae

#28200000000000
b1010010 aab
b1000101 aac

#28400000000000
b1000101 aab
b1010010 aac

#28500000000000
b1010010 aab
b1000101 aad

#28800000000000
b1000101 aac
b1010010 aad

#29000000000000
b1010010 aac
b1000101 aaf

#29500000000000
b1000101 aae
b1010010 aaf

#29900000000000
b1000101 aab
b1010010 aae

#30000000000000
b1010010 aab
b1000101 aac

#30200000000000
b1000101 aab
b1010010 aac

#30300000000000
b1010010 aab
b1000101 aad

#30600000000000
b1000101 aac
b1010010 aad

#30800000000000
b1010010 aac
b1000101 aaf

#31300000000000
b1000101 aae
b1010010 aaf

#31700000000000
b1000101 aab
b1010010 aae

#31800000000000
b1010010 aab
b1000101 aac

#32000000000000
b1000101 aab
b1010010 aac

#32100000000000
b1010010 aab
b1000101 aad

#32400000000000
b1000101 aac
b1010010 aad

#32600000000000
b1010010 aac
b1000101 aaf

#33100000000000
b1000101 aae
b1010010 aaf

#33500000000000
b1000101 aab
b1010010 aae

#33600000000000
b1010010 aab
b1000101 aac

#33800000000000
b1000101 aab
b1010010 aac

#33900000000000
b1010010 aab
b1000101 aad

#34200000000000
b1000101 aac
b1010010 aad

#34400000000000
b1010010 aac
b1000101 aaf

#34900000000000
b1000101 aae
b1010010 aaf

#35300000000000
b1000101 aab
b1010010 aae

#35400000000000
b1010010 aab
b1000101 aac

#35600000000000
b1000101 aab
b1010010 aac

#35700000000000
b1010010 aab
b1000101 aad

#36000000000000
b1000101 aac
b1010010 aad

#36200000000000
b1010010 aac
b1000101 aaf

#36700000000000
b1000101 aae
b1010010 aaf

#37100000000000
b1000101 aab
b1010010 aae

#37200000000000
b1010010 aab
b1000101 aac

#37400000000000
b1000101 aab
b1010010 aac

#37500000000000
b1010010 aab
b1000101 aad

#37800000000000
b1000101 aac
b1010010 aad

#38000000000000
b1010010 aac
b1000101 aaf

#38500000000000
b1000101 aae
b1010010 aaf

#38900000000000
b1000101 aab
b1010010 aae

#39000000000000
b1010010 aab
b1000101 aac

#39200000000000
b1000101 aab
b1010010 aac

#39300000000000
b1010010 aab
b1000101 aad

#39600000000000
b1000101 aac
b1010010 aad

#39800000000000
b1010010 aac
b1000101 aaf

#40300000000000
b1000101 aae
b1010010 aaf

#40700000000000
b1000101 aab
b1010010 aae

#40800000000000
b1010010 aab
b1000101 aac

#41000000000000
b1000101 aab
b1010010 aac

#41100000000000
b1010010 aab
b1000101 aad

#41400000000000
b1000101 aac
b1010010 aad

#41600000000000
b1010010 aac
b1000101 aaf

#42100000000000
b1000101 aae
b1010010 aaf

#42500000000000
b1000101 aab
b1010010 aae

#42600000000000
b1010010 aab
b1000101 aac

#42800000000000
b1000101 aab
b1010010 aac

#42900000000000
b1010010 aab
b1000101 aad

#43200000000000
b1000101 aac
b1010010 aad

#43400000000000
b1010010 aac
b1000101 aaf

#43900000000000
b1000101 aae
b1010010 aaf

#44300000000000
b1000101 aab
b1010010 aae

#44400000000000
b1010010 aab
b1000101 aac

#44600000000000
b1000101 aab
b1010010 aac

#44700000000000
b1010010 aab
b1000101 aad

#45000000000000
b1000101 aac
b1010010 aad

#45200000000000
b1010010 aac
b1000101 aaf

#45700000000000
b1000101 aae
b1010010 aaf

#46100000000000
b1000101 aab
b1010010 aae

#46200000000000
b1010010 aab
b1000101 aac

#46400000000000
b1000101 aab
b1010010 aac

#46500000000000
b1010010 aab
b1000101 aad

#46800000000000
b1000101 aac
b1010010 aad

#47000000000000
b1010010 aac
b1000101 aaf

#47500000000000
b1000101 aae
b1010010 aaf

#47900000000000
b1000101 aab
b1010010 aae

#48000000000000
b1010010 aab
b1000101 aac

#48200000000000
b1000101 aab
b1010010 aac

#48300000000000
b1010010 aab
b1000101 aad

#48600000000000
b1000101 aac
b1010010 aad

#48800000000000
b1010010 aac
b1000101 aaf

#49300000000000
b1000101 aae
b1010010 aaf

#49700000000000
b1000101 aab
b1010010 aae

#49800000000000
b1010010 aab
b1000101 aac

#50000000000000
b1000101 aab
b1010010 aac

#50100000000000
b1010010 aab
b1000101 aad

#50400000000000
b1000101 aac
b1010010 aad

#50600000000000
b1010010 aac
b1000101 aaf

#51100000000000
b1000101 aae
b1010010 aaf

#51500000000000
b1000101 aab
b1010010 aae

#51600000000000
b1010010 aab
b1000101 aac

#51800000000000
b1000101 aab
b1010010 aac

#51900000000000
b1010010 aab
b1000101 aad

#52200000000000
b1000101 aac
b1010010 aad

#52400000000000
b1010010 aac
b1000101 aaf

#52900000000000
b1000101 aae
b1010010 aaf

#53300000000000
b1000101 aab
b1010010 aae

#53400000000000
b1010010 aab
b1000101 aac

#53600000000000
b1000101 aab
b1010010 aac

#53700000000000
b1010010 aab
b1000101 aad

#54000000000000
b1000101 aac
b1010010 aad

#54200000000000
b1010010 aac
b1000101 aaf

#54700000000000
b1000101 aae
b1010010 aaf

#55100000000000
b1000101 aab
b1010010 aae

#55200000000000
b1010010 aab
b1000101 aac

#55400000000000
b1000101 aab
b1010010 aac

#55500000000000
b1010010 aab
b1000101 aad

#55800000000000
b1000101 aac
b1010010 aad

#56000000000000
b1010010 aac
b1000101 aaf

#56500000000000
b1000101 aae
b1010010 aaf

#56900000000000
b1000101 aab
b1010010 aae

#57000000000000
b1010010 aab
b1000101 aac

#57200000000000
b1000101 aab
b1010010 aac

#57300000000000
b1010010 aab
b1000101 aad

#57600000000000
b1000101 aac
b1010010 aad

#57800000000000
b1010010 aac
b1000101 aaf

#58300000000000
b1000101 aae
b1010010 aaf

#58700000000000
b1000101 aab
b1010010 aae

#58800000000000
b1010010 aab
b1000101 aac

#59000000000000
b1000101 aab
b1010010 aac

#59100000000000
b1010010 aab
b1000101 aad

#59400000000000
b1000101 aac
b1010010 aad

#59600000000000
b1010010 aac
b1000101 aaf

#60100000000000
b1000101 aae
b1010010 aaf

#60500000000000
b1000101 aab
b1010010 aae

#60600000000000
b1010010 aab
b1000101 aac

#60800000000000
b1000101 aab
b1010010 aac

#60900000000000
b1010010 aab
b1000101 aad

#61200000000000
b1000101 aac
b1010010 aad

#61400000000000
b1010010 aac
b1000101 aaf

#61900000000000
b1000101 aae
b1010010 aaf

#62300000000000
b1000101 aab
b1010010 aae

#62400000000000
b1010010 aab
b1000101 aac

#62600000000000
b1000101 aab
b1010010 aac

#62700000000000
b1010010 aab
b1000101 aad

#63000000000000
b1000101 aac
b1010010 aad

#63200000000000
b1010010 aac
b1000101 aaf

#63700000000000
b1000101 aae
b1010010 aaf

#64100000000000
b1000101 aab
b1010010 aae

#64200000000000
b1010010 aab
b1000101 aac

#64400000000000
b1000101 aab
b1010010 aac

#64500000000000
b1010010 aab
b1000101 aad

#64800000000000
b1000101 aac
b1010010 aad

#65000000000000
b1010010 aac
b1000101 aaf

#65500000000000
b1000101 aae
b1010010 aaf

#65900000000000
b1000101 aab
b1010010 aae

#66000000000000
b1010010 aab
b1000101 aac

#66200000000000
b1000101 aab
b1010010 aac

#66300000000000
b1010010 aab
b1000101 aad

#66600000000000
b1000101 aac
b1010010 aad

#66800000000000
b1010010 aac
b1000101 aaf

#67300000000000
b1000101 aae
b1010010 aaf

#67700000000000
b1000101 aab
b1010010 aae

#67800000000000
b1010010 aab
b1000101 aac

#68000000000000
b1000101 aab
b1010010 aac

#68100000000000
b1010010 aab
b1000101 aad

#68400000000000
b1000101 aac
b1010010 aad

#68600000000000
b1010010 aac
b1000101 aaf

#69100000000000
b1000101 aae
b1010010 aaf

#69500000000000
b1000101 aab
b1010010 aae

#69600000000000
b1010010 aab
b1000101 aac

#69800000000000
b1000101 aab
b1010010 aac

#69900000000000
b1010010 aab
b1000101 aad

#70200000000000
b1000101 aac
b1010010 aad

#70400000000000
b1010010 aac
b1000101 aaf

#70900000000000
b1000101 aae
b1010010 aaf

#71300000000000
b1000101 aab
b1010010 aae

#71400000000000
b1010010 aab
b1000101 aac

#71600000000000
b1000101 aab
b1010010 aac

#71700000000000
b1010010 aab
b1000101 aad

#72000000000000
b1000101 aac
b1010010 aad

#72200000000000
b1010010 aac
b1000101 aaf

#72700000000000
b1000101 aae
b1010010 aaf

#73100000000000
b1000101 aab
b1010010 aae

#73200000000000
b1010010 aab
b1000101 aac

#73400000000000
b1000101 aab
b1010010 aac

#73500000000000
b1010010 aab
b1000101 aad

#73800000000000
b1000101 aac
b1010010 aad

#74000000000000
b1010010 aac
b1000101 aaf

#74500000000000
b1000101 aae
b1010010 aaf

#74900000000000
b1000101 aab
b1010010 aae

#75000000000000
b1010010 aab
b1000101 aac

#75200000000000
b1000101 aab
b1010010 aac

#75300000000000
b1010010 aab
b1000101 aad

#75600000000000
b1000101 aac
b1010010 aad

#75800000000000
b1010010 aac
b1000101 aaf

#76300000000000
b1000101 aae
b1010010 aaf

#76700000000000
b1000101 aab
b1010010 aae

#76800000000000
b1010010 aab
b1000101 aac

#77000000000000
b1000101 aab
b1010010 aac

#77100000000000
b1010010 aab
b1000101 aad

#77400000000000
b1000101 aac
b1010010 aad

#77600000000000
b1010010 aac
b1000101 aaf

#78100000000000
b1000101 aae
b1010010 aaf

#78500000000000
b1000101 aab
b1010010 aae

#78600000000000
b1010010 aab
b1000101 aac

#78800000000000
b1000101 aab
b1010010 aac

#78900000000000
b1010010 aab
b1000101 aad

#79200000000000
b1000101 aac
b1010010 aad

#79400000000000
b1010010 aac
b1000101 aaf

#79900000000000
b1000101 aae
b1010010 aaf

#80300000000000
b1000101 aab
b1010010 aae

#80400000000000
b1010010 aab
b1000101 aac

#80600000000000
b1000101 aab
b1010010 aac

#80700000000000
b1010010 aab
b1000101 aad

#81000000000000
b1000101 aac
b1010010 aad

#81200000000000
b1010010 aac
b1000101 aaf

#81700000000000
b1000101 aae
b1010010 aaf

#82100000000000
b1000101 aab
b1010010 aae

#82200000000000
b1010010 aab
b1000101 aac

#82400000000000
b1000101 aab
b1010010 aac

#82500000000000
b1010010 aab
b1000101 aad

#82800000000000
b1000101 aac
b1010010 aad

#83000000000000
b1010010 aac
b1000101 aaf

#83500000000000
b1000101 aae
b1010010 aaf

#83900000000000
b1000101 aab
b1010010 aae

#84000000000000
b1010010 aab
b1000101 aac

#84200000000000
b1000101 aab
b1010010 aac

#84300000000000
b1010010 aab
b1000101 aad

#84600000000000
b1000101 aac
b1010010 aad

#84800000000000
b1010010 aac
b1000101 aaf

#85300000000000
b1000101 aae
b1010010 aaf

#85700000000000
b1000101 aab
b1010010 aae

#85800000000000
b1010010 aab
b1000101 aac

#86000000000000
b1000101 aab
b1010010 aac

#86100000000000
b1010010 aab
b1000101 aad

#86400000000000
b1000101 aac
b1010010 aad

#86600000000000
b1010010 aac
b1000101 aaf

#87100000000000
b1000101 aae
b1010010 aaf

#87500000000000
b1000101 aab
b1010010 aae

#87600000000000
b1010010 aab
b1000101 aac

#87800000000000
b1000101 aab
b1010010 aac

#87900000000000
b1010010 aab
b1000101 aad

#88200000000000
b1000101 aac
b1010010 aad

#88400000000000
b1010010 aac
b1000101 aaf

#88900000000000
b1000101 aae
b1010010 aaf

#89300000000000
b1000101 aab
b1010010 aae

#89400000000000
b1010010 aab
b1000101 aac

#89600000000000
b1000101 aab
b1010010 aac

#89700000000000
b1010010 aab
b1000101 aad

#90000000000000
b1000101 aac
b1010010 aad

#90200000000000
b1010010 aac
b1000101 aaf

#90700000000000
b1000101 aae
b1010010 aaf

#91100000000000
b1000101 aab
b1010010 aae

#91200000000000
b1010010 aab
b1000101 aac

#91400000000000
b1000101 aab
b1010010 aac

#91500000000000
b1010010 aab
b1000101 aad

#91800000000000
b1000101 aac
b1010010 aad

#92000000000000
b1010010 aac
b1000101 aaf

#92500000000000
b1000101 aae
b1010010 aaf

#92900000000000
b1000101 aab
b1010010 aae

#93000000000000
b1010010 aab
b1000101 aac

#93200000000000
b1000101 aab
b1010010 aac

#93300000000000
b1010010 aab
b1000101 aad

#93600000000000
b1000101 aac
b1010010 aad

#93800000000000
b1010010 aac
b1000101 aaf

#94300000000000
b1000101 aae
b1010010 aaf

#94700000000000
b1000101 aab
b1010010 aae

#94800000000000
b1010010 aab
b1000101 aac

#95000000000000
b1000101 aab
b1010010 aac

#95100000000000
b1010010 aab
b1000101 aad

#95400000000000
b1000101 aac
b1010010 aad

#95600000000000
b1010010 aac
b1000101 aaf

#96100000000000
b1000101 aae
b1010010 aaf

#96500000000000
b1000101 aab
b1010010 aae

#96600000000000
b1010010 aab
b1000101 aac

#96800000000000
b1000101 aab
b1010010 aac

#96900000000000
b1010010 aab
b1000101 aad

#97200000000000
b1000101 aac
b1010010 aad

#97400000000000
b1010010 aac
b1000101 aaf

#97900000000000
b1000101 aae
b1010010 aaf

#98300000000000
b1000101 aab
b1010010 aae

#98400000000000
b1010010 aab
b1000101 aac

#98600000000000
b1000101 aab
b1010010 aac

#98700000000000
b1010010 aab
b1000101 aad

#99000000000000
b1000101 aac
b1010010 aad

#99200000000000
b1010010 aac
b1000101 aaf

#99700000000000
b1000101 aae
b1010010 aaf

#100100000000000
b1000101 aab
b1010010 aae

#100200000000000
b1010010 aab
b1000101 aac

#100400000000000
b1000101 aab
b1010010 aac

#100500000000000
b1010010 aab
b1000101 aad

#100800000000000
b1000101 aac
b1010010 aad

#101000000000000
b1010010 aac
b1000101 aaf

#101500000000000
b1000101 aae
b1010010 aaf

#101900000000000
b1000101 aab
b1010010 aae

#102000000000000
b1010010 aab
b1000101 aac

#102200000000000
b1000101 aab
b1010010 aac

#102300000000000
b1010010 aab
b1000101 aad

#102600000000000
b1000101 aac
b1010010 aad

#102800000000000
b1010010 aac
b1000101 aaf

#103300000000000
b1000101 aae
b1010010 aaf

#103700000000000
b1000101 aab
b1010010 aae

#103800000000000
b1010010 aab
b1000101 aac

#104000000000000
b1000101 aab
b1010010 aac

#104100000000000
b1010010 aab
b1000101 aad

#104400000000000
b1000101 aac
b1010010 aad

#104600000000000
b1010010 aac
b1000101 aaf

#105100000000000
b1000101 aae
b1010010 aaf

#105500000000000
b1000101 aab
b1010010 aae

#105600000000000
b1010010 aab
b1000101 aac

#105800000000000
b1000101 aab
b1010010 aac

#105900000000000
b1010010 aab
b1000101 aad

#106200000000000
b1000101 aac
b1010010 aad

#106400000000000
b1010010 aac
b1000101 aaf

#106900000000000
b1000101 aae
b1010010 aaf

#107300000000000
b1000101 aab
b1010010 aae

#107400000000000
b1010010 aab
b1000101 aac

#107600000000000
b1000101 aab
b1010010 aac

#107700000000000
b1010010 aab
b1000101 aad

#108000000000000
b1000101 aac
b1010010 aad

#108200000000000
b1010010 aac
b1000101 aaf

#108700000000000
b1000101 aae
b1010010 aaf

#109100000000000
b1000101 aab
b1010010 aae

#109200000000000
b1010010 aab
b1000101 aac

#109400000000000
b1000101 aab
b1010010 aac

#109500000000000
b1010010 aab
b1000101 aad

#109800000000000
b1000101 aac
b1010010 aad

#110000000000000
b1010010 aac
b1000101 aaf

#110500000000000
b1000101 aae
b1010010 aaf

#110900000000000
b1000101 aab
b1010010 aae

#111000000000000
b1010010 aab
b1000101 aac

#111200000000000
b1000101 aab
b1010010 aac

#111300000000000
b1010010 aab
b1000101 aad

#111600000000000
b1000101 aac
b1010010 aad

#111800000000000
b1010010 aac
b1000101 aaf

#112300000000000
b1000101 aae
b1010010 aaf

#112700000000000
b1000101 aab
b1010010 aae

#112800000000000
b1010010 aab
b1000101 aac

#113000000000000
b1000101 aab
b1010010 aac

#113100000000000
b1010010 aab
b1000101 aad

#113400000000000
b1000101 aac
b1010010 aad

#113600000000000
b1010010 aac
b1000101 aaf

#114100000000000
b1000101 aae
b1010010 aaf

#114500000000000
b1000101 aab
b1010010 aae

#114600000000000
b1010010 aab
b1000101 aac

#114800000000000
b1000101 aab
b1010010 aac

#114900000000000
b1010010 aab
b1000101 aad

#115200000000000
b1000101 aac
b1010010 aad

#115400000000000
b1010010 aac
b1000101 aaf

#115900000000000
b1000101 aae
b1010010 aaf

#116300000000000
b1000101 aab
b1010010 aae

#116400000000000
b1010010 aab
b1000101 aac

#116600000000000
b1000101 aab
b1010010 aac

#116700000000000
b1010010 aab
b1000101 aad

#117000000000000
b1000101 aac
b1010010 aad

#117200000000000
b1010010 aac
b1000101 aaf

#117700000000000
b1000101 aae
b1010010 aaf

#118100000000000
b1000101 aab
b1010010 aae

#118200000000000
b1010010 aab
b1000101 aac

#118400000000000
b1000101 aab
b1010010 aac

#118500000000000
b1010010 aab
b1000101 aad

#118800000000000
b1000101 aac
b1010010 aad

#119000000000000
b1010010 aac
b1000101 aaf

#119500000000000
b1000101 aae
b1010010 aaf

#119900000000000
b1000101 aab
b1010010 aae

#120000000000000
b1010010 aab
b1000101 aac

#120200000000000
b1000101 aab
b1010010 aac

#120300000000000
b1010010 aab
b1000101 aad

#120600000000000
b1000101 aac
b1010010 aad

#120800000000000
b1010010 aac
b1000101 aaf

#121300000000000
b1000101 aae
b1010010 aaf

#121700000000000
b1000101 aab
b1010010 aae

#121800000000000
b1010010 aab
b1000101 aac

#122000000000000
b1000101 aab
b1010010 aac

#122100000000000
b1010010 aab
b1000101 aad

#122400000000000
b1000101 aac
b1010010 aad

#122600000000000
b1010010 aac
b1000101 aaf

#123100000000000
b1000101 aae
b1010010 aaf

#123500000000000
b1000101 aab
b1010010 aae

#123600000000000
b1010010 aab
b1000101 aac

#123800000000000
b1000101 aab
b1010010 aac

#123900000000000
b1010010 aab
b1000101 aad

#124200000000000
b1000101 aac
b1010010 aad

#124400000000000
b1010010 aac
b1000101 aaf

#124900000000000
b1000101 aae
b1010010 aaf

#125300000000000
b1000101 aab
b1010010 aae

#125400000000000
b1010010 aab
b1000101 aac

#125600000000000
b1000101 aab
b1010010 aac

#125700000000000
b1010010 aab
b1000101 aad

#126000000000000
b1000101 aac
b1010010 aad

#126200000000000
b1010010 aac
b1000101 aaf

#126700000000000
b1000101 aae
b1010010 aaf

#127100000000000
b1000101 aab
b1010010 aae

#127200000000000
b1010010 aab
b1000101 aac

#127400000000000
b1000101 aab
b1010010 aac

#127500000000000
b1010010 aab
b1000101 aad

#127800000000000
b1000101 aac
b1010010 aad

#128000000000000
b1010010 aac
b1000101 aaf

#128500000000000
b1000101 aae
b1010010 aaf

#128900000000000
b1000101 aab
b1010010 aae

#129000000000000
b1010010 aab
b1000101 aac

#129200000000000
b1000101 aab
b1010010 aac

#129300000000000
b1010010 aab
b1000101 aad

#129600000000000
b1000101 aac
b1010010 aad

#129800000000000
b1010010 aac
b1000101 aaf

#130300000000000
b1000101 aae
b1010010 aaf

#130700000000000
b1000101 aab
b1010010 aae

#130800000000000
b1010010 aab
b1000101 aac

#131000000000000
b1000101 aab
b1010010 aac

#131100000000000
b1010010 aab
b1000101 aad

#131400000000000
b1000101 aac
b1010010 aad

#131600000000000
b1010010 aac
b1000101 aaf

#132100000000000
b1000101 aae
b1010010 aaf

#132500000000000
b1000101 aab
b1010010 aae

#132600000000000
b1010010 aab
b1000101 aac

#132800000000000
b1000101 aab
b1010010 aac

#132900000000000
b1010010 aab
b1000101 aad

#133200000000000
b1000101 aac
b1010010 aad

#133400000000000
b1010010 aac
b1000101 aaf

#133900000000000
b1000101 aae
b1010010 aaf

#134300000000000
b1000101 aab
b1010010 aae

#134400000000000
b1010010 aab
b1000101 aac

#134600000000000
b1000101 aab
b1010010 aac

#134700000000000
b1010010 aab
b1000101 aad

#135000000000000
b1000101 aac
b1010010 aad

#135200000000000
b1010010 aac
b1000101 aaf

#135700000000000
b1000101 aae
b1010010 aaf

#136100000000000
b1000101 aab
b1010010 aae

#136200000000000
b1010010 aab
b1000101 aac

#136400000000000
b1000101 aab
b1010010 aac

#136500000000000
b1010010 aab
b1000101 aad

#136800000000000
b1000101 aac
b1010010 aad

#137000000000000
b1010010 aac
b1000101 aaf

#137500000000000
b1000101 aae
b1010010 aaf

#137900000000000
b1000101 aab
b1010010 aae

#138000000000000
b1010010 aab
b1000101 aac

#138200000000000
b1000101 aab
b1010010 aac

#138300000000000
b1010010 aab
b1000101 aad

#138600000000000
b1000101 aac
b1010010 aad

#138800000000000
b1010010 aac
b1000101 aaf

#139300000000000
b1000101 aae
b1010010 aaf

#139700000000000
b1000101 aab
b1010010 aae

#139800000000000
b1010010 aab
b1000101 aac

#140000000000000
b1000101 aab
b1010010 aac

#140100000000000
b1010010 aab
b1000101 aad

#140400000000000
b1000101 aac
b1010010 aad

#140600000000000
b1010010 aac
b1000101 aaf

#141100000000000
b1000101 aae
b1010010 aaf

#141500000000000
b1000101 aab
b1010010 aae

#141600000000000
b1010010 aab
b1000101 aac

#141800000000000
b1000101 aab
b1010010 aac

#141900000000000
b1010010 aab
b1000101 aad

#142200000000000
b1000101 aac
b1010010 aad

#142400000000000
b1010010 aac
b1000101 aaf

#142900000000000
b1000101 aae
b1010010 aaf

#143300000000000
b1000101 aab
b1010010 aae

#143400000000000
b1010010 aab
b1000101 aac

#143600000000000
b1000101 aab
b1010010 aac

#143700000000000
b1010010 aab
b1000101 aad

#144000000000000
b1000101 aac
b1010010 aad

#144200000000000
b1010010 aac
b1000101 aaf

#144700000000000
b1000101 aae
b1010010 aaf

#145100000000000
b1000101 aab
b1010010 aae

#145200000000000
b1010010 aab
b1000101 aac

#145400000000000
b1000101 aab
b1010010 aac

#145500000000000
b1010010 aab
b1000101 aad

#145800000000000
b1000101 aac
b1010010 aad

#146000000000000
b1010010 aac
b1000101 aaf

#146500000000000
b1000101 aae
b1010010 aaf

#146900000000000
b1000101 aab
b1010010 aae

#147000000000000
b1010010 aab
b1000101 aac

#147200000000000
b1000101 aab
b1010010 aac

#147300000000000
b1010010 aab
b1000101 aad

#147600000000000
b1000101 aac
b1010010 aad

#147800000000000
b1010010 aac
b1000101 aaf

#148300000000000
b1000101 aae
b1010010 aaf

#148700000000000
b1000101 aab
b1010010 aae

#148800000000000
b1010010 aab
b1000101 aac

#149000000000000
b1000101 aab
b1010010 aac

#149100000000000
b1010010 aab
b1000101 aad

#149400000000000
b1000101 aac
b1010010 aad

#149600000000000
b1010010 aac
b1000101 aaf

#150100000000000
b1000101 aae
b1010010 aaf

#150500000000000
b1000101 aab
b1010010 aae

#150600000000000
b1010010 aab
b1000101 aac

#150800000000000
b1000101 aab
b1010010 aac

#150900000000000
b1010010 aab
b1000101 aad

#151200000000000
b1000101 aac
b1010010 aad

#151400000000000
b1010010 aac
b1000101 aaf

#151900000000000
b1000101 aae
b1010010 aaf

#152300000000000
b1000101 aab
b1010010 aae

#152400000000000
b1010010 aab
b1000101 aac

#152600000000000
b1000101 aab
b1010010 aac

#152700000000000
b1010010 aab
b1000101 aad

#153000000000000
b1000101 aac
b1010010 aad

#153200000000000
b1010010 aac
b1000101 aaf

#153700000000000
b1000101 aae
b1010010 aaf

#154100000000000
b1000101 aab
b1010010 aae

#154200000000000
b1010010 aab
b1000101 aac

#154400000000000
b1000101 aab
b1010010 aac

#154500000000000
b1010010 aab
b1000101 aad

#154800000000000
b1000101 aac
b1010010 aad

#155000000000000
b1010010 aac
b1000101 aaf

#155500000000000
b1000101 aae
b1010010 aaf

#155900000000000
b1000101 aab
b1010010 aae

#156000000000000
b1010010 aab
b1000101 aac

#156200000000000
b1000101 aab
b1010010 aac

#156300000000000
b1010010 aab
b1000101 aad

#156600000000000
b1000101 aac
b1010010 aad

#156800000000000
b1010010 aac
b1000101 aaf

#157300000000000
b1000101 aae
b1010010 aaf

#157700000000000
b1000101 aab
b1010010 aae

#157800000000000
b1010010 aab
b1000101 aac

#158000000000000
b1000101 aab
b1010010 aac

#158100000000000
b1010010 aab
b1000101 aad

#158400000000000
b1000101 aac
b1010010 aad

#158600000000000
b1010010 aac
b1000101 aaf

#159100000000000
b1000101 aae
b1010010 aaf

#159500000000000
b1000101 aab
b1010010 aae

#159600000000000
b1010010 aab
b1000101 aac

#159800000000000
b1000101 aab
b1010010 aac

#159900000000000
b1010010 aab
b1000101 aad

#160200000000000
b1000101 aac
b1010010 aad

#160400000000000
b1010010 aac
b1000101 aaf

